{"componentChunkName":"component---packages-blog-core-src-templates-collection-tag-js","path":"/tag/agency/page/6/","result":{"data":{"collectionInfo":{"id":"853903ab-6fa6-58de-b05e-cd9904325aa5","name":"#agency","slug":"/tag/agency/"},"posts":{"nodes":[{"__typename":"MdxArticleProxy","id":"7e3d8eca-d70b-50f7-bc55-a59fee9a4a7c","title":"We Still Don't Know Exactly How The Stauffers Placed","slug":"/we-still-dont-know-exactly-how-the-stauffers-placed/","link":null,"excerpt":"Lorem markdownum suarum successibus Auram illud. Aqua exegit silvae exiguam\ntempli, cui linquit…","timeToRead":1,"featured":null,"thumbnailText":null,"date":"April 16, 2019","category":{"__typename":"CategoriesJson","id":"49f29e24-4ccd-5dd6-a10e-f5df9f47bfc8","name":"投資理財","slug":"/category/investment/","color":"#e9d8fd","icon":"/notes/static/d29b482eedef98cc9c29a2dd9b5ace42/investment.svg"},"author":{"__typename":"AuthorsJson","id":"4b1e40cf-22c6-5dec-873b-77ed81aa0f5a","name":"Paul Jiang","slug":"/author/paul-jiang/","title":"AI 工程師","description":"TensorFlow Python 愛好者、React 愛好者、積極的利他主義者，最近在忙的是：價值投資、分享經驗、成就團隊","skills":["Deep Learning","TensorFlow","Micro Services","TypeScript","React"],"social":[{"name":"Kaggle","url":"https://www.kaggle.com/psheon"},{"name":"Github","url":"https://github.com/PSheon"},{"name":"Website","url":"https://psheon.github.io"}],"thumbnail":{"__typename":"ImageSharp","regular":{"width":150,"height":150,"src":"/notes/static/011b3215b6b7e782f02d67aebfa4c319/97df7/paul-jiang.png","srcSet":"/notes/static/011b3215b6b7e782f02d67aebfa4c319/97df7/paul-jiang.png 1x,\n/notes/static/011b3215b6b7e782f02d67aebfa4c319/81b80/paul-jiang.png 1.5x,\n/notes/static/011b3215b6b7e782f02d67aebfa4c319/bb938/paul-jiang.png 2x"}}},"thumbnail":{"__typename":"ImageSharp","vertical":{"src":"/notes/static/a381cbe123484c239b97a005d5ce4a00/8f7be/image.jpg","srcSet":"/notes/static/a381cbe123484c239b97a005d5ce4a00/8f7be/image.jpg 1x,\n/notes/static/a381cbe123484c239b97a005d5ce4a00/1af80/image.jpg 1.5x,\n/notes/static/a381cbe123484c239b97a005d5ce4a00/1acf6/image.jpg 2x","srcWebp":"/notes/static/a381cbe123484c239b97a005d5ce4a00/03323/image.webp","srcSetWebp":"/notes/static/a381cbe123484c239b97a005d5ce4a00/03323/image.webp 1x,\n/notes/static/a381cbe123484c239b97a005d5ce4a00/c8e9c/image.webp 1.5x,\n/notes/static/a381cbe123484c239b97a005d5ce4a00/e7f4c/image.webp 2x","width":380,"height":290},"hero":{"src":"/notes/static/a381cbe123484c239b97a005d5ce4a00/a8483/image.jpg","srcSet":"/notes/static/a381cbe123484c239b97a005d5ce4a00/a8483/image.jpg 1x","srcWebp":"/notes/static/a381cbe123484c239b97a005d5ce4a00/7330c/image.webp","srcSetWebp":"/notes/static/a381cbe123484c239b97a005d5ce4a00/7330c/image.webp 1x","width":1600,"height":650}}},{"__typename":"MdxArticleProxy","id":"e3efda6f-4078-5e5b-bc76-c42f6da9788b","title":"A Lot Of Celebrities Are Being Useless Right Now","slug":"/a-lot-of-celebrities-are-being-useless-right-now/","link":null,"excerpt":"Lorem markdownum illic venturi instructa nobis Echidnae,  cum  quid magna\nfatebor. Levat placetque…","timeToRead":1,"featured":null,"thumbnailText":null,"date":"April 16, 2019","category":{"__typename":"CategoriesJson","id":"bbbe2153-8bf2-5b71-91d1-703924439977","name":"科技新聞","slug":"/category/news/","color":"#e9d8fd","icon":"/notes/static/93c9c75517e1a6e95deaecabf3d1d050/news.svg"},"author":{"__typename":"AuthorsJson","id":"615fce5a-18a3-58b6-889d-1a7d6dd1047b","name":"Steve Grant","slug":"/author/steve-grant/","title":"Product Designer","description":"Sed commodo, est quis maximus fermentum, massa ipsum euismod neque, in varius risus tellus quis lacus. Sed ac bibendum odio.","skills":["Public Relation","Market Analyst","Designer"],"social":[{"name":"Instagram","url":"https://instagram.com/instagram"},{"name":"Twitter","url":"https://twitter.com/twitter"},{"name":"Website","url":"https://example.com"}],"thumbnail":{"__typename":"ImageSharp","regular":{"width":150,"height":150,"src":"/notes/static/05d0ac7130e48a9a86ba018fac3dbe2d/97df7/steve-grant.png","srcSet":"/notes/static/05d0ac7130e48a9a86ba018fac3dbe2d/97df7/steve-grant.png 1x,\n/notes/static/05d0ac7130e48a9a86ba018fac3dbe2d/81b80/steve-grant.png 1.5x,\n/notes/static/05d0ac7130e48a9a86ba018fac3dbe2d/bb938/steve-grant.png 2x"}}},"thumbnail":{"__typename":"ImageSharp","vertical":{"src":"/notes/static/a381cbe123484c239b97a005d5ce4a00/8f7be/image.jpg","srcSet":"/notes/static/a381cbe123484c239b97a005d5ce4a00/8f7be/image.jpg 1x,\n/notes/static/a381cbe123484c239b97a005d5ce4a00/1af80/image.jpg 1.5x,\n/notes/static/a381cbe123484c239b97a005d5ce4a00/1acf6/image.jpg 2x","srcWebp":"/notes/static/a381cbe123484c239b97a005d5ce4a00/03323/image.webp","srcSetWebp":"/notes/static/a381cbe123484c239b97a005d5ce4a00/03323/image.webp 1x,\n/notes/static/a381cbe123484c239b97a005d5ce4a00/c8e9c/image.webp 1.5x,\n/notes/static/a381cbe123484c239b97a005d5ce4a00/e7f4c/image.webp 2x","width":380,"height":290},"hero":{"src":"/notes/static/a381cbe123484c239b97a005d5ce4a00/a8483/image.jpg","srcSet":"/notes/static/a381cbe123484c239b97a005d5ce4a00/a8483/image.jpg 1x","srcWebp":"/notes/static/a381cbe123484c239b97a005d5ce4a00/7330c/image.webp","srcSetWebp":"/notes/static/a381cbe123484c239b97a005d5ce4a00/7330c/image.webp 1x","width":1600,"height":650}}},{"__typename":"MdxArticleProxy","id":"37bd2564-8a39-51cb-82db-f1bc831ce781","title":"There’s One Big Reason Why Police Brutality Is so...","slug":"/theres-one-big-reason-why-police-brutality-is-so/","link":null,"excerpt":"Lorem markdownum transitque nondum, Peliaeque at poterat exegit, urbis quo;\ntibi. Cursus mecum adit…","timeToRead":1,"featured":null,"thumbnailText":null,"date":"April 16, 2019","category":{"__typename":"CategoriesJson","id":"49f29e24-4ccd-5dd6-a10e-f5df9f47bfc8","name":"投資理財","slug":"/category/investment/","color":"#e9d8fd","icon":"/notes/static/d29b482eedef98cc9c29a2dd9b5ace42/investment.svg"},"author":{"__typename":"AuthorsJson","id":"4b1e40cf-22c6-5dec-873b-77ed81aa0f5a","name":"Paul Jiang","slug":"/author/paul-jiang/","title":"AI 工程師","description":"TensorFlow Python 愛好者、React 愛好者、積極的利他主義者，最近在忙的是：價值投資、分享經驗、成就團隊","skills":["Deep Learning","TensorFlow","Micro Services","TypeScript","React"],"social":[{"name":"Kaggle","url":"https://www.kaggle.com/psheon"},{"name":"Github","url":"https://github.com/PSheon"},{"name":"Website","url":"https://psheon.github.io"}],"thumbnail":{"__typename":"ImageSharp","regular":{"width":150,"height":150,"src":"/notes/static/011b3215b6b7e782f02d67aebfa4c319/97df7/paul-jiang.png","srcSet":"/notes/static/011b3215b6b7e782f02d67aebfa4c319/97df7/paul-jiang.png 1x,\n/notes/static/011b3215b6b7e782f02d67aebfa4c319/81b80/paul-jiang.png 1.5x,\n/notes/static/011b3215b6b7e782f02d67aebfa4c319/bb938/paul-jiang.png 2x"}}},"thumbnail":{"__typename":"ImageSharp","vertical":{"src":"/notes/static/a381cbe123484c239b97a005d5ce4a00/8f7be/image.jpg","srcSet":"/notes/static/a381cbe123484c239b97a005d5ce4a00/8f7be/image.jpg 1x,\n/notes/static/a381cbe123484c239b97a005d5ce4a00/1af80/image.jpg 1.5x,\n/notes/static/a381cbe123484c239b97a005d5ce4a00/1acf6/image.jpg 2x","srcWebp":"/notes/static/a381cbe123484c239b97a005d5ce4a00/03323/image.webp","srcSetWebp":"/notes/static/a381cbe123484c239b97a005d5ce4a00/03323/image.webp 1x,\n/notes/static/a381cbe123484c239b97a005d5ce4a00/c8e9c/image.webp 1.5x,\n/notes/static/a381cbe123484c239b97a005d5ce4a00/e7f4c/image.webp 2x","width":380,"height":290},"hero":{"src":"/notes/static/a381cbe123484c239b97a005d5ce4a00/a8483/image.jpg","srcSet":"/notes/static/a381cbe123484c239b97a005d5ce4a00/a8483/image.jpg 1x","srcWebp":"/notes/static/a381cbe123484c239b97a005d5ce4a00/7330c/image.webp","srcSetWebp":"/notes/static/a381cbe123484c239b97a005d5ce4a00/7330c/image.webp 1x","width":1600,"height":650}}},{"__typename":"MdxArticleProxy","id":"3f7e6b82-954a-540e-aa04-01b4cdbc6e9e","title":"Peaceful Protesters Were Gassed Outside The White House","slug":"/peaceful-protesters-were-gassed-outside-the-white-house/","link":null,"excerpt":"Dona curvo sub evertere quam ultimus aridus Lorem markdownum , sub tecumque, posceret revertar…","timeToRead":1,"featured":null,"thumbnailText":null,"date":"April 16, 2019","category":{"__typename":"CategoriesJson","id":"49f29e24-4ccd-5dd6-a10e-f5df9f47bfc8","name":"投資理財","slug":"/category/investment/","color":"#e9d8fd","icon":"/notes/static/d29b482eedef98cc9c29a2dd9b5ace42/investment.svg"},"author":{"__typename":"AuthorsJson","id":"4b1e40cf-22c6-5dec-873b-77ed81aa0f5a","name":"Paul Jiang","slug":"/author/paul-jiang/","title":"AI 工程師","description":"TensorFlow Python 愛好者、React 愛好者、積極的利他主義者，最近在忙的是：價值投資、分享經驗、成就團隊","skills":["Deep Learning","TensorFlow","Micro Services","TypeScript","React"],"social":[{"name":"Kaggle","url":"https://www.kaggle.com/psheon"},{"name":"Github","url":"https://github.com/PSheon"},{"name":"Website","url":"https://psheon.github.io"}],"thumbnail":{"__typename":"ImageSharp","regular":{"width":150,"height":150,"src":"/notes/static/011b3215b6b7e782f02d67aebfa4c319/97df7/paul-jiang.png","srcSet":"/notes/static/011b3215b6b7e782f02d67aebfa4c319/97df7/paul-jiang.png 1x,\n/notes/static/011b3215b6b7e782f02d67aebfa4c319/81b80/paul-jiang.png 1.5x,\n/notes/static/011b3215b6b7e782f02d67aebfa4c319/bb938/paul-jiang.png 2x"}}},"thumbnail":{"__typename":"ImageSharp","vertical":{"src":"/notes/static/a381cbe123484c239b97a005d5ce4a00/8f7be/image.jpg","srcSet":"/notes/static/a381cbe123484c239b97a005d5ce4a00/8f7be/image.jpg 1x,\n/notes/static/a381cbe123484c239b97a005d5ce4a00/1af80/image.jpg 1.5x,\n/notes/static/a381cbe123484c239b97a005d5ce4a00/1acf6/image.jpg 2x","srcWebp":"/notes/static/a381cbe123484c239b97a005d5ce4a00/03323/image.webp","srcSetWebp":"/notes/static/a381cbe123484c239b97a005d5ce4a00/03323/image.webp 1x,\n/notes/static/a381cbe123484c239b97a005d5ce4a00/c8e9c/image.webp 1.5x,\n/notes/static/a381cbe123484c239b97a005d5ce4a00/e7f4c/image.webp 2x","width":380,"height":290},"hero":{"src":"/notes/static/a381cbe123484c239b97a005d5ce4a00/a8483/image.jpg","srcSet":"/notes/static/a381cbe123484c239b97a005d5ce4a00/a8483/image.jpg 1x","srcWebp":"/notes/static/a381cbe123484c239b97a005d5ce4a00/7330c/image.webp","srcSetWebp":"/notes/static/a381cbe123484c239b97a005d5ce4a00/7330c/image.webp 1x","width":1600,"height":650}}},{"__typename":"MdxArticleProxy","id":"5e8309e5-d565-5ed1-ae94-fb74516a2a82","title":"Instagram Influencing Has Long Had A Diversity Problem","slug":"/instagram-influencing-has-long-had-a-diversity-problem/","link":null,"excerpt":"Primo in altis pelle alumnae Lorem markdownum obvius in seque opus, est bicorni forte; laeva…","timeToRead":1,"featured":null,"thumbnailText":null,"date":"April 16, 2019","category":{"__typename":"CategoriesJson","id":"49f29e24-4ccd-5dd6-a10e-f5df9f47bfc8","name":"投資理財","slug":"/category/investment/","color":"#e9d8fd","icon":"/notes/static/d29b482eedef98cc9c29a2dd9b5ace42/investment.svg"},"author":{"__typename":"AuthorsJson","id":"4b1e40cf-22c6-5dec-873b-77ed81aa0f5a","name":"Paul Jiang","slug":"/author/paul-jiang/","title":"AI 工程師","description":"TensorFlow Python 愛好者、React 愛好者、積極的利他主義者，最近在忙的是：價值投資、分享經驗、成就團隊","skills":["Deep Learning","TensorFlow","Micro Services","TypeScript","React"],"social":[{"name":"Kaggle","url":"https://www.kaggle.com/psheon"},{"name":"Github","url":"https://github.com/PSheon"},{"name":"Website","url":"https://psheon.github.io"}],"thumbnail":{"__typename":"ImageSharp","regular":{"width":150,"height":150,"src":"/notes/static/011b3215b6b7e782f02d67aebfa4c319/97df7/paul-jiang.png","srcSet":"/notes/static/011b3215b6b7e782f02d67aebfa4c319/97df7/paul-jiang.png 1x,\n/notes/static/011b3215b6b7e782f02d67aebfa4c319/81b80/paul-jiang.png 1.5x,\n/notes/static/011b3215b6b7e782f02d67aebfa4c319/bb938/paul-jiang.png 2x"}}},"thumbnail":{"__typename":"ImageSharp","vertical":{"src":"/notes/static/a381cbe123484c239b97a005d5ce4a00/8f7be/image.jpg","srcSet":"/notes/static/a381cbe123484c239b97a005d5ce4a00/8f7be/image.jpg 1x,\n/notes/static/a381cbe123484c239b97a005d5ce4a00/1af80/image.jpg 1.5x,\n/notes/static/a381cbe123484c239b97a005d5ce4a00/1acf6/image.jpg 2x","srcWebp":"/notes/static/a381cbe123484c239b97a005d5ce4a00/03323/image.webp","srcSetWebp":"/notes/static/a381cbe123484c239b97a005d5ce4a00/03323/image.webp 1x,\n/notes/static/a381cbe123484c239b97a005d5ce4a00/c8e9c/image.webp 1.5x,\n/notes/static/a381cbe123484c239b97a005d5ce4a00/e7f4c/image.webp 2x","width":380,"height":290},"hero":{"src":"/notes/static/a381cbe123484c239b97a005d5ce4a00/a8483/image.jpg","srcSet":"/notes/static/a381cbe123484c239b97a005d5ce4a00/a8483/image.jpg 1x","srcWebp":"/notes/static/a381cbe123484c239b97a005d5ce4a00/7330c/image.webp","srcSetWebp":"/notes/static/a381cbe123484c239b97a005d5ce4a00/7330c/image.webp 1x","width":1600,"height":650}}},{"__typename":"MdxArticleProxy","id":"4580b7a7-fe67-54af-956d-0ee4f04d912e","title":"Iowa Voted A Racist Out Of Congress","slug":"/iowa-voted-a-racist-out-of-congress/","link":null,"excerpt":"Lorem markdownum illic venturi instructa nobis Echidnae,  cum  quid magna\nfatebor. Levat placetque…","timeToRead":1,"featured":null,"thumbnailText":null,"date":"April 16, 2019","category":{"__typename":"CategoriesJson","id":"49f29e24-4ccd-5dd6-a10e-f5df9f47bfc8","name":"投資理財","slug":"/category/investment/","color":"#e9d8fd","icon":"/notes/static/d29b482eedef98cc9c29a2dd9b5ace42/investment.svg"},"author":{"__typename":"AuthorsJson","id":"4b1e40cf-22c6-5dec-873b-77ed81aa0f5a","name":"Paul Jiang","slug":"/author/paul-jiang/","title":"AI 工程師","description":"TensorFlow Python 愛好者、React 愛好者、積極的利他主義者，最近在忙的是：價值投資、分享經驗、成就團隊","skills":["Deep Learning","TensorFlow","Micro Services","TypeScript","React"],"social":[{"name":"Kaggle","url":"https://www.kaggle.com/psheon"},{"name":"Github","url":"https://github.com/PSheon"},{"name":"Website","url":"https://psheon.github.io"}],"thumbnail":{"__typename":"ImageSharp","regular":{"width":150,"height":150,"src":"/notes/static/011b3215b6b7e782f02d67aebfa4c319/97df7/paul-jiang.png","srcSet":"/notes/static/011b3215b6b7e782f02d67aebfa4c319/97df7/paul-jiang.png 1x,\n/notes/static/011b3215b6b7e782f02d67aebfa4c319/81b80/paul-jiang.png 1.5x,\n/notes/static/011b3215b6b7e782f02d67aebfa4c319/bb938/paul-jiang.png 2x"}}},"thumbnail":{"__typename":"ImageSharp","vertical":{"src":"/notes/static/a381cbe123484c239b97a005d5ce4a00/8f7be/image.jpg","srcSet":"/notes/static/a381cbe123484c239b97a005d5ce4a00/8f7be/image.jpg 1x,\n/notes/static/a381cbe123484c239b97a005d5ce4a00/1af80/image.jpg 1.5x,\n/notes/static/a381cbe123484c239b97a005d5ce4a00/1acf6/image.jpg 2x","srcWebp":"/notes/static/a381cbe123484c239b97a005d5ce4a00/03323/image.webp","srcSetWebp":"/notes/static/a381cbe123484c239b97a005d5ce4a00/03323/image.webp 1x,\n/notes/static/a381cbe123484c239b97a005d5ce4a00/c8e9c/image.webp 1.5x,\n/notes/static/a381cbe123484c239b97a005d5ce4a00/e7f4c/image.webp 2x","width":380,"height":290},"hero":{"src":"/notes/static/a381cbe123484c239b97a005d5ce4a00/a8483/image.jpg","srcSet":"/notes/static/a381cbe123484c239b97a005d5ce4a00/a8483/image.jpg 1x","srcWebp":"/notes/static/a381cbe123484c239b97a005d5ce4a00/7330c/image.webp","srcSetWebp":"/notes/static/a381cbe123484c239b97a005d5ce4a00/7330c/image.webp 1x","width":1600,"height":650}}}],"pageInfo":{"pageCount":7,"hasPreviousPage":true,"hasNextPage":true,"currentPage":6},"totalCount":39}},"pageContext":{"slug":"/tag/agency/","limit":6,"skip":30,"collectionType":"tags","paginatePostsPage":false,"basePath":"/","services":{"algolia":true,"mailchimp":false,"disqus":true},"siteUrl":"https://psheon.github.io/notes","mobileMenu":{"title":"文章主題","items":[{"name":"機器學習","slug":"/category/machine-learning/"},{"name":"投資理財","slug":"/category/investment/"},{"name":"語言工具","slug":"/category/programing/"},{"name":"自我提升","slug":"/category/self-improvement/"},{"name":"科技新聞","slug":"/category/news/"}]},"darkMode":true}},"staticQueryHashes":["618338068","620128445","620128445"]}