{"componentChunkName":"component---packages-blog-core-src-templates-collection-tag-js","path":"/tag/technology/page/5/","result":{"data":{"collectionInfo":{"id":"795d4347-d005-5f79-a81c-59eb5c53ac69","name":"#technology","slug":"/tag/technology/"},"posts":{"nodes":[{"__typename":"MdxArticleProxy","id":"2cacd973-18b8-5936-a9f5-122d8ac93173","title":"Peaceful Protesters Were Gassed Outside The White House","slug":"/peaceful-protesters-were-gassed-outside-the-white-house/","link":null,"excerpt":"Dona curvo sub evertere quam ultimus aridus Lorem markdownum , sub tecumque, posceret revertar…","timeToRead":1,"featured":null,"thumbnailText":null,"date":"April 16, 2019","category":{"__typename":"CategoriesJson","id":"6d1c024c-bb08-5dc5-9b53-e484c615e37b","name":"News","slug":"/category/news/","color":"#e9d8fd","icon":"/test-gatsby/static/93c9c75517e1a6e95deaecabf3d1d050/news.svg"},"author":{"__typename":"AuthorsJson","id":"504541e5-037a-525a-a50d-a979b8d77266","name":"John Doe","slug":"/author/john-doe/","title":"Web Developer","description":"Sed commodo, est quis maximus fermentum, massa ipsum euismod neque, in varius risus tellus quis lacus. Sed ac bibendum odio.","skills":["ASP.NET","Assembly","JavaScript"],"social":[{"name":"Instagram","url":"https://instagram.com/instagram"},{"name":"Twitter","url":"https://twitter.com/twitter"},{"name":"Website","url":"https://example.com"}],"thumbnail":{"__typename":"ImageSharp","regular":{"width":150,"height":150,"src":"/test-gatsby/static/011b3215b6b7e782f02d67aebfa4c319/97df7/john-doe.png","srcSet":"/test-gatsby/static/011b3215b6b7e782f02d67aebfa4c319/97df7/john-doe.png 1x,\n/test-gatsby/static/011b3215b6b7e782f02d67aebfa4c319/81b80/john-doe.png 1.5x,\n/test-gatsby/static/011b3215b6b7e782f02d67aebfa4c319/bb938/john-doe.png 2x"}}},"thumbnail":{"__typename":"ImageSharp","vertical":{"src":"/test-gatsby/static/a381cbe123484c239b97a005d5ce4a00/8f7be/image.jpg","srcSet":"/test-gatsby/static/a381cbe123484c239b97a005d5ce4a00/8f7be/image.jpg 1x,\n/test-gatsby/static/a381cbe123484c239b97a005d5ce4a00/1af80/image.jpg 1.5x,\n/test-gatsby/static/a381cbe123484c239b97a005d5ce4a00/1acf6/image.jpg 2x","srcWebp":"/test-gatsby/static/a381cbe123484c239b97a005d5ce4a00/03323/image.webp","srcSetWebp":"/test-gatsby/static/a381cbe123484c239b97a005d5ce4a00/03323/image.webp 1x,\n/test-gatsby/static/a381cbe123484c239b97a005d5ce4a00/c8e9c/image.webp 1.5x,\n/test-gatsby/static/a381cbe123484c239b97a005d5ce4a00/e7f4c/image.webp 2x","width":380,"height":290},"hero":{"src":"/test-gatsby/static/a381cbe123484c239b97a005d5ce4a00/a8483/image.jpg","srcSet":"/test-gatsby/static/a381cbe123484c239b97a005d5ce4a00/a8483/image.jpg 1x","srcWebp":"/test-gatsby/static/a381cbe123484c239b97a005d5ce4a00/7330c/image.webp","srcSetWebp":"/test-gatsby/static/a381cbe123484c239b97a005d5ce4a00/7330c/image.webp 1x","width":1600,"height":650}}},{"__typename":"MdxArticleProxy","id":"31724a55-b6f2-5a6e-b3a8-f9f920e45fca","title":"Iowa Voted A Racist Out Of Congress","slug":"/iowa-voted-a-racist-out-of-congress/","link":null,"excerpt":"Lorem markdownum illic venturi instructa nobis Echidnae,  cum  quid magna\nfatebor. Levat placetque…","timeToRead":1,"featured":null,"thumbnailText":null,"date":"April 16, 2019","category":{"__typename":"CategoriesJson","id":"6d1c024c-bb08-5dc5-9b53-e484c615e37b","name":"News","slug":"/category/news/","color":"#e9d8fd","icon":"/test-gatsby/static/93c9c75517e1a6e95deaecabf3d1d050/news.svg"},"author":{"__typename":"AuthorsJson","id":"d03d5c96-4a79-58f1-8c00-271c78c94ee7","name":"Steve Grant","slug":"/author/steve-grant/","title":"Product Designer","description":"Sed commodo, est quis maximus fermentum, massa ipsum euismod neque, in varius risus tellus quis lacus. Sed ac bibendum odio.","skills":["Public Relation","Market Analyst","Designer"],"social":[{"name":"Instagram","url":"https://instagram.com/instagram"},{"name":"Twitter","url":"https://twitter.com/twitter"},{"name":"Website","url":"https://example.com"}],"thumbnail":{"__typename":"ImageSharp","regular":{"width":150,"height":150,"src":"/test-gatsby/static/05d0ac7130e48a9a86ba018fac3dbe2d/97df7/steve-grant.png","srcSet":"/test-gatsby/static/05d0ac7130e48a9a86ba018fac3dbe2d/97df7/steve-grant.png 1x,\n/test-gatsby/static/05d0ac7130e48a9a86ba018fac3dbe2d/81b80/steve-grant.png 1.5x,\n/test-gatsby/static/05d0ac7130e48a9a86ba018fac3dbe2d/bb938/steve-grant.png 2x"}}},"thumbnail":{"__typename":"ImageSharp","vertical":{"src":"/test-gatsby/static/a381cbe123484c239b97a005d5ce4a00/8f7be/image.jpg","srcSet":"/test-gatsby/static/a381cbe123484c239b97a005d5ce4a00/8f7be/image.jpg 1x,\n/test-gatsby/static/a381cbe123484c239b97a005d5ce4a00/1af80/image.jpg 1.5x,\n/test-gatsby/static/a381cbe123484c239b97a005d5ce4a00/1acf6/image.jpg 2x","srcWebp":"/test-gatsby/static/a381cbe123484c239b97a005d5ce4a00/03323/image.webp","srcSetWebp":"/test-gatsby/static/a381cbe123484c239b97a005d5ce4a00/03323/image.webp 1x,\n/test-gatsby/static/a381cbe123484c239b97a005d5ce4a00/c8e9c/image.webp 1.5x,\n/test-gatsby/static/a381cbe123484c239b97a005d5ce4a00/e7f4c/image.webp 2x","width":380,"height":290},"hero":{"src":"/test-gatsby/static/a381cbe123484c239b97a005d5ce4a00/a8483/image.jpg","srcSet":"/test-gatsby/static/a381cbe123484c239b97a005d5ce4a00/a8483/image.jpg 1x","srcWebp":"/test-gatsby/static/a381cbe123484c239b97a005d5ce4a00/7330c/image.webp","srcSetWebp":"/test-gatsby/static/a381cbe123484c239b97a005d5ce4a00/7330c/image.webp 1x","width":1600,"height":650}}},{"__typename":"MdxArticleProxy","id":"2e390f23-b583-55c0-8b20-fb8cca2d1bc0","title":"Instagram Influencing Has Long Had A Diversity Problem","slug":"/instagram-influencing-has-long-had-a-diversity-problem/","link":null,"excerpt":"Primo in altis pelle alumnae Lorem markdownum obvius in seque opus, est bicorni forte; laeva…","timeToRead":1,"featured":null,"thumbnailText":null,"date":"April 16, 2019","category":{"__typename":"CategoriesJson","id":"6d1c024c-bb08-5dc5-9b53-e484c615e37b","name":"News","slug":"/category/news/","color":"#e9d8fd","icon":"/test-gatsby/static/93c9c75517e1a6e95deaecabf3d1d050/news.svg"},"author":{"__typename":"AuthorsJson","id":"511805a4-5900-56af-a42f-53e1ecffdb7b","name":"Jane Smith","slug":"/author/jane-smith/","title":"Creative Designer","description":"Sed commodo, est quis maximus fermentum, massa ipsum euismod neque, in varius risus tellus quis lacus. Sed ac bibendum odio.","skills":["Advertising","Business","Designer"],"social":[{"name":"Instagram","url":"https://instagram.com/instagram"},{"name":"Twitter","url":"https://twitter.com/twitter"},{"name":"Website","url":"https://example.com"}],"thumbnail":{"__typename":"ImageSharp","regular":{"width":150,"height":150,"src":"/test-gatsby/static/ec552a7c1f96030de0601b3b204b16cf/97df7/jane-smith.png","srcSet":"/test-gatsby/static/ec552a7c1f96030de0601b3b204b16cf/97df7/jane-smith.png 1x,\n/test-gatsby/static/ec552a7c1f96030de0601b3b204b16cf/81b80/jane-smith.png 1.5x,\n/test-gatsby/static/ec552a7c1f96030de0601b3b204b16cf/bb938/jane-smith.png 2x"}}},"thumbnail":{"__typename":"ImageSharp","vertical":{"src":"/test-gatsby/static/a381cbe123484c239b97a005d5ce4a00/8f7be/image.jpg","srcSet":"/test-gatsby/static/a381cbe123484c239b97a005d5ce4a00/8f7be/image.jpg 1x,\n/test-gatsby/static/a381cbe123484c239b97a005d5ce4a00/1af80/image.jpg 1.5x,\n/test-gatsby/static/a381cbe123484c239b97a005d5ce4a00/1acf6/image.jpg 2x","srcWebp":"/test-gatsby/static/a381cbe123484c239b97a005d5ce4a00/03323/image.webp","srcSetWebp":"/test-gatsby/static/a381cbe123484c239b97a005d5ce4a00/03323/image.webp 1x,\n/test-gatsby/static/a381cbe123484c239b97a005d5ce4a00/c8e9c/image.webp 1.5x,\n/test-gatsby/static/a381cbe123484c239b97a005d5ce4a00/e7f4c/image.webp 2x","width":380,"height":290},"hero":{"src":"/test-gatsby/static/a381cbe123484c239b97a005d5ce4a00/a8483/image.jpg","srcSet":"/test-gatsby/static/a381cbe123484c239b97a005d5ce4a00/a8483/image.jpg 1x","srcWebp":"/test-gatsby/static/a381cbe123484c239b97a005d5ce4a00/7330c/image.webp","srcSetWebp":"/test-gatsby/static/a381cbe123484c239b97a005d5ce4a00/7330c/image.webp 1x","width":1600,"height":650}}},{"__typename":"MdxArticleProxy","id":"af64a055-a0b2-5b5f-b642-488e03965707","title":"Authorities Investigating The Huxley Stauffer Case","slug":"/authorities-investigating-the-huxley-stauffer-case/","link":null,"excerpt":"Dona curvo sub evertere quam ultimus aridus Lorem markdownum , sub tecumque, posceret revertar…","timeToRead":1,"featured":null,"thumbnailText":null,"date":"April 16, 2019","category":{"__typename":"CategoriesJson","id":"6d1c024c-bb08-5dc5-9b53-e484c615e37b","name":"News","slug":"/category/news/","color":"#e9d8fd","icon":"/test-gatsby/static/93c9c75517e1a6e95deaecabf3d1d050/news.svg"},"author":{"__typename":"AuthorsJson","id":"504541e5-037a-525a-a50d-a979b8d77266","name":"John Doe","slug":"/author/john-doe/","title":"Web Developer","description":"Sed commodo, est quis maximus fermentum, massa ipsum euismod neque, in varius risus tellus quis lacus. Sed ac bibendum odio.","skills":["ASP.NET","Assembly","JavaScript"],"social":[{"name":"Instagram","url":"https://instagram.com/instagram"},{"name":"Twitter","url":"https://twitter.com/twitter"},{"name":"Website","url":"https://example.com"}],"thumbnail":{"__typename":"ImageSharp","regular":{"width":150,"height":150,"src":"/test-gatsby/static/011b3215b6b7e782f02d67aebfa4c319/97df7/john-doe.png","srcSet":"/test-gatsby/static/011b3215b6b7e782f02d67aebfa4c319/97df7/john-doe.png 1x,\n/test-gatsby/static/011b3215b6b7e782f02d67aebfa4c319/81b80/john-doe.png 1.5x,\n/test-gatsby/static/011b3215b6b7e782f02d67aebfa4c319/bb938/john-doe.png 2x"}}},"thumbnail":{"__typename":"ImageSharp","vertical":{"src":"/test-gatsby/static/a381cbe123484c239b97a005d5ce4a00/8f7be/image.jpg","srcSet":"/test-gatsby/static/a381cbe123484c239b97a005d5ce4a00/8f7be/image.jpg 1x,\n/test-gatsby/static/a381cbe123484c239b97a005d5ce4a00/1af80/image.jpg 1.5x,\n/test-gatsby/static/a381cbe123484c239b97a005d5ce4a00/1acf6/image.jpg 2x","srcWebp":"/test-gatsby/static/a381cbe123484c239b97a005d5ce4a00/03323/image.webp","srcSetWebp":"/test-gatsby/static/a381cbe123484c239b97a005d5ce4a00/03323/image.webp 1x,\n/test-gatsby/static/a381cbe123484c239b97a005d5ce4a00/c8e9c/image.webp 1.5x,\n/test-gatsby/static/a381cbe123484c239b97a005d5ce4a00/e7f4c/image.webp 2x","width":380,"height":290},"hero":{"src":"/test-gatsby/static/a381cbe123484c239b97a005d5ce4a00/a8483/image.jpg","srcSet":"/test-gatsby/static/a381cbe123484c239b97a005d5ce4a00/a8483/image.jpg 1x","srcWebp":"/test-gatsby/static/a381cbe123484c239b97a005d5ce4a00/7330c/image.webp","srcSetWebp":"/test-gatsby/static/a381cbe123484c239b97a005d5ce4a00/7330c/image.webp 1x","width":1600,"height":650}}},{"__typename":"MdxArticleProxy","id":"6310ee33-55c0-5e58-b550-b31dfb7166ff","title":"An 18 Year Old Said She Was Raped While In Police Custody","slug":"/an-18-year-old-said-she-was-raped-while-in-police-custody/","link":null,"excerpt":"Primo in altis pelle alumnae Lorem markdownum obvius in seque opus, est bicorni forte; laeva…","timeToRead":1,"featured":null,"thumbnailText":null,"date":"April 16, 2019","category":{"__typename":"CategoriesJson","id":"6d1c024c-bb08-5dc5-9b53-e484c615e37b","name":"News","slug":"/category/news/","color":"#e9d8fd","icon":"/test-gatsby/static/93c9c75517e1a6e95deaecabf3d1d050/news.svg"},"author":{"__typename":"AuthorsJson","id":"504541e5-037a-525a-a50d-a979b8d77266","name":"John Doe","slug":"/author/john-doe/","title":"Web Developer","description":"Sed commodo, est quis maximus fermentum, massa ipsum euismod neque, in varius risus tellus quis lacus. Sed ac bibendum odio.","skills":["ASP.NET","Assembly","JavaScript"],"social":[{"name":"Instagram","url":"https://instagram.com/instagram"},{"name":"Twitter","url":"https://twitter.com/twitter"},{"name":"Website","url":"https://example.com"}],"thumbnail":{"__typename":"ImageSharp","regular":{"width":150,"height":150,"src":"/test-gatsby/static/011b3215b6b7e782f02d67aebfa4c319/97df7/john-doe.png","srcSet":"/test-gatsby/static/011b3215b6b7e782f02d67aebfa4c319/97df7/john-doe.png 1x,\n/test-gatsby/static/011b3215b6b7e782f02d67aebfa4c319/81b80/john-doe.png 1.5x,\n/test-gatsby/static/011b3215b6b7e782f02d67aebfa4c319/bb938/john-doe.png 2x"}}},"thumbnail":{"__typename":"ImageSharp","vertical":{"src":"/test-gatsby/static/a381cbe123484c239b97a005d5ce4a00/8f7be/image.jpg","srcSet":"/test-gatsby/static/a381cbe123484c239b97a005d5ce4a00/8f7be/image.jpg 1x,\n/test-gatsby/static/a381cbe123484c239b97a005d5ce4a00/1af80/image.jpg 1.5x,\n/test-gatsby/static/a381cbe123484c239b97a005d5ce4a00/1acf6/image.jpg 2x","srcWebp":"/test-gatsby/static/a381cbe123484c239b97a005d5ce4a00/03323/image.webp","srcSetWebp":"/test-gatsby/static/a381cbe123484c239b97a005d5ce4a00/03323/image.webp 1x,\n/test-gatsby/static/a381cbe123484c239b97a005d5ce4a00/c8e9c/image.webp 1.5x,\n/test-gatsby/static/a381cbe123484c239b97a005d5ce4a00/e7f4c/image.webp 2x","width":380,"height":290},"hero":{"src":"/test-gatsby/static/a381cbe123484c239b97a005d5ce4a00/a8483/image.jpg","srcSet":"/test-gatsby/static/a381cbe123484c239b97a005d5ce4a00/a8483/image.jpg 1x","srcWebp":"/test-gatsby/static/a381cbe123484c239b97a005d5ce4a00/7330c/image.webp","srcSetWebp":"/test-gatsby/static/a381cbe123484c239b97a005d5ce4a00/7330c/image.webp 1x","width":1600,"height":650}}},{"__typename":"MdxArticleProxy","id":"e34fa039-3493-5f94-af2d-d2be11f8910e","title":"A Lot Of Celebrities Are Being Useless Right Now","slug":"/a-lot-of-celebrities-are-being-useless-right-now/","link":null,"excerpt":"Lorem markdownum illic venturi instructa nobis Echidnae,  cum  quid magna\nfatebor. Levat placetque…","timeToRead":1,"featured":null,"thumbnailText":null,"date":"April 16, 2019","category":{"__typename":"CategoriesJson","id":"6d1c024c-bb08-5dc5-9b53-e484c615e37b","name":"News","slug":"/category/news/","color":"#e9d8fd","icon":"/test-gatsby/static/93c9c75517e1a6e95deaecabf3d1d050/news.svg"},"author":{"__typename":"AuthorsJson","id":"d03d5c96-4a79-58f1-8c00-271c78c94ee7","name":"Steve Grant","slug":"/author/steve-grant/","title":"Product Designer","description":"Sed commodo, est quis maximus fermentum, massa ipsum euismod neque, in varius risus tellus quis lacus. Sed ac bibendum odio.","skills":["Public Relation","Market Analyst","Designer"],"social":[{"name":"Instagram","url":"https://instagram.com/instagram"},{"name":"Twitter","url":"https://twitter.com/twitter"},{"name":"Website","url":"https://example.com"}],"thumbnail":{"__typename":"ImageSharp","regular":{"width":150,"height":150,"src":"/test-gatsby/static/05d0ac7130e48a9a86ba018fac3dbe2d/97df7/steve-grant.png","srcSet":"/test-gatsby/static/05d0ac7130e48a9a86ba018fac3dbe2d/97df7/steve-grant.png 1x,\n/test-gatsby/static/05d0ac7130e48a9a86ba018fac3dbe2d/81b80/steve-grant.png 1.5x,\n/test-gatsby/static/05d0ac7130e48a9a86ba018fac3dbe2d/bb938/steve-grant.png 2x"}}},"thumbnail":{"__typename":"ImageSharp","vertical":{"src":"/test-gatsby/static/a381cbe123484c239b97a005d5ce4a00/8f7be/image.jpg","srcSet":"/test-gatsby/static/a381cbe123484c239b97a005d5ce4a00/8f7be/image.jpg 1x,\n/test-gatsby/static/a381cbe123484c239b97a005d5ce4a00/1af80/image.jpg 1.5x,\n/test-gatsby/static/a381cbe123484c239b97a005d5ce4a00/1acf6/image.jpg 2x","srcWebp":"/test-gatsby/static/a381cbe123484c239b97a005d5ce4a00/03323/image.webp","srcSetWebp":"/test-gatsby/static/a381cbe123484c239b97a005d5ce4a00/03323/image.webp 1x,\n/test-gatsby/static/a381cbe123484c239b97a005d5ce4a00/c8e9c/image.webp 1.5x,\n/test-gatsby/static/a381cbe123484c239b97a005d5ce4a00/e7f4c/image.webp 2x","width":380,"height":290},"hero":{"src":"/test-gatsby/static/a381cbe123484c239b97a005d5ce4a00/a8483/image.jpg","srcSet":"/test-gatsby/static/a381cbe123484c239b97a005d5ce4a00/a8483/image.jpg 1x","srcWebp":"/test-gatsby/static/a381cbe123484c239b97a005d5ce4a00/7330c/image.webp","srcSetWebp":"/test-gatsby/static/a381cbe123484c239b97a005d5ce4a00/7330c/image.webp 1x","width":1600,"height":650}}}],"pageInfo":{"pageCount":5,"hasPreviousPage":true,"hasNextPage":false,"currentPage":5},"totalCount":30}},"pageContext":{"slug":"/tag/technology/","limit":6,"skip":24,"collectionType":"tags","paginatePostsPage":false,"basePath":"/","services":{"algolia":false,"mailchimp":false,"disqus":false},"siteUrl":null,"mobileMenu":{"title":"Topics","items":[{"name":"Shopping","slug":"/category/shopping/"},{"name":"News","slug":"/category/news/"},{"name":"Recipes","slug":"/category/recipes/"},{"name":"TV & Movies","slug":"/category/tv-and-movies/"}]},"darkMode":true}},"staticQueryHashes":["618338068","620128445","620128445"]}