{"componentChunkName":"component---packages-blog-core-src-templates-collection-tag-js","path":"/tag/innovation/","result":{"data":{"collectionInfo":{"id":"b4b9cf5a-6f28-5919-adb6-ee37314cec58","name":"#innovation","slug":"/tag/innovation/"},"posts":{"nodes":[{"__typename":"MdxArticleProxy","id":"58edb641-c246-5471-9d22-d4e349f16bb4","title":"Only Someone Who's Seen The Mummy Will Pass This","slug":"/only-someone-whos-seen-the-mummy-will-pass-this/","link":null,"excerpt":"Primo in altis pelle alumnae Lorem markdownum obvius in seque opus, est bicorni forte; laeva…","timeToRead":1,"featured":true,"thumbnailText":null,"date":"June 02, 2020","category":{"__typename":"CategoriesJson","id":"5186be4a-9cf6-5f48-86ec-260630d34c79","name":"TV & Movies","slug":"/category/tv-and-movies/","color":"#bee3f8","icon":"/test-gatsby/static/f41361d1715191a688f7243a90b28bc7/tv-movies.svg"},"author":{"__typename":"AuthorsJson","id":"504541e5-037a-525a-a50d-a979b8d77266","name":"John Doe","slug":"/author/john-doe/","title":"Web Developer","description":"Sed commodo, est quis maximus fermentum, massa ipsum euismod neque, in varius risus tellus quis lacus. Sed ac bibendum odio.","skills":["ASP.NET","Assembly","JavaScript"],"social":[{"name":"Instagram","url":"https://instagram.com/instagram"},{"name":"Twitter","url":"https://twitter.com/twitter"},{"name":"Website","url":"https://example.com"}],"thumbnail":{"__typename":"ImageSharp","regular":{"width":150,"height":150,"src":"/test-gatsby/static/011b3215b6b7e782f02d67aebfa4c319/97df7/john-doe.png","srcSet":"/test-gatsby/static/011b3215b6b7e782f02d67aebfa4c319/97df7/john-doe.png 1x,\n/test-gatsby/static/011b3215b6b7e782f02d67aebfa4c319/81b80/john-doe.png 1.5x,\n/test-gatsby/static/011b3215b6b7e782f02d67aebfa4c319/bb938/john-doe.png 2x"}}},"thumbnail":{"__typename":"ImageSharp","vertical":{"src":"/test-gatsby/static/a381cbe123484c239b97a005d5ce4a00/8f7be/image.jpg","srcSet":"/test-gatsby/static/a381cbe123484c239b97a005d5ce4a00/8f7be/image.jpg 1x,\n/test-gatsby/static/a381cbe123484c239b97a005d5ce4a00/1af80/image.jpg 1.5x,\n/test-gatsby/static/a381cbe123484c239b97a005d5ce4a00/1acf6/image.jpg 2x","srcWebp":"/test-gatsby/static/a381cbe123484c239b97a005d5ce4a00/03323/image.webp","srcSetWebp":"/test-gatsby/static/a381cbe123484c239b97a005d5ce4a00/03323/image.webp 1x,\n/test-gatsby/static/a381cbe123484c239b97a005d5ce4a00/c8e9c/image.webp 1.5x,\n/test-gatsby/static/a381cbe123484c239b97a005d5ce4a00/e7f4c/image.webp 2x","width":380,"height":290},"hero":{"src":"/test-gatsby/static/a381cbe123484c239b97a005d5ce4a00/a8483/image.jpg","srcSet":"/test-gatsby/static/a381cbe123484c239b97a005d5ce4a00/a8483/image.jpg 1x","srcWebp":"/test-gatsby/static/a381cbe123484c239b97a005d5ce4a00/7330c/image.webp","srcSetWebp":"/test-gatsby/static/a381cbe123484c239b97a005d5ce4a00/7330c/image.webp 1x","width":1600,"height":650}}},{"__typename":"MdxArticleProxy","id":"25867d45-aeac-5b9a-9f5f-300e84cd1fcb","title":"Which Actors From Teen Movies Were Better?","slug":"/which-actors-from-teen-movies-were-better/","link":null,"excerpt":"Primo in altis pelle alumnae Lorem markdownum obvius in seque opus, est bicorni forte; laeva…","timeToRead":1,"featured":null,"thumbnailText":null,"date":"April 02, 2020","category":{"__typename":"CategoriesJson","id":"5186be4a-9cf6-5f48-86ec-260630d34c79","name":"TV & Movies","slug":"/category/tv-and-movies/","color":"#bee3f8","icon":"/test-gatsby/static/f41361d1715191a688f7243a90b28bc7/tv-movies.svg"},"author":{"__typename":"AuthorsJson","id":"504541e5-037a-525a-a50d-a979b8d77266","name":"John Doe","slug":"/author/john-doe/","title":"Web Developer","description":"Sed commodo, est quis maximus fermentum, massa ipsum euismod neque, in varius risus tellus quis lacus. Sed ac bibendum odio.","skills":["ASP.NET","Assembly","JavaScript"],"social":[{"name":"Instagram","url":"https://instagram.com/instagram"},{"name":"Twitter","url":"https://twitter.com/twitter"},{"name":"Website","url":"https://example.com"}],"thumbnail":{"__typename":"ImageSharp","regular":{"width":150,"height":150,"src":"/test-gatsby/static/011b3215b6b7e782f02d67aebfa4c319/97df7/john-doe.png","srcSet":"/test-gatsby/static/011b3215b6b7e782f02d67aebfa4c319/97df7/john-doe.png 1x,\n/test-gatsby/static/011b3215b6b7e782f02d67aebfa4c319/81b80/john-doe.png 1.5x,\n/test-gatsby/static/011b3215b6b7e782f02d67aebfa4c319/bb938/john-doe.png 2x"}}},"thumbnail":{"__typename":"ImageSharp","vertical":{"src":"/test-gatsby/static/a381cbe123484c239b97a005d5ce4a00/8f7be/image.jpg","srcSet":"/test-gatsby/static/a381cbe123484c239b97a005d5ce4a00/8f7be/image.jpg 1x,\n/test-gatsby/static/a381cbe123484c239b97a005d5ce4a00/1af80/image.jpg 1.5x,\n/test-gatsby/static/a381cbe123484c239b97a005d5ce4a00/1acf6/image.jpg 2x","srcWebp":"/test-gatsby/static/a381cbe123484c239b97a005d5ce4a00/03323/image.webp","srcSetWebp":"/test-gatsby/static/a381cbe123484c239b97a005d5ce4a00/03323/image.webp 1x,\n/test-gatsby/static/a381cbe123484c239b97a005d5ce4a00/c8e9c/image.webp 1.5x,\n/test-gatsby/static/a381cbe123484c239b97a005d5ce4a00/e7f4c/image.webp 2x","width":380,"height":290},"hero":{"src":"/test-gatsby/static/a381cbe123484c239b97a005d5ce4a00/a8483/image.jpg","srcSet":"/test-gatsby/static/a381cbe123484c239b97a005d5ce4a00/a8483/image.jpg 1x","srcWebp":"/test-gatsby/static/a381cbe123484c239b97a005d5ce4a00/7330c/image.webp","srcSetWebp":"/test-gatsby/static/a381cbe123484c239b97a005d5ce4a00/7330c/image.webp 1x","width":1600,"height":650}}},{"__typename":"MdxArticleProxy","id":"ac2f87d0-4199-5114-a897-fe9818b3cfe2","title":"These Actors Have Been In Multiple Movies Together⁠","slug":"/these-actors-have-been-in-multiple-movies-together/","link":null,"excerpt":"Primo in altis pelle alumnae Lorem markdownum obvius in seque opus, est bicorni forte; laeva…","timeToRead":1,"featured":null,"thumbnailText":null,"date":"April 02, 2020","category":{"__typename":"CategoriesJson","id":"5186be4a-9cf6-5f48-86ec-260630d34c79","name":"TV & Movies","slug":"/category/tv-and-movies/","color":"#bee3f8","icon":"/test-gatsby/static/f41361d1715191a688f7243a90b28bc7/tv-movies.svg"},"author":{"__typename":"AuthorsJson","id":"504541e5-037a-525a-a50d-a979b8d77266","name":"John Doe","slug":"/author/john-doe/","title":"Web Developer","description":"Sed commodo, est quis maximus fermentum, massa ipsum euismod neque, in varius risus tellus quis lacus. Sed ac bibendum odio.","skills":["ASP.NET","Assembly","JavaScript"],"social":[{"name":"Instagram","url":"https://instagram.com/instagram"},{"name":"Twitter","url":"https://twitter.com/twitter"},{"name":"Website","url":"https://example.com"}],"thumbnail":{"__typename":"ImageSharp","regular":{"width":150,"height":150,"src":"/test-gatsby/static/011b3215b6b7e782f02d67aebfa4c319/97df7/john-doe.png","srcSet":"/test-gatsby/static/011b3215b6b7e782f02d67aebfa4c319/97df7/john-doe.png 1x,\n/test-gatsby/static/011b3215b6b7e782f02d67aebfa4c319/81b80/john-doe.png 1.5x,\n/test-gatsby/static/011b3215b6b7e782f02d67aebfa4c319/bb938/john-doe.png 2x"}}},"thumbnail":{"__typename":"ImageSharp","vertical":{"src":"/test-gatsby/static/a381cbe123484c239b97a005d5ce4a00/8f7be/image.jpg","srcSet":"/test-gatsby/static/a381cbe123484c239b97a005d5ce4a00/8f7be/image.jpg 1x,\n/test-gatsby/static/a381cbe123484c239b97a005d5ce4a00/1af80/image.jpg 1.5x,\n/test-gatsby/static/a381cbe123484c239b97a005d5ce4a00/1acf6/image.jpg 2x","srcWebp":"/test-gatsby/static/a381cbe123484c239b97a005d5ce4a00/03323/image.webp","srcSetWebp":"/test-gatsby/static/a381cbe123484c239b97a005d5ce4a00/03323/image.webp 1x,\n/test-gatsby/static/a381cbe123484c239b97a005d5ce4a00/c8e9c/image.webp 1.5x,\n/test-gatsby/static/a381cbe123484c239b97a005d5ce4a00/e7f4c/image.webp 2x","width":380,"height":290},"hero":{"src":"/test-gatsby/static/a381cbe123484c239b97a005d5ce4a00/a8483/image.jpg","srcSet":"/test-gatsby/static/a381cbe123484c239b97a005d5ce4a00/a8483/image.jpg 1x","srcWebp":"/test-gatsby/static/a381cbe123484c239b97a005d5ce4a00/7330c/image.webp","srcSetWebp":"/test-gatsby/static/a381cbe123484c239b97a005d5ce4a00/7330c/image.webp 1x","width":1600,"height":650}}},{"__typename":"MdxArticleProxy","id":"52e84b09-30c7-5f84-a9fd-6278e213e599","title":"Ramy Is the Comedy Series And Here's Why You Need To Watch","slug":"/ramy-is-the-comedy-series-and-heres-why-you-need-to-watch/","link":null,"excerpt":"Primo in altis pelle alumnae Lorem markdownum obvius in seque opus, est bicorni forte; laeva…","timeToRead":1,"featured":null,"thumbnailText":null,"date":"April 02, 2020","category":{"__typename":"CategoriesJson","id":"5186be4a-9cf6-5f48-86ec-260630d34c79","name":"TV & Movies","slug":"/category/tv-and-movies/","color":"#bee3f8","icon":"/test-gatsby/static/f41361d1715191a688f7243a90b28bc7/tv-movies.svg"},"author":{"__typename":"AuthorsJson","id":"504541e5-037a-525a-a50d-a979b8d77266","name":"John Doe","slug":"/author/john-doe/","title":"Web Developer","description":"Sed commodo, est quis maximus fermentum, massa ipsum euismod neque, in varius risus tellus quis lacus. Sed ac bibendum odio.","skills":["ASP.NET","Assembly","JavaScript"],"social":[{"name":"Instagram","url":"https://instagram.com/instagram"},{"name":"Twitter","url":"https://twitter.com/twitter"},{"name":"Website","url":"https://example.com"}],"thumbnail":{"__typename":"ImageSharp","regular":{"width":150,"height":150,"src":"/test-gatsby/static/011b3215b6b7e782f02d67aebfa4c319/97df7/john-doe.png","srcSet":"/test-gatsby/static/011b3215b6b7e782f02d67aebfa4c319/97df7/john-doe.png 1x,\n/test-gatsby/static/011b3215b6b7e782f02d67aebfa4c319/81b80/john-doe.png 1.5x,\n/test-gatsby/static/011b3215b6b7e782f02d67aebfa4c319/bb938/john-doe.png 2x"}}},"thumbnail":{"__typename":"ImageSharp","vertical":{"src":"/test-gatsby/static/a381cbe123484c239b97a005d5ce4a00/8f7be/image.jpg","srcSet":"/test-gatsby/static/a381cbe123484c239b97a005d5ce4a00/8f7be/image.jpg 1x,\n/test-gatsby/static/a381cbe123484c239b97a005d5ce4a00/1af80/image.jpg 1.5x,\n/test-gatsby/static/a381cbe123484c239b97a005d5ce4a00/1acf6/image.jpg 2x","srcWebp":"/test-gatsby/static/a381cbe123484c239b97a005d5ce4a00/03323/image.webp","srcSetWebp":"/test-gatsby/static/a381cbe123484c239b97a005d5ce4a00/03323/image.webp 1x,\n/test-gatsby/static/a381cbe123484c239b97a005d5ce4a00/c8e9c/image.webp 1.5x,\n/test-gatsby/static/a381cbe123484c239b97a005d5ce4a00/e7f4c/image.webp 2x","width":380,"height":290},"hero":{"src":"/test-gatsby/static/a381cbe123484c239b97a005d5ce4a00/a8483/image.jpg","srcSet":"/test-gatsby/static/a381cbe123484c239b97a005d5ce4a00/a8483/image.jpg 1x","srcWebp":"/test-gatsby/static/a381cbe123484c239b97a005d5ce4a00/7330c/image.webp","srcSetWebp":"/test-gatsby/static/a381cbe123484c239b97a005d5ce4a00/7330c/image.webp 1x","width":1600,"height":650}}},{"__typename":"MdxArticleProxy","id":"43f5aeb9-f845-51c0-9fb5-8ab37a645880","title":"Lea Responded After Being Accused Of Bullying Her Former","slug":"/lea-responded-after-being-accused-of-bullying-her-former/","link":null,"excerpt":"Primo in altis pelle alumnae Lorem markdownum obvius in seque opus, est bicorni forte; laeva…","timeToRead":1,"featured":null,"thumbnailText":null,"date":"April 02, 2020","category":{"__typename":"CategoriesJson","id":"5186be4a-9cf6-5f48-86ec-260630d34c79","name":"TV & Movies","slug":"/category/tv-and-movies/","color":"#bee3f8","icon":"/test-gatsby/static/f41361d1715191a688f7243a90b28bc7/tv-movies.svg"},"author":{"__typename":"AuthorsJson","id":"504541e5-037a-525a-a50d-a979b8d77266","name":"John Doe","slug":"/author/john-doe/","title":"Web Developer","description":"Sed commodo, est quis maximus fermentum, massa ipsum euismod neque, in varius risus tellus quis lacus. Sed ac bibendum odio.","skills":["ASP.NET","Assembly","JavaScript"],"social":[{"name":"Instagram","url":"https://instagram.com/instagram"},{"name":"Twitter","url":"https://twitter.com/twitter"},{"name":"Website","url":"https://example.com"}],"thumbnail":{"__typename":"ImageSharp","regular":{"width":150,"height":150,"src":"/test-gatsby/static/011b3215b6b7e782f02d67aebfa4c319/97df7/john-doe.png","srcSet":"/test-gatsby/static/011b3215b6b7e782f02d67aebfa4c319/97df7/john-doe.png 1x,\n/test-gatsby/static/011b3215b6b7e782f02d67aebfa4c319/81b80/john-doe.png 1.5x,\n/test-gatsby/static/011b3215b6b7e782f02d67aebfa4c319/bb938/john-doe.png 2x"}}},"thumbnail":{"__typename":"ImageSharp","vertical":{"src":"/test-gatsby/static/a381cbe123484c239b97a005d5ce4a00/8f7be/image.jpg","srcSet":"/test-gatsby/static/a381cbe123484c239b97a005d5ce4a00/8f7be/image.jpg 1x,\n/test-gatsby/static/a381cbe123484c239b97a005d5ce4a00/1af80/image.jpg 1.5x,\n/test-gatsby/static/a381cbe123484c239b97a005d5ce4a00/1acf6/image.jpg 2x","srcWebp":"/test-gatsby/static/a381cbe123484c239b97a005d5ce4a00/03323/image.webp","srcSetWebp":"/test-gatsby/static/a381cbe123484c239b97a005d5ce4a00/03323/image.webp 1x,\n/test-gatsby/static/a381cbe123484c239b97a005d5ce4a00/c8e9c/image.webp 1.5x,\n/test-gatsby/static/a381cbe123484c239b97a005d5ce4a00/e7f4c/image.webp 2x","width":380,"height":290},"hero":{"src":"/test-gatsby/static/a381cbe123484c239b97a005d5ce4a00/a8483/image.jpg","srcSet":"/test-gatsby/static/a381cbe123484c239b97a005d5ce4a00/a8483/image.jpg 1x","srcWebp":"/test-gatsby/static/a381cbe123484c239b97a005d5ce4a00/7330c/image.webp","srcSetWebp":"/test-gatsby/static/a381cbe123484c239b97a005d5ce4a00/7330c/image.webp 1x","width":1600,"height":650}}},{"__typename":"MdxArticleProxy","id":"123b2f1c-45d6-5951-ad99-f924fcf2dc95","title":"It's Time To Vent Which Movie Sequels Were Unnecessary","slug":"/its-time-to-vent-which-movie-sequels-were-unnecessary/","link":null,"excerpt":"Primo in altis pelle alumnae Lorem markdownum obvius in seque opus, est bicorni forte; laeva…","timeToRead":1,"featured":true,"thumbnailText":null,"date":"April 02, 2020","category":{"__typename":"CategoriesJson","id":"5186be4a-9cf6-5f48-86ec-260630d34c79","name":"TV & Movies","slug":"/category/tv-and-movies/","color":"#bee3f8","icon":"/test-gatsby/static/f41361d1715191a688f7243a90b28bc7/tv-movies.svg"},"author":{"__typename":"AuthorsJson","id":"504541e5-037a-525a-a50d-a979b8d77266","name":"John Doe","slug":"/author/john-doe/","title":"Web Developer","description":"Sed commodo, est quis maximus fermentum, massa ipsum euismod neque, in varius risus tellus quis lacus. Sed ac bibendum odio.","skills":["ASP.NET","Assembly","JavaScript"],"social":[{"name":"Instagram","url":"https://instagram.com/instagram"},{"name":"Twitter","url":"https://twitter.com/twitter"},{"name":"Website","url":"https://example.com"}],"thumbnail":{"__typename":"ImageSharp","regular":{"width":150,"height":150,"src":"/test-gatsby/static/011b3215b6b7e782f02d67aebfa4c319/97df7/john-doe.png","srcSet":"/test-gatsby/static/011b3215b6b7e782f02d67aebfa4c319/97df7/john-doe.png 1x,\n/test-gatsby/static/011b3215b6b7e782f02d67aebfa4c319/81b80/john-doe.png 1.5x,\n/test-gatsby/static/011b3215b6b7e782f02d67aebfa4c319/bb938/john-doe.png 2x"}}},"thumbnail":{"__typename":"ImageSharp","vertical":{"src":"/test-gatsby/static/a381cbe123484c239b97a005d5ce4a00/8f7be/image.jpg","srcSet":"/test-gatsby/static/a381cbe123484c239b97a005d5ce4a00/8f7be/image.jpg 1x,\n/test-gatsby/static/a381cbe123484c239b97a005d5ce4a00/1af80/image.jpg 1.5x,\n/test-gatsby/static/a381cbe123484c239b97a005d5ce4a00/1acf6/image.jpg 2x","srcWebp":"/test-gatsby/static/a381cbe123484c239b97a005d5ce4a00/03323/image.webp","srcSetWebp":"/test-gatsby/static/a381cbe123484c239b97a005d5ce4a00/03323/image.webp 1x,\n/test-gatsby/static/a381cbe123484c239b97a005d5ce4a00/c8e9c/image.webp 1.5x,\n/test-gatsby/static/a381cbe123484c239b97a005d5ce4a00/e7f4c/image.webp 2x","width":380,"height":290},"hero":{"src":"/test-gatsby/static/a381cbe123484c239b97a005d5ce4a00/a8483/image.jpg","srcSet":"/test-gatsby/static/a381cbe123484c239b97a005d5ce4a00/a8483/image.jpg 1x","srcWebp":"/test-gatsby/static/a381cbe123484c239b97a005d5ce4a00/7330c/image.webp","srcSetWebp":"/test-gatsby/static/a381cbe123484c239b97a005d5ce4a00/7330c/image.webp 1x","width":1600,"height":650}}}],"pageInfo":{"pageCount":2,"hasPreviousPage":false,"hasNextPage":true,"currentPage":1},"totalCount":9}},"pageContext":{"slug":"/tag/innovation/","limit":6,"skip":0,"collectionType":"tags","paginatePostsPage":false,"basePath":"/","services":{"algolia":false,"mailchimp":false,"disqus":false},"siteUrl":null,"mobileMenu":{"title":"Topics","items":[{"name":"Shopping","slug":"/category/shopping/"},{"name":"News","slug":"/category/news/"},{"name":"Recipes","slug":"/category/recipes/"},{"name":"TV & Movies","slug":"/category/tv-and-movies/"}]},"darkMode":true}},"staticQueryHashes":["618338068","620128445","620128445"]}