{"componentChunkName":"component---packages-blog-core-src-templates-collection-tag-js","path":"/tag/agency/page/5/","result":{"data":{"collectionInfo":{"id":"853903ab-6fa6-58de-b05e-cd9904325aa5","name":"#agency","slug":"/tag/agency/"},"posts":{"nodes":[{"__typename":"MdxArticleProxy","id":"a05e40f2-8db3-596a-81c1-ff2aa8b37a48","title":"Instagram Influencing Has Long Had A Diversity Problem","slug":"/instagram-influencing-has-long-had-a-diversity-problem/","link":null,"excerpt":"Primo in altis pelle alumnae Lorem markdownum obvius in seque opus, est bicorni forte; laeva…","timeToRead":1,"featured":null,"thumbnailText":null,"date":"April 16, 2019","category":{"__typename":"CategoriesJson","id":"bbbe2153-8bf2-5b71-91d1-703924439977","name":"News","slug":"/category/news/","color":"#e9d8fd","icon":"/notes/static/93c9c75517e1a6e95deaecabf3d1d050/news.svg"},"author":{"__typename":"AuthorsJson","id":"ea3de95e-39f7-5418-816d-1d164899e51d","name":"Jane Smith","slug":"/author/jane-smith/","title":"Creative Designer","description":"Sed commodo, est quis maximus fermentum, massa ipsum euismod neque, in varius risus tellus quis lacus. Sed ac bibendum odio.","skills":["Advertising","Business","Designer"],"social":[{"name":"Instagram","url":"https://instagram.com/instagram"},{"name":"Twitter","url":"https://twitter.com/twitter"},{"name":"Website","url":"https://example.com"}],"thumbnail":{"__typename":"ImageSharp","regular":{"width":150,"height":150,"src":"/notes/static/ec552a7c1f96030de0601b3b204b16cf/97df7/jane-smith.png","srcSet":"/notes/static/ec552a7c1f96030de0601b3b204b16cf/97df7/jane-smith.png 1x,\n/notes/static/ec552a7c1f96030de0601b3b204b16cf/81b80/jane-smith.png 1.5x,\n/notes/static/ec552a7c1f96030de0601b3b204b16cf/bb938/jane-smith.png 2x"}}},"thumbnail":{"__typename":"ImageSharp","vertical":{"src":"/notes/static/a381cbe123484c239b97a005d5ce4a00/8f7be/image.jpg","srcSet":"/notes/static/a381cbe123484c239b97a005d5ce4a00/8f7be/image.jpg 1x,\n/notes/static/a381cbe123484c239b97a005d5ce4a00/1af80/image.jpg 1.5x,\n/notes/static/a381cbe123484c239b97a005d5ce4a00/1acf6/image.jpg 2x","srcWebp":"/notes/static/a381cbe123484c239b97a005d5ce4a00/03323/image.webp","srcSetWebp":"/notes/static/a381cbe123484c239b97a005d5ce4a00/03323/image.webp 1x,\n/notes/static/a381cbe123484c239b97a005d5ce4a00/c8e9c/image.webp 1.5x,\n/notes/static/a381cbe123484c239b97a005d5ce4a00/e7f4c/image.webp 2x","width":380,"height":290},"hero":{"src":"/notes/static/a381cbe123484c239b97a005d5ce4a00/a8483/image.jpg","srcSet":"/notes/static/a381cbe123484c239b97a005d5ce4a00/a8483/image.jpg 1x","srcWebp":"/notes/static/a381cbe123484c239b97a005d5ce4a00/7330c/image.webp","srcSetWebp":"/notes/static/a381cbe123484c239b97a005d5ce4a00/7330c/image.webp 1x","width":1600,"height":650}}},{"__typename":"MdxArticleProxy","id":"6524489c-a8d2-57d3-abe9-469479ca46d3","title":"Authorities Investigating The Huxley Stauffer Case","slug":"/authorities-investigating-the-huxley-stauffer-case/","link":null,"excerpt":"Dona curvo sub evertere quam ultimus aridus Lorem markdownum , sub tecumque, posceret revertar…","timeToRead":1,"featured":null,"thumbnailText":null,"date":"April 16, 2019","category":{"__typename":"CategoriesJson","id":"bbbe2153-8bf2-5b71-91d1-703924439977","name":"News","slug":"/category/news/","color":"#e9d8fd","icon":"/notes/static/93c9c75517e1a6e95deaecabf3d1d050/news.svg"},"author":{"__typename":"AuthorsJson","id":"a1f55967-d7a4-5f6a-a7f9-a815f0599665","name":"John Doe","slug":"/author/john-doe/","title":"Web Developer","description":"Sed commodo, est quis maximus fermentum, massa ipsum euismod neque, in varius risus tellus quis lacus. Sed ac bibendum odio.","skills":["ASP.NET","Assembly","JavaScript"],"social":[{"name":"Instagram","url":"https://instagram.com/instagram"},{"name":"Twitter","url":"https://twitter.com/twitter"},{"name":"Website","url":"https://example.com"}],"thumbnail":{"__typename":"ImageSharp","regular":{"width":150,"height":150,"src":"/notes/static/011b3215b6b7e782f02d67aebfa4c319/97df7/john-doe.png","srcSet":"/notes/static/011b3215b6b7e782f02d67aebfa4c319/97df7/john-doe.png 1x,\n/notes/static/011b3215b6b7e782f02d67aebfa4c319/81b80/john-doe.png 1.5x,\n/notes/static/011b3215b6b7e782f02d67aebfa4c319/bb938/john-doe.png 2x"}}},"thumbnail":{"__typename":"ImageSharp","vertical":{"src":"/notes/static/a381cbe123484c239b97a005d5ce4a00/8f7be/image.jpg","srcSet":"/notes/static/a381cbe123484c239b97a005d5ce4a00/8f7be/image.jpg 1x,\n/notes/static/a381cbe123484c239b97a005d5ce4a00/1af80/image.jpg 1.5x,\n/notes/static/a381cbe123484c239b97a005d5ce4a00/1acf6/image.jpg 2x","srcWebp":"/notes/static/a381cbe123484c239b97a005d5ce4a00/03323/image.webp","srcSetWebp":"/notes/static/a381cbe123484c239b97a005d5ce4a00/03323/image.webp 1x,\n/notes/static/a381cbe123484c239b97a005d5ce4a00/c8e9c/image.webp 1.5x,\n/notes/static/a381cbe123484c239b97a005d5ce4a00/e7f4c/image.webp 2x","width":380,"height":290},"hero":{"src":"/notes/static/a381cbe123484c239b97a005d5ce4a00/a8483/image.jpg","srcSet":"/notes/static/a381cbe123484c239b97a005d5ce4a00/a8483/image.jpg 1x","srcWebp":"/notes/static/a381cbe123484c239b97a005d5ce4a00/7330c/image.webp","srcSetWebp":"/notes/static/a381cbe123484c239b97a005d5ce4a00/7330c/image.webp 1x","width":1600,"height":650}}},{"__typename":"MdxArticleProxy","id":"cb1d73ff-a2e2-5ff5-90bf-8d489e4e8ef9","title":"An 18 Year Old Said She Was Raped While In Police Custody","slug":"/an-18-year-old-said-she-was-raped-while-in-police-custody/","link":null,"excerpt":"Primo in altis pelle alumnae Lorem markdownum obvius in seque opus, est bicorni forte; laeva…","timeToRead":1,"featured":null,"thumbnailText":null,"date":"April 16, 2019","category":{"__typename":"CategoriesJson","id":"bbbe2153-8bf2-5b71-91d1-703924439977","name":"News","slug":"/category/news/","color":"#e9d8fd","icon":"/notes/static/93c9c75517e1a6e95deaecabf3d1d050/news.svg"},"author":{"__typename":"AuthorsJson","id":"a1f55967-d7a4-5f6a-a7f9-a815f0599665","name":"John Doe","slug":"/author/john-doe/","title":"Web Developer","description":"Sed commodo, est quis maximus fermentum, massa ipsum euismod neque, in varius risus tellus quis lacus. Sed ac bibendum odio.","skills":["ASP.NET","Assembly","JavaScript"],"social":[{"name":"Instagram","url":"https://instagram.com/instagram"},{"name":"Twitter","url":"https://twitter.com/twitter"},{"name":"Website","url":"https://example.com"}],"thumbnail":{"__typename":"ImageSharp","regular":{"width":150,"height":150,"src":"/notes/static/011b3215b6b7e782f02d67aebfa4c319/97df7/john-doe.png","srcSet":"/notes/static/011b3215b6b7e782f02d67aebfa4c319/97df7/john-doe.png 1x,\n/notes/static/011b3215b6b7e782f02d67aebfa4c319/81b80/john-doe.png 1.5x,\n/notes/static/011b3215b6b7e782f02d67aebfa4c319/bb938/john-doe.png 2x"}}},"thumbnail":{"__typename":"ImageSharp","vertical":{"src":"/notes/static/a381cbe123484c239b97a005d5ce4a00/8f7be/image.jpg","srcSet":"/notes/static/a381cbe123484c239b97a005d5ce4a00/8f7be/image.jpg 1x,\n/notes/static/a381cbe123484c239b97a005d5ce4a00/1af80/image.jpg 1.5x,\n/notes/static/a381cbe123484c239b97a005d5ce4a00/1acf6/image.jpg 2x","srcWebp":"/notes/static/a381cbe123484c239b97a005d5ce4a00/03323/image.webp","srcSetWebp":"/notes/static/a381cbe123484c239b97a005d5ce4a00/03323/image.webp 1x,\n/notes/static/a381cbe123484c239b97a005d5ce4a00/c8e9c/image.webp 1.5x,\n/notes/static/a381cbe123484c239b97a005d5ce4a00/e7f4c/image.webp 2x","width":380,"height":290},"hero":{"src":"/notes/static/a381cbe123484c239b97a005d5ce4a00/a8483/image.jpg","srcSet":"/notes/static/a381cbe123484c239b97a005d5ce4a00/a8483/image.jpg 1x","srcWebp":"/notes/static/a381cbe123484c239b97a005d5ce4a00/7330c/image.webp","srcSetWebp":"/notes/static/a381cbe123484c239b97a005d5ce4a00/7330c/image.webp 1x","width":1600,"height":650}}},{"__typename":"MdxArticleProxy","id":"e3efda6f-4078-5e5b-bc76-c42f6da9788b","title":"A Lot Of Celebrities Are Being Useless Right Now","slug":"/a-lot-of-celebrities-are-being-useless-right-now/","link":null,"excerpt":"Lorem markdownum illic venturi instructa nobis Echidnae,  cum  quid magna\nfatebor. Levat placetque…","timeToRead":1,"featured":null,"thumbnailText":null,"date":"April 16, 2019","category":{"__typename":"CategoriesJson","id":"bbbe2153-8bf2-5b71-91d1-703924439977","name":"News","slug":"/category/news/","color":"#e9d8fd","icon":"/notes/static/93c9c75517e1a6e95deaecabf3d1d050/news.svg"},"author":{"__typename":"AuthorsJson","id":"615fce5a-18a3-58b6-889d-1a7d6dd1047b","name":"Steve Grant","slug":"/author/steve-grant/","title":"Product Designer","description":"Sed commodo, est quis maximus fermentum, massa ipsum euismod neque, in varius risus tellus quis lacus. Sed ac bibendum odio.","skills":["Public Relation","Market Analyst","Designer"],"social":[{"name":"Instagram","url":"https://instagram.com/instagram"},{"name":"Twitter","url":"https://twitter.com/twitter"},{"name":"Website","url":"https://example.com"}],"thumbnail":{"__typename":"ImageSharp","regular":{"width":150,"height":150,"src":"/notes/static/05d0ac7130e48a9a86ba018fac3dbe2d/97df7/steve-grant.png","srcSet":"/notes/static/05d0ac7130e48a9a86ba018fac3dbe2d/97df7/steve-grant.png 1x,\n/notes/static/05d0ac7130e48a9a86ba018fac3dbe2d/81b80/steve-grant.png 1.5x,\n/notes/static/05d0ac7130e48a9a86ba018fac3dbe2d/bb938/steve-grant.png 2x"}}},"thumbnail":{"__typename":"ImageSharp","vertical":{"src":"/notes/static/a381cbe123484c239b97a005d5ce4a00/8f7be/image.jpg","srcSet":"/notes/static/a381cbe123484c239b97a005d5ce4a00/8f7be/image.jpg 1x,\n/notes/static/a381cbe123484c239b97a005d5ce4a00/1af80/image.jpg 1.5x,\n/notes/static/a381cbe123484c239b97a005d5ce4a00/1acf6/image.jpg 2x","srcWebp":"/notes/static/a381cbe123484c239b97a005d5ce4a00/03323/image.webp","srcSetWebp":"/notes/static/a381cbe123484c239b97a005d5ce4a00/03323/image.webp 1x,\n/notes/static/a381cbe123484c239b97a005d5ce4a00/c8e9c/image.webp 1.5x,\n/notes/static/a381cbe123484c239b97a005d5ce4a00/e7f4c/image.webp 2x","width":380,"height":290},"hero":{"src":"/notes/static/a381cbe123484c239b97a005d5ce4a00/a8483/image.jpg","srcSet":"/notes/static/a381cbe123484c239b97a005d5ce4a00/a8483/image.jpg 1x","srcWebp":"/notes/static/a381cbe123484c239b97a005d5ce4a00/7330c/image.webp","srcSetWebp":"/notes/static/a381cbe123484c239b97a005d5ce4a00/7330c/image.webp 1x","width":1600,"height":650}}},{"__typename":"MdxArticleProxy","id":"3a642fbb-d4d1-5792-8bd8-189d063a5998","title":"Old Navy Is Having A Sale And Everything Is Up To 70 Off","slug":"/old-navy-is-having-a-sale-and-everything-is-up-to-70-off/","link":null,"excerpt":"Dona curvo sub evertere quam ultimus aridus Lorem markdownum , sub tecumque, posceret revertar…","timeToRead":1,"featured":null,"thumbnailText":null,"date":"April 16, 2019","category":{"__typename":"CategoriesJson","id":"665d9519-3448-5f69-bc66-c49f30c7d260","name":"Shopping","slug":"/category/shopping/","color":"#fefcbf","icon":"/notes/static/35c6c4f7d744541f08be2bbd2770c8db/shopping.svg"},"author":{"__typename":"AuthorsJson","id":"a1f55967-d7a4-5f6a-a7f9-a815f0599665","name":"John Doe","slug":"/author/john-doe/","title":"Web Developer","description":"Sed commodo, est quis maximus fermentum, massa ipsum euismod neque, in varius risus tellus quis lacus. Sed ac bibendum odio.","skills":["ASP.NET","Assembly","JavaScript"],"social":[{"name":"Instagram","url":"https://instagram.com/instagram"},{"name":"Twitter","url":"https://twitter.com/twitter"},{"name":"Website","url":"https://example.com"}],"thumbnail":{"__typename":"ImageSharp","regular":{"width":150,"height":150,"src":"/notes/static/011b3215b6b7e782f02d67aebfa4c319/97df7/john-doe.png","srcSet":"/notes/static/011b3215b6b7e782f02d67aebfa4c319/97df7/john-doe.png 1x,\n/notes/static/011b3215b6b7e782f02d67aebfa4c319/81b80/john-doe.png 1.5x,\n/notes/static/011b3215b6b7e782f02d67aebfa4c319/bb938/john-doe.png 2x"}}},"thumbnail":{"__typename":"ImageSharp","vertical":{"src":"/notes/static/a381cbe123484c239b97a005d5ce4a00/8f7be/image.jpg","srcSet":"/notes/static/a381cbe123484c239b97a005d5ce4a00/8f7be/image.jpg 1x,\n/notes/static/a381cbe123484c239b97a005d5ce4a00/1af80/image.jpg 1.5x,\n/notes/static/a381cbe123484c239b97a005d5ce4a00/1acf6/image.jpg 2x","srcWebp":"/notes/static/a381cbe123484c239b97a005d5ce4a00/03323/image.webp","srcSetWebp":"/notes/static/a381cbe123484c239b97a005d5ce4a00/03323/image.webp 1x,\n/notes/static/a381cbe123484c239b97a005d5ce4a00/c8e9c/image.webp 1.5x,\n/notes/static/a381cbe123484c239b97a005d5ce4a00/e7f4c/image.webp 2x","width":380,"height":290},"hero":{"src":"/notes/static/a381cbe123484c239b97a005d5ce4a00/a8483/image.jpg","srcSet":"/notes/static/a381cbe123484c239b97a005d5ce4a00/a8483/image.jpg 1x","srcWebp":"/notes/static/a381cbe123484c239b97a005d5ce4a00/7330c/image.webp","srcSetWebp":"/notes/static/a381cbe123484c239b97a005d5ce4a00/7330c/image.webp 1x","width":1600,"height":650}}}],"pageInfo":{"pageCount":5,"hasPreviousPage":true,"hasNextPage":false,"currentPage":5},"totalCount":29}},"pageContext":{"slug":"/tag/agency/","limit":6,"skip":24,"collectionType":"tags","paginatePostsPage":false,"basePath":"/","services":{"algolia":true,"mailchimp":false,"disqus":true},"siteUrl":"https://psheon.github.io/notes","mobileMenu":{"title":"Topics","items":[{"name":"News","slug":"/category/news/"},{"name":"Shopping","slug":"/category/shopping/"},{"name":"Recipes","slug":"/category/recipes/"},{"name":"TV & Movies","slug":"/category/tv-and-movies/"}]},"darkMode":true}},"staticQueryHashes":["618338068","620128445","620128445"]}