{"componentChunkName":"component---packages-blog-core-src-templates-collection-author-js","path":"/author/john-doe/page/2/","result":{"data":{"collectionInfo":{"__typename":"AuthorsJson","id":"504541e5-037a-525a-a50d-a979b8d77266","name":"John Doe","slug":"/author/john-doe/","title":"Web Developer","description":"Sed commodo, est quis maximus fermentum, massa ipsum euismod neque, in varius risus tellus quis lacus. Sed ac bibendum odio.","skills":["ASP.NET","Assembly","JavaScript"],"social":[{"name":"Instagram","url":"https://instagram.com/instagram"},{"name":"Twitter","url":"https://twitter.com/twitter"},{"name":"Website","url":"https://example.com"}],"thumbnail":{"__typename":"ImageSharp","regular":{"width":150,"height":150,"src":"/test-gatsby/static/011b3215b6b7e782f02d67aebfa4c319/97df7/john-doe.png","srcSet":"/test-gatsby/static/011b3215b6b7e782f02d67aebfa4c319/97df7/john-doe.png 1x,\n/test-gatsby/static/011b3215b6b7e782f02d67aebfa4c319/81b80/john-doe.png 1.5x,\n/test-gatsby/static/011b3215b6b7e782f02d67aebfa4c319/bb938/john-doe.png 2x"}}},"posts":{"nodes":[{"__typename":"MdxArticleProxy","id":"123b2f1c-45d6-5951-ad99-f924fcf2dc95","title":"It's Time To Vent Which Movie Sequels Were Unnecessary","slug":"/its-time-to-vent-which-movie-sequels-were-unnecessary/","link":null,"excerpt":"Primo in altis pelle alumnae Lorem markdownum obvius in seque opus, est bicorni forte; laeva…","timeToRead":1,"featured":true,"thumbnailText":null,"date":"April 02, 2020","category":{"__typename":"CategoriesJson","id":"5186be4a-9cf6-5f48-86ec-260630d34c79","name":"TV & Movies","slug":"/category/tv-and-movies/","color":"#bee3f8","icon":"/test-gatsby/static/f41361d1715191a688f7243a90b28bc7/tv-movies.svg"},"author":{"__typename":"AuthorsJson","id":"504541e5-037a-525a-a50d-a979b8d77266","name":"John Doe","slug":"/author/john-doe/","title":"Web Developer","description":"Sed commodo, est quis maximus fermentum, massa ipsum euismod neque, in varius risus tellus quis lacus. Sed ac bibendum odio.","skills":["ASP.NET","Assembly","JavaScript"],"social":[{"name":"Instagram","url":"https://instagram.com/instagram"},{"name":"Twitter","url":"https://twitter.com/twitter"},{"name":"Website","url":"https://example.com"}],"thumbnail":{"__typename":"ImageSharp","regular":{"width":150,"height":150,"src":"/test-gatsby/static/011b3215b6b7e782f02d67aebfa4c319/97df7/john-doe.png","srcSet":"/test-gatsby/static/011b3215b6b7e782f02d67aebfa4c319/97df7/john-doe.png 1x,\n/test-gatsby/static/011b3215b6b7e782f02d67aebfa4c319/81b80/john-doe.png 1.5x,\n/test-gatsby/static/011b3215b6b7e782f02d67aebfa4c319/bb938/john-doe.png 2x"}}},"thumbnail":{"__typename":"ImageSharp","vertical":{"src":"/test-gatsby/static/a381cbe123484c239b97a005d5ce4a00/8f7be/image.jpg","srcSet":"/test-gatsby/static/a381cbe123484c239b97a005d5ce4a00/8f7be/image.jpg 1x,\n/test-gatsby/static/a381cbe123484c239b97a005d5ce4a00/1af80/image.jpg 1.5x,\n/test-gatsby/static/a381cbe123484c239b97a005d5ce4a00/1acf6/image.jpg 2x","srcWebp":"/test-gatsby/static/a381cbe123484c239b97a005d5ce4a00/03323/image.webp","srcSetWebp":"/test-gatsby/static/a381cbe123484c239b97a005d5ce4a00/03323/image.webp 1x,\n/test-gatsby/static/a381cbe123484c239b97a005d5ce4a00/c8e9c/image.webp 1.5x,\n/test-gatsby/static/a381cbe123484c239b97a005d5ce4a00/e7f4c/image.webp 2x","width":380,"height":290},"hero":{"src":"/test-gatsby/static/a381cbe123484c239b97a005d5ce4a00/a8483/image.jpg","srcSet":"/test-gatsby/static/a381cbe123484c239b97a005d5ce4a00/a8483/image.jpg 1x","srcWebp":"/test-gatsby/static/a381cbe123484c239b97a005d5ce4a00/7330c/image.webp","srcSetWebp":"/test-gatsby/static/a381cbe123484c239b97a005d5ce4a00/7330c/image.webp 1x","width":1600,"height":650}}},{"__typename":"MdxArticleProxy","id":"e6abb1f0-7330-5c80-a07b-4252b10bcce5","title":"Here Are 22 Movies And Documentaries About Race","slug":"/here-are-22-movies-and-documentaries-about-race/","link":null,"excerpt":"Primo in altis pelle alumnae Lorem markdownum obvius in seque opus, est bicorni forte; laeva…","timeToRead":1,"featured":null,"thumbnailText":null,"date":"April 02, 2020","category":{"__typename":"CategoriesJson","id":"5186be4a-9cf6-5f48-86ec-260630d34c79","name":"TV & Movies","slug":"/category/tv-and-movies/","color":"#bee3f8","icon":"/test-gatsby/static/f41361d1715191a688f7243a90b28bc7/tv-movies.svg"},"author":{"__typename":"AuthorsJson","id":"504541e5-037a-525a-a50d-a979b8d77266","name":"John Doe","slug":"/author/john-doe/","title":"Web Developer","description":"Sed commodo, est quis maximus fermentum, massa ipsum euismod neque, in varius risus tellus quis lacus. Sed ac bibendum odio.","skills":["ASP.NET","Assembly","JavaScript"],"social":[{"name":"Instagram","url":"https://instagram.com/instagram"},{"name":"Twitter","url":"https://twitter.com/twitter"},{"name":"Website","url":"https://example.com"}],"thumbnail":{"__typename":"ImageSharp","regular":{"width":150,"height":150,"src":"/test-gatsby/static/011b3215b6b7e782f02d67aebfa4c319/97df7/john-doe.png","srcSet":"/test-gatsby/static/011b3215b6b7e782f02d67aebfa4c319/97df7/john-doe.png 1x,\n/test-gatsby/static/011b3215b6b7e782f02d67aebfa4c319/81b80/john-doe.png 1.5x,\n/test-gatsby/static/011b3215b6b7e782f02d67aebfa4c319/bb938/john-doe.png 2x"}}},"thumbnail":{"__typename":"ImageSharp","vertical":{"src":"/test-gatsby/static/a381cbe123484c239b97a005d5ce4a00/8f7be/image.jpg","srcSet":"/test-gatsby/static/a381cbe123484c239b97a005d5ce4a00/8f7be/image.jpg 1x,\n/test-gatsby/static/a381cbe123484c239b97a005d5ce4a00/1af80/image.jpg 1.5x,\n/test-gatsby/static/a381cbe123484c239b97a005d5ce4a00/1acf6/image.jpg 2x","srcWebp":"/test-gatsby/static/a381cbe123484c239b97a005d5ce4a00/03323/image.webp","srcSetWebp":"/test-gatsby/static/a381cbe123484c239b97a005d5ce4a00/03323/image.webp 1x,\n/test-gatsby/static/a381cbe123484c239b97a005d5ce4a00/c8e9c/image.webp 1.5x,\n/test-gatsby/static/a381cbe123484c239b97a005d5ce4a00/e7f4c/image.webp 2x","width":380,"height":290},"hero":{"src":"/test-gatsby/static/a381cbe123484c239b97a005d5ce4a00/a8483/image.jpg","srcSet":"/test-gatsby/static/a381cbe123484c239b97a005d5ce4a00/a8483/image.jpg 1x","srcWebp":"/test-gatsby/static/a381cbe123484c239b97a005d5ce4a00/7330c/image.webp","srcSetWebp":"/test-gatsby/static/a381cbe123484c239b97a005d5ce4a00/7330c/image.webp 1x","width":1600,"height":650}}},{"__typename":"MdxArticleProxy","id":"f189573c-64c7-5686-a0ce-d7ddcf03c26b","title":"Here's How Fuller House Explained Aunt Becky's Absence","slug":"/heres-how-fuller-house-explained-aunt-beckys-absence/","link":null,"excerpt":"Primo in altis pelle alumnae Lorem markdownum obvius in seque opus, est bicorni forte; laeva…","timeToRead":1,"featured":null,"thumbnailText":null,"date":"April 02, 2020","category":{"__typename":"CategoriesJson","id":"5186be4a-9cf6-5f48-86ec-260630d34c79","name":"TV & Movies","slug":"/category/tv-and-movies/","color":"#bee3f8","icon":"/test-gatsby/static/f41361d1715191a688f7243a90b28bc7/tv-movies.svg"},"author":{"__typename":"AuthorsJson","id":"504541e5-037a-525a-a50d-a979b8d77266","name":"John Doe","slug":"/author/john-doe/","title":"Web Developer","description":"Sed commodo, est quis maximus fermentum, massa ipsum euismod neque, in varius risus tellus quis lacus. Sed ac bibendum odio.","skills":["ASP.NET","Assembly","JavaScript"],"social":[{"name":"Instagram","url":"https://instagram.com/instagram"},{"name":"Twitter","url":"https://twitter.com/twitter"},{"name":"Website","url":"https://example.com"}],"thumbnail":{"__typename":"ImageSharp","regular":{"width":150,"height":150,"src":"/test-gatsby/static/011b3215b6b7e782f02d67aebfa4c319/97df7/john-doe.png","srcSet":"/test-gatsby/static/011b3215b6b7e782f02d67aebfa4c319/97df7/john-doe.png 1x,\n/test-gatsby/static/011b3215b6b7e782f02d67aebfa4c319/81b80/john-doe.png 1.5x,\n/test-gatsby/static/011b3215b6b7e782f02d67aebfa4c319/bb938/john-doe.png 2x"}}},"thumbnail":{"__typename":"ImageSharp","vertical":{"src":"/test-gatsby/static/a381cbe123484c239b97a005d5ce4a00/8f7be/image.jpg","srcSet":"/test-gatsby/static/a381cbe123484c239b97a005d5ce4a00/8f7be/image.jpg 1x,\n/test-gatsby/static/a381cbe123484c239b97a005d5ce4a00/1af80/image.jpg 1.5x,\n/test-gatsby/static/a381cbe123484c239b97a005d5ce4a00/1acf6/image.jpg 2x","srcWebp":"/test-gatsby/static/a381cbe123484c239b97a005d5ce4a00/03323/image.webp","srcSetWebp":"/test-gatsby/static/a381cbe123484c239b97a005d5ce4a00/03323/image.webp 1x,\n/test-gatsby/static/a381cbe123484c239b97a005d5ce4a00/c8e9c/image.webp 1.5x,\n/test-gatsby/static/a381cbe123484c239b97a005d5ce4a00/e7f4c/image.webp 2x","width":380,"height":290},"hero":{"src":"/test-gatsby/static/a381cbe123484c239b97a005d5ce4a00/a8483/image.jpg","srcSet":"/test-gatsby/static/a381cbe123484c239b97a005d5ce4a00/a8483/image.jpg 1x","srcWebp":"/test-gatsby/static/a381cbe123484c239b97a005d5ce4a00/7330c/image.webp","srcSetWebp":"/test-gatsby/static/a381cbe123484c239b97a005d5ce4a00/7330c/image.webp 1x","width":1600,"height":650}}},{"__typename":"MdxArticleProxy","id":"eb4a1c50-9bdd-5fdd-89c3-6ca70f171137","title":"Do You Prefer Blair's Or Serena's Outfits From Gossip Girl","slug":"/do-you-prefer-blairs-or-serenas-outfits-from-gossip-girl/","link":null,"excerpt":"Primo in altis pelle alumnae Lorem markdownum obvius in seque opus, est bicorni forte; laeva…","timeToRead":1,"featured":null,"thumbnailText":null,"date":"April 02, 2020","category":{"__typename":"CategoriesJson","id":"5186be4a-9cf6-5f48-86ec-260630d34c79","name":"TV & Movies","slug":"/category/tv-and-movies/","color":"#bee3f8","icon":"/test-gatsby/static/f41361d1715191a688f7243a90b28bc7/tv-movies.svg"},"author":{"__typename":"AuthorsJson","id":"504541e5-037a-525a-a50d-a979b8d77266","name":"John Doe","slug":"/author/john-doe/","title":"Web Developer","description":"Sed commodo, est quis maximus fermentum, massa ipsum euismod neque, in varius risus tellus quis lacus. Sed ac bibendum odio.","skills":["ASP.NET","Assembly","JavaScript"],"social":[{"name":"Instagram","url":"https://instagram.com/instagram"},{"name":"Twitter","url":"https://twitter.com/twitter"},{"name":"Website","url":"https://example.com"}],"thumbnail":{"__typename":"ImageSharp","regular":{"width":150,"height":150,"src":"/test-gatsby/static/011b3215b6b7e782f02d67aebfa4c319/97df7/john-doe.png","srcSet":"/test-gatsby/static/011b3215b6b7e782f02d67aebfa4c319/97df7/john-doe.png 1x,\n/test-gatsby/static/011b3215b6b7e782f02d67aebfa4c319/81b80/john-doe.png 1.5x,\n/test-gatsby/static/011b3215b6b7e782f02d67aebfa4c319/bb938/john-doe.png 2x"}}},"thumbnail":{"__typename":"ImageSharp","vertical":{"src":"/test-gatsby/static/a381cbe123484c239b97a005d5ce4a00/8f7be/image.jpg","srcSet":"/test-gatsby/static/a381cbe123484c239b97a005d5ce4a00/8f7be/image.jpg 1x,\n/test-gatsby/static/a381cbe123484c239b97a005d5ce4a00/1af80/image.jpg 1.5x,\n/test-gatsby/static/a381cbe123484c239b97a005d5ce4a00/1acf6/image.jpg 2x","srcWebp":"/test-gatsby/static/a381cbe123484c239b97a005d5ce4a00/03323/image.webp","srcSetWebp":"/test-gatsby/static/a381cbe123484c239b97a005d5ce4a00/03323/image.webp 1x,\n/test-gatsby/static/a381cbe123484c239b97a005d5ce4a00/c8e9c/image.webp 1.5x,\n/test-gatsby/static/a381cbe123484c239b97a005d5ce4a00/e7f4c/image.webp 2x","width":380,"height":290},"hero":{"src":"/test-gatsby/static/a381cbe123484c239b97a005d5ce4a00/a8483/image.jpg","srcSet":"/test-gatsby/static/a381cbe123484c239b97a005d5ce4a00/a8483/image.jpg 1x","srcWebp":"/test-gatsby/static/a381cbe123484c239b97a005d5ce4a00/7330c/image.webp","srcSetWebp":"/test-gatsby/static/a381cbe123484c239b97a005d5ce4a00/7330c/image.webp 1x","width":1600,"height":650}}},{"__typename":"MdxArticleProxy","id":"58ad211f-deab-546f-8e96-0831890fea8c","title":"The Satin Skirt & How To Wear It All Year Round","slug":"/the-satin-skirt-and-how-to-wear-it-all-year-round/","link":null,"excerpt":"Lorem markdownum transitque nondum, Peliaeque at poterat exegit, urbis quo;\ntibi. Cursus mecum adit…","timeToRead":1,"featured":null,"thumbnailText":null,"date":"April 16, 2019","category":{"__typename":"CategoriesJson","id":"281e5804-b9ae-5e11-8975-45afab531ed7","name":"Shopping","slug":"/category/shopping/","color":"#fefcbf","icon":"/test-gatsby/static/35c6c4f7d744541f08be2bbd2770c8db/shopping.svg"},"author":{"__typename":"AuthorsJson","id":"504541e5-037a-525a-a50d-a979b8d77266","name":"John Doe","slug":"/author/john-doe/","title":"Web Developer","description":"Sed commodo, est quis maximus fermentum, massa ipsum euismod neque, in varius risus tellus quis lacus. Sed ac bibendum odio.","skills":["ASP.NET","Assembly","JavaScript"],"social":[{"name":"Instagram","url":"https://instagram.com/instagram"},{"name":"Twitter","url":"https://twitter.com/twitter"},{"name":"Website","url":"https://example.com"}],"thumbnail":{"__typename":"ImageSharp","regular":{"width":150,"height":150,"src":"/test-gatsby/static/011b3215b6b7e782f02d67aebfa4c319/97df7/john-doe.png","srcSet":"/test-gatsby/static/011b3215b6b7e782f02d67aebfa4c319/97df7/john-doe.png 1x,\n/test-gatsby/static/011b3215b6b7e782f02d67aebfa4c319/81b80/john-doe.png 1.5x,\n/test-gatsby/static/011b3215b6b7e782f02d67aebfa4c319/bb938/john-doe.png 2x"}}},"thumbnail":{"__typename":"ImageSharp","vertical":{"src":"/test-gatsby/static/a381cbe123484c239b97a005d5ce4a00/8f7be/image.jpg","srcSet":"/test-gatsby/static/a381cbe123484c239b97a005d5ce4a00/8f7be/image.jpg 1x,\n/test-gatsby/static/a381cbe123484c239b97a005d5ce4a00/1af80/image.jpg 1.5x,\n/test-gatsby/static/a381cbe123484c239b97a005d5ce4a00/1acf6/image.jpg 2x","srcWebp":"/test-gatsby/static/a381cbe123484c239b97a005d5ce4a00/03323/image.webp","srcSetWebp":"/test-gatsby/static/a381cbe123484c239b97a005d5ce4a00/03323/image.webp 1x,\n/test-gatsby/static/a381cbe123484c239b97a005d5ce4a00/c8e9c/image.webp 1.5x,\n/test-gatsby/static/a381cbe123484c239b97a005d5ce4a00/e7f4c/image.webp 2x","width":380,"height":290},"hero":{"src":"/test-gatsby/static/a381cbe123484c239b97a005d5ce4a00/a8483/image.jpg","srcSet":"/test-gatsby/static/a381cbe123484c239b97a005d5ce4a00/a8483/image.jpg 1x","srcWebp":"/test-gatsby/static/a381cbe123484c239b97a005d5ce4a00/7330c/image.webp","srcSetWebp":"/test-gatsby/static/a381cbe123484c239b97a005d5ce4a00/7330c/image.webp 1x","width":1600,"height":650}}},{"__typename":"MdxArticleProxy","id":"46ffbcaa-774e-55ca-8d65-bedc2f514639","title":"Old Navy Is Having A Sale And Everything Is Up To 70 Off","slug":"/old-navy-is-having-a-sale-and-everything-is-up-to-70-off/","link":null,"excerpt":"Dona curvo sub evertere quam ultimus aridus Lorem markdownum , sub tecumque, posceret revertar…","timeToRead":1,"featured":null,"thumbnailText":null,"date":"April 16, 2019","category":{"__typename":"CategoriesJson","id":"281e5804-b9ae-5e11-8975-45afab531ed7","name":"Shopping","slug":"/category/shopping/","color":"#fefcbf","icon":"/test-gatsby/static/35c6c4f7d744541f08be2bbd2770c8db/shopping.svg"},"author":{"__typename":"AuthorsJson","id":"504541e5-037a-525a-a50d-a979b8d77266","name":"John Doe","slug":"/author/john-doe/","title":"Web Developer","description":"Sed commodo, est quis maximus fermentum, massa ipsum euismod neque, in varius risus tellus quis lacus. Sed ac bibendum odio.","skills":["ASP.NET","Assembly","JavaScript"],"social":[{"name":"Instagram","url":"https://instagram.com/instagram"},{"name":"Twitter","url":"https://twitter.com/twitter"},{"name":"Website","url":"https://example.com"}],"thumbnail":{"__typename":"ImageSharp","regular":{"width":150,"height":150,"src":"/test-gatsby/static/011b3215b6b7e782f02d67aebfa4c319/97df7/john-doe.png","srcSet":"/test-gatsby/static/011b3215b6b7e782f02d67aebfa4c319/97df7/john-doe.png 1x,\n/test-gatsby/static/011b3215b6b7e782f02d67aebfa4c319/81b80/john-doe.png 1.5x,\n/test-gatsby/static/011b3215b6b7e782f02d67aebfa4c319/bb938/john-doe.png 2x"}}},"thumbnail":{"__typename":"ImageSharp","vertical":{"src":"/test-gatsby/static/a381cbe123484c239b97a005d5ce4a00/8f7be/image.jpg","srcSet":"/test-gatsby/static/a381cbe123484c239b97a005d5ce4a00/8f7be/image.jpg 1x,\n/test-gatsby/static/a381cbe123484c239b97a005d5ce4a00/1af80/image.jpg 1.5x,\n/test-gatsby/static/a381cbe123484c239b97a005d5ce4a00/1acf6/image.jpg 2x","srcWebp":"/test-gatsby/static/a381cbe123484c239b97a005d5ce4a00/03323/image.webp","srcSetWebp":"/test-gatsby/static/a381cbe123484c239b97a005d5ce4a00/03323/image.webp 1x,\n/test-gatsby/static/a381cbe123484c239b97a005d5ce4a00/c8e9c/image.webp 1.5x,\n/test-gatsby/static/a381cbe123484c239b97a005d5ce4a00/e7f4c/image.webp 2x","width":380,"height":290},"hero":{"src":"/test-gatsby/static/a381cbe123484c239b97a005d5ce4a00/a8483/image.jpg","srcSet":"/test-gatsby/static/a381cbe123484c239b97a005d5ce4a00/a8483/image.jpg 1x","srcWebp":"/test-gatsby/static/a381cbe123484c239b97a005d5ce4a00/7330c/image.webp","srcSetWebp":"/test-gatsby/static/a381cbe123484c239b97a005d5ce4a00/7330c/image.webp 1x","width":1600,"height":650}}}],"pageInfo":{"pageCount":4,"hasPreviousPage":true,"hasNextPage":true,"currentPage":2},"totalCount":23}},"pageContext":{"slug":"/author/john-doe/","limit":6,"skip":6,"collectionType":"author","paginatePostsPage":false,"basePath":"/","services":{"algolia":false,"mailchimp":false,"disqus":false},"siteUrl":null,"mobileMenu":{"title":"Topics","items":[{"name":"Shopping","slug":"/category/shopping/"},{"name":"News","slug":"/category/news/"},{"name":"Recipes","slug":"/category/recipes/"},{"name":"TV & Movies","slug":"/category/tv-and-movies/"}]},"darkMode":true}},"staticQueryHashes":["618338068","620128445","620128445"]}