{"componentChunkName":"component---packages-blog-core-src-templates-collection-category-js","path":"/category/recipes/","result":{"data":{"collectionInfo":{"__typename":"CategoriesJson","id":"4916fce5-b0dd-50fd-a3ec-83f6fbeaa238","name":"Recipes","slug":"/category/recipes/","description":"Lorem ipsum dolor sit amet, consectetur adipiscing elit, sed do eiusmod tempor incididunt ut labore."},"posts":{"nodes":[{"__typename":"MdxArticleProxy","id":"c335f63b-0331-55cf-a9dc-25c8d7c807cd","title":"TRY THIS 9 Mesmerizing Cake Recipes","slug":"/try-this-9-mesmerizing-cake-recipes/","link":null,"excerpt":"Lorem markdownum transitque nondum, Peliaeque at poterat exegit, urbis quo;\ntibi. Cursus mecum adit…","timeToRead":1,"featured":true,"thumbnailText":null,"date":"April 16, 2019","category":{"__typename":"CategoriesJson","id":"4916fce5-b0dd-50fd-a3ec-83f6fbeaa238","name":"Recipes","slug":"/category/recipes/","color":"#c6f6d5","icon":"/test-gatsby/static/1de85bbd781531b61bf5a25b83d72d32/recipes.svg"},"author":{"__typename":"AuthorsJson","id":"504541e5-037a-525a-a50d-a979b8d77266","name":"John Doe","slug":"/author/john-doe/","title":"Web Developer","description":"Sed commodo, est quis maximus fermentum, massa ipsum euismod neque, in varius risus tellus quis lacus. Sed ac bibendum odio.","skills":["ASP.NET","Assembly","JavaScript"],"social":[{"name":"Instagram","url":"https://instagram.com/instagram"},{"name":"Twitter","url":"https://twitter.com/twitter"},{"name":"Website","url":"https://example.com"}],"thumbnail":{"__typename":"ImageSharp","regular":{"width":150,"height":150,"src":"/test-gatsby/static/011b3215b6b7e782f02d67aebfa4c319/97df7/john-doe.png","srcSet":"/test-gatsby/static/011b3215b6b7e782f02d67aebfa4c319/97df7/john-doe.png 1x,\n/test-gatsby/static/011b3215b6b7e782f02d67aebfa4c319/81b80/john-doe.png 1.5x,\n/test-gatsby/static/011b3215b6b7e782f02d67aebfa4c319/bb938/john-doe.png 2x"}}},"thumbnail":{"__typename":"ImageSharp","vertical":{"src":"/test-gatsby/static/a381cbe123484c239b97a005d5ce4a00/8f7be/image.jpg","srcSet":"/test-gatsby/static/a381cbe123484c239b97a005d5ce4a00/8f7be/image.jpg 1x,\n/test-gatsby/static/a381cbe123484c239b97a005d5ce4a00/1af80/image.jpg 1.5x,\n/test-gatsby/static/a381cbe123484c239b97a005d5ce4a00/1acf6/image.jpg 2x","srcWebp":"/test-gatsby/static/a381cbe123484c239b97a005d5ce4a00/03323/image.webp","srcSetWebp":"/test-gatsby/static/a381cbe123484c239b97a005d5ce4a00/03323/image.webp 1x,\n/test-gatsby/static/a381cbe123484c239b97a005d5ce4a00/c8e9c/image.webp 1.5x,\n/test-gatsby/static/a381cbe123484c239b97a005d5ce4a00/e7f4c/image.webp 2x","width":380,"height":290},"hero":{"src":"/test-gatsby/static/a381cbe123484c239b97a005d5ce4a00/a8483/image.jpg","srcSet":"/test-gatsby/static/a381cbe123484c239b97a005d5ce4a00/a8483/image.jpg 1x","srcWebp":"/test-gatsby/static/a381cbe123484c239b97a005d5ce4a00/7330c/image.webp","srcSetWebp":"/test-gatsby/static/a381cbe123484c239b97a005d5ce4a00/7330c/image.webp 1x","width":1600,"height":650}}},{"__typename":"MdxArticleProxy","id":"f8680ca0-d884-5cc9-9099-c3ab4081ab6a","title":"Spice Up Your Brunch with Frank's Redhot Sauce","slug":"/spice-up-your-brunch-with-franks-redhot-sauce/","link":null,"excerpt":"Nec ego a vidit Lorem  markdownum Ilion. Naides ferox vocantem, Iuno artes patrios tamen,\nspicea…","timeToRead":1,"featured":true,"thumbnailText":null,"date":"April 16, 2019","category":{"__typename":"CategoriesJson","id":"4916fce5-b0dd-50fd-a3ec-83f6fbeaa238","name":"Recipes","slug":"/category/recipes/","color":"#c6f6d5","icon":"/test-gatsby/static/1de85bbd781531b61bf5a25b83d72d32/recipes.svg"},"author":{"__typename":"AuthorsJson","id":"511805a4-5900-56af-a42f-53e1ecffdb7b","name":"Jane Smith","slug":"/author/jane-smith/","title":"Creative Designer","description":"Sed commodo, est quis maximus fermentum, massa ipsum euismod neque, in varius risus tellus quis lacus. Sed ac bibendum odio.","skills":["Advertising","Business","Designer"],"social":[{"name":"Instagram","url":"https://instagram.com/instagram"},{"name":"Twitter","url":"https://twitter.com/twitter"},{"name":"Website","url":"https://example.com"}],"thumbnail":{"__typename":"ImageSharp","regular":{"width":150,"height":150,"src":"/test-gatsby/static/ec552a7c1f96030de0601b3b204b16cf/97df7/jane-smith.png","srcSet":"/test-gatsby/static/ec552a7c1f96030de0601b3b204b16cf/97df7/jane-smith.png 1x,\n/test-gatsby/static/ec552a7c1f96030de0601b3b204b16cf/81b80/jane-smith.png 1.5x,\n/test-gatsby/static/ec552a7c1f96030de0601b3b204b16cf/bb938/jane-smith.png 2x"}}},"thumbnail":{"__typename":"ImageSharp","vertical":{"src":"/test-gatsby/static/a381cbe123484c239b97a005d5ce4a00/8f7be/image.jpg","srcSet":"/test-gatsby/static/a381cbe123484c239b97a005d5ce4a00/8f7be/image.jpg 1x,\n/test-gatsby/static/a381cbe123484c239b97a005d5ce4a00/1af80/image.jpg 1.5x,\n/test-gatsby/static/a381cbe123484c239b97a005d5ce4a00/1acf6/image.jpg 2x","srcWebp":"/test-gatsby/static/a381cbe123484c239b97a005d5ce4a00/03323/image.webp","srcSetWebp":"/test-gatsby/static/a381cbe123484c239b97a005d5ce4a00/03323/image.webp 1x,\n/test-gatsby/static/a381cbe123484c239b97a005d5ce4a00/c8e9c/image.webp 1.5x,\n/test-gatsby/static/a381cbe123484c239b97a005d5ce4a00/e7f4c/image.webp 2x","width":380,"height":290},"hero":{"src":"/test-gatsby/static/a381cbe123484c239b97a005d5ce4a00/a8483/image.jpg","srcSet":"/test-gatsby/static/a381cbe123484c239b97a005d5ce4a00/a8483/image.jpg 1x","srcWebp":"/test-gatsby/static/a381cbe123484c239b97a005d5ce4a00/7330c/image.webp","srcSetWebp":"/test-gatsby/static/a381cbe123484c239b97a005d5ce4a00/7330c/image.webp 1x","width":1600,"height":650}}},{"__typename":"MdxArticleProxy","id":"388bc567-95cf-5d52-afeb-741d7126147a","title":"I Made 3 Meals With Only 5 Ingredients","slug":"/i-made-3-meals-with-only-5-ingredients/","link":null,"excerpt":"Lorem markdownum illic venturi instructa nobis Echidnae,  cum  quid magna\nfatebor. Levat placetque…","timeToRead":1,"featured":null,"thumbnailText":null,"date":"April 16, 2019","category":{"__typename":"CategoriesJson","id":"4916fce5-b0dd-50fd-a3ec-83f6fbeaa238","name":"Recipes","slug":"/category/recipes/","color":"#c6f6d5","icon":"/test-gatsby/static/1de85bbd781531b61bf5a25b83d72d32/recipes.svg"},"author":{"__typename":"AuthorsJson","id":"d03d5c96-4a79-58f1-8c00-271c78c94ee7","name":"Steve Grant","slug":"/author/steve-grant/","title":"Product Designer","description":"Sed commodo, est quis maximus fermentum, massa ipsum euismod neque, in varius risus tellus quis lacus. Sed ac bibendum odio.","skills":["Public Relation","Market Analyst","Designer"],"social":[{"name":"Instagram","url":"https://instagram.com/instagram"},{"name":"Twitter","url":"https://twitter.com/twitter"},{"name":"Website","url":"https://example.com"}],"thumbnail":{"__typename":"ImageSharp","regular":{"width":150,"height":150,"src":"/test-gatsby/static/05d0ac7130e48a9a86ba018fac3dbe2d/97df7/steve-grant.png","srcSet":"/test-gatsby/static/05d0ac7130e48a9a86ba018fac3dbe2d/97df7/steve-grant.png 1x,\n/test-gatsby/static/05d0ac7130e48a9a86ba018fac3dbe2d/81b80/steve-grant.png 1.5x,\n/test-gatsby/static/05d0ac7130e48a9a86ba018fac3dbe2d/bb938/steve-grant.png 2x"}}},"thumbnail":{"__typename":"ImageSharp","vertical":{"src":"/test-gatsby/static/a381cbe123484c239b97a005d5ce4a00/8f7be/image.jpg","srcSet":"/test-gatsby/static/a381cbe123484c239b97a005d5ce4a00/8f7be/image.jpg 1x,\n/test-gatsby/static/a381cbe123484c239b97a005d5ce4a00/1af80/image.jpg 1.5x,\n/test-gatsby/static/a381cbe123484c239b97a005d5ce4a00/1acf6/image.jpg 2x","srcWebp":"/test-gatsby/static/a381cbe123484c239b97a005d5ce4a00/03323/image.webp","srcSetWebp":"/test-gatsby/static/a381cbe123484c239b97a005d5ce4a00/03323/image.webp 1x,\n/test-gatsby/static/a381cbe123484c239b97a005d5ce4a00/c8e9c/image.webp 1.5x,\n/test-gatsby/static/a381cbe123484c239b97a005d5ce4a00/e7f4c/image.webp 2x","width":380,"height":290},"hero":{"src":"/test-gatsby/static/a381cbe123484c239b97a005d5ce4a00/a8483/image.jpg","srcSet":"/test-gatsby/static/a381cbe123484c239b97a005d5ce4a00/a8483/image.jpg 1x","srcWebp":"/test-gatsby/static/a381cbe123484c239b97a005d5ce4a00/7330c/image.webp","srcSetWebp":"/test-gatsby/static/a381cbe123484c239b97a005d5ce4a00/7330c/image.webp 1x","width":1600,"height":650}}},{"__typename":"MdxArticleProxy","id":"8caa0fc9-dcde-502f-aa1c-6463a44690a7","title":"Easy Slow Cooker Chili Cheese Fries","slug":"/easy-slow-cooker-chili-cheese-fries/","link":null,"excerpt":"Primo in altis pelle alumnae Lorem markdownum obvius in seque opus, est bicorni forte; laeva…","timeToRead":1,"featured":null,"thumbnailText":null,"date":"April 16, 2019","category":{"__typename":"CategoriesJson","id":"4916fce5-b0dd-50fd-a3ec-83f6fbeaa238","name":"Recipes","slug":"/category/recipes/","color":"#c6f6d5","icon":"/test-gatsby/static/1de85bbd781531b61bf5a25b83d72d32/recipes.svg"},"author":{"__typename":"AuthorsJson","id":"d03d5c96-4a79-58f1-8c00-271c78c94ee7","name":"Steve Grant","slug":"/author/steve-grant/","title":"Product Designer","description":"Sed commodo, est quis maximus fermentum, massa ipsum euismod neque, in varius risus tellus quis lacus. Sed ac bibendum odio.","skills":["Public Relation","Market Analyst","Designer"],"social":[{"name":"Instagram","url":"https://instagram.com/instagram"},{"name":"Twitter","url":"https://twitter.com/twitter"},{"name":"Website","url":"https://example.com"}],"thumbnail":{"__typename":"ImageSharp","regular":{"width":150,"height":150,"src":"/test-gatsby/static/05d0ac7130e48a9a86ba018fac3dbe2d/97df7/steve-grant.png","srcSet":"/test-gatsby/static/05d0ac7130e48a9a86ba018fac3dbe2d/97df7/steve-grant.png 1x,\n/test-gatsby/static/05d0ac7130e48a9a86ba018fac3dbe2d/81b80/steve-grant.png 1.5x,\n/test-gatsby/static/05d0ac7130e48a9a86ba018fac3dbe2d/bb938/steve-grant.png 2x"}}},"thumbnail":{"__typename":"ImageSharp","vertical":{"src":"/test-gatsby/static/a381cbe123484c239b97a005d5ce4a00/8f7be/image.jpg","srcSet":"/test-gatsby/static/a381cbe123484c239b97a005d5ce4a00/8f7be/image.jpg 1x,\n/test-gatsby/static/a381cbe123484c239b97a005d5ce4a00/1af80/image.jpg 1.5x,\n/test-gatsby/static/a381cbe123484c239b97a005d5ce4a00/1acf6/image.jpg 2x","srcWebp":"/test-gatsby/static/a381cbe123484c239b97a005d5ce4a00/03323/image.webp","srcSetWebp":"/test-gatsby/static/a381cbe123484c239b97a005d5ce4a00/03323/image.webp 1x,\n/test-gatsby/static/a381cbe123484c239b97a005d5ce4a00/c8e9c/image.webp 1.5x,\n/test-gatsby/static/a381cbe123484c239b97a005d5ce4a00/e7f4c/image.webp 2x","width":380,"height":290},"hero":{"src":"/test-gatsby/static/a381cbe123484c239b97a005d5ce4a00/a8483/image.jpg","srcSet":"/test-gatsby/static/a381cbe123484c239b97a005d5ce4a00/a8483/image.jpg 1x","srcWebp":"/test-gatsby/static/a381cbe123484c239b97a005d5ce4a00/7330c/image.webp","srcSetWebp":"/test-gatsby/static/a381cbe123484c239b97a005d5ce4a00/7330c/image.webp 1x","width":1600,"height":650}}},{"__typename":"MdxArticleProxy","id":"5c102f0f-97e8-5bbf-bb6b-458ecba28d00","title":"Community Easy Sweet & Spicy Air Fryer Salmon","slug":"/community-easy-sweet-and-spicy-air-fryer-salmon/","link":null,"excerpt":"Primo in altis pelle alumnae Lorem markdownum obvius in seque opus, est bicorni forte; laeva…","timeToRead":1,"featured":null,"thumbnailText":null,"date":"April 16, 2019","category":{"__typename":"CategoriesJson","id":"4916fce5-b0dd-50fd-a3ec-83f6fbeaa238","name":"Recipes","slug":"/category/recipes/","color":"#c6f6d5","icon":"/test-gatsby/static/1de85bbd781531b61bf5a25b83d72d32/recipes.svg"},"author":{"__typename":"AuthorsJson","id":"504541e5-037a-525a-a50d-a979b8d77266","name":"John Doe","slug":"/author/john-doe/","title":"Web Developer","description":"Sed commodo, est quis maximus fermentum, massa ipsum euismod neque, in varius risus tellus quis lacus. Sed ac bibendum odio.","skills":["ASP.NET","Assembly","JavaScript"],"social":[{"name":"Instagram","url":"https://instagram.com/instagram"},{"name":"Twitter","url":"https://twitter.com/twitter"},{"name":"Website","url":"https://example.com"}],"thumbnail":{"__typename":"ImageSharp","regular":{"width":150,"height":150,"src":"/test-gatsby/static/011b3215b6b7e782f02d67aebfa4c319/97df7/john-doe.png","srcSet":"/test-gatsby/static/011b3215b6b7e782f02d67aebfa4c319/97df7/john-doe.png 1x,\n/test-gatsby/static/011b3215b6b7e782f02d67aebfa4c319/81b80/john-doe.png 1.5x,\n/test-gatsby/static/011b3215b6b7e782f02d67aebfa4c319/bb938/john-doe.png 2x"}}},"thumbnail":{"__typename":"ImageSharp","vertical":{"src":"/test-gatsby/static/a381cbe123484c239b97a005d5ce4a00/8f7be/image.jpg","srcSet":"/test-gatsby/static/a381cbe123484c239b97a005d5ce4a00/8f7be/image.jpg 1x,\n/test-gatsby/static/a381cbe123484c239b97a005d5ce4a00/1af80/image.jpg 1.5x,\n/test-gatsby/static/a381cbe123484c239b97a005d5ce4a00/1acf6/image.jpg 2x","srcWebp":"/test-gatsby/static/a381cbe123484c239b97a005d5ce4a00/03323/image.webp","srcSetWebp":"/test-gatsby/static/a381cbe123484c239b97a005d5ce4a00/03323/image.webp 1x,\n/test-gatsby/static/a381cbe123484c239b97a005d5ce4a00/c8e9c/image.webp 1.5x,\n/test-gatsby/static/a381cbe123484c239b97a005d5ce4a00/e7f4c/image.webp 2x","width":380,"height":290},"hero":{"src":"/test-gatsby/static/a381cbe123484c239b97a005d5ce4a00/a8483/image.jpg","srcSet":"/test-gatsby/static/a381cbe123484c239b97a005d5ce4a00/a8483/image.jpg 1x","srcWebp":"/test-gatsby/static/a381cbe123484c239b97a005d5ce4a00/7330c/image.webp","srcSetWebp":"/test-gatsby/static/a381cbe123484c239b97a005d5ce4a00/7330c/image.webp 1x","width":1600,"height":650}}},{"__typename":"MdxArticleProxy","id":"44f4665b-b913-556d-9e7b-2364744bc5df","title":"Community Coconut And Banana Oat Muffins","slug":"/community-coconut-and-banana-oat-muffins/","link":null,"excerpt":"Lorem markdownum quisque caeli, aura niger  molitur tangam  licebit, cum quo ut\nharenae pauper, eras…","timeToRead":1,"featured":null,"thumbnailText":null,"date":"April 16, 2019","category":{"__typename":"CategoriesJson","id":"4916fce5-b0dd-50fd-a3ec-83f6fbeaa238","name":"Recipes","slug":"/category/recipes/","color":"#c6f6d5","icon":"/test-gatsby/static/1de85bbd781531b61bf5a25b83d72d32/recipes.svg"},"author":{"__typename":"AuthorsJson","id":"d03d5c96-4a79-58f1-8c00-271c78c94ee7","name":"Steve Grant","slug":"/author/steve-grant/","title":"Product Designer","description":"Sed commodo, est quis maximus fermentum, massa ipsum euismod neque, in varius risus tellus quis lacus. Sed ac bibendum odio.","skills":["Public Relation","Market Analyst","Designer"],"social":[{"name":"Instagram","url":"https://instagram.com/instagram"},{"name":"Twitter","url":"https://twitter.com/twitter"},{"name":"Website","url":"https://example.com"}],"thumbnail":{"__typename":"ImageSharp","regular":{"width":150,"height":150,"src":"/test-gatsby/static/05d0ac7130e48a9a86ba018fac3dbe2d/97df7/steve-grant.png","srcSet":"/test-gatsby/static/05d0ac7130e48a9a86ba018fac3dbe2d/97df7/steve-grant.png 1x,\n/test-gatsby/static/05d0ac7130e48a9a86ba018fac3dbe2d/81b80/steve-grant.png 1.5x,\n/test-gatsby/static/05d0ac7130e48a9a86ba018fac3dbe2d/bb938/steve-grant.png 2x"}}},"thumbnail":{"__typename":"ImageSharp","vertical":{"src":"/test-gatsby/static/a381cbe123484c239b97a005d5ce4a00/8f7be/image.jpg","srcSet":"/test-gatsby/static/a381cbe123484c239b97a005d5ce4a00/8f7be/image.jpg 1x,\n/test-gatsby/static/a381cbe123484c239b97a005d5ce4a00/1af80/image.jpg 1.5x,\n/test-gatsby/static/a381cbe123484c239b97a005d5ce4a00/1acf6/image.jpg 2x","srcWebp":"/test-gatsby/static/a381cbe123484c239b97a005d5ce4a00/03323/image.webp","srcSetWebp":"/test-gatsby/static/a381cbe123484c239b97a005d5ce4a00/03323/image.webp 1x,\n/test-gatsby/static/a381cbe123484c239b97a005d5ce4a00/c8e9c/image.webp 1.5x,\n/test-gatsby/static/a381cbe123484c239b97a005d5ce4a00/e7f4c/image.webp 2x","width":380,"height":290},"hero":{"src":"/test-gatsby/static/a381cbe123484c239b97a005d5ce4a00/a8483/image.jpg","srcSet":"/test-gatsby/static/a381cbe123484c239b97a005d5ce4a00/a8483/image.jpg 1x","srcWebp":"/test-gatsby/static/a381cbe123484c239b97a005d5ce4a00/7330c/image.webp","srcSetWebp":"/test-gatsby/static/a381cbe123484c239b97a005d5ce4a00/7330c/image.webp 1x","width":1600,"height":650}}}],"pageInfo":{"pageCount":2,"hasPreviousPage":false,"hasNextPage":true,"currentPage":1},"totalCount":9}},"pageContext":{"slug":"/category/recipes/","limit":6,"skip":0,"collectionType":"category","paginatePostsPage":false,"basePath":"/","services":{"algolia":false,"mailchimp":false,"disqus":false},"siteUrl":null,"mobileMenu":{"title":"Topics","items":[{"name":"Shopping","slug":"/category/shopping/"},{"name":"News","slug":"/category/news/"},{"name":"Recipes","slug":"/category/recipes/"},{"name":"TV & Movies","slug":"/category/tv-and-movies/"}]},"darkMode":true}},"staticQueryHashes":["618338068","620128445","620128445"]}