{"componentChunkName":"component---packages-blog-core-src-templates-collection-tag-js","path":"/tag/business/page/8/","result":{"data":{"collectionInfo":{"id":"5ea748d6-7ed1-5b49-9732-2a99970da407","name":"#business","slug":"/tag/business/"},"posts":{"nodes":[{"__typename":"MdxArticleProxy","id":"3f7e6b82-954a-540e-aa04-01b4cdbc6e9e","title":"Peaceful Protesters Were Gassed Outside The White House","slug":"/peaceful-protesters-were-gassed-outside-the-white-house/","link":null,"excerpt":"Dona curvo sub evertere quam ultimus aridus Lorem markdownum , sub tecumque, posceret revertar…","timeToRead":1,"featured":null,"thumbnailText":null,"date":"April 16, 2019","category":{"__typename":"CategoriesJson","id":"49f29e24-4ccd-5dd6-a10e-f5df9f47bfc8","name":"投資理財","slug":"/category/investment/","color":"#e9d8fd","icon":"/notes/static/d29b482eedef98cc9c29a2dd9b5ace42/investment.svg"},"author":{"__typename":"AuthorsJson","id":"4b1e40cf-22c6-5dec-873b-77ed81aa0f5a","name":"Paul Jiang","slug":"/author/paul-jiang/","title":"AI 工程師","description":"TensorFlow Python 愛好者、React 愛好者、積極的利他主義者，最近在忙的是：價值投資、分享經驗、成就團隊","skills":["Deep Learning","TensorFlow","Micro Services","TypeScript","React"],"social":[{"name":"Kaggle","url":"https://www.kaggle.com/psheon"},{"name":"Github","url":"https://github.com/PSheon"},{"name":"Website","url":"https://psheon.github.io"}],"thumbnail":{"__typename":"ImageSharp","regular":{"width":150,"height":150,"src":"/notes/static/011b3215b6b7e782f02d67aebfa4c319/97df7/paul-jiang.png","srcSet":"/notes/static/011b3215b6b7e782f02d67aebfa4c319/97df7/paul-jiang.png 1x,\n/notes/static/011b3215b6b7e782f02d67aebfa4c319/81b80/paul-jiang.png 1.5x,\n/notes/static/011b3215b6b7e782f02d67aebfa4c319/bb938/paul-jiang.png 2x"}}},"thumbnail":{"__typename":"ImageSharp","vertical":{"src":"/notes/static/a381cbe123484c239b97a005d5ce4a00/8f7be/image.jpg","srcSet":"/notes/static/a381cbe123484c239b97a005d5ce4a00/8f7be/image.jpg 1x,\n/notes/static/a381cbe123484c239b97a005d5ce4a00/1af80/image.jpg 1.5x,\n/notes/static/a381cbe123484c239b97a005d5ce4a00/1acf6/image.jpg 2x","srcWebp":"/notes/static/a381cbe123484c239b97a005d5ce4a00/03323/image.webp","srcSetWebp":"/notes/static/a381cbe123484c239b97a005d5ce4a00/03323/image.webp 1x,\n/notes/static/a381cbe123484c239b97a005d5ce4a00/c8e9c/image.webp 1.5x,\n/notes/static/a381cbe123484c239b97a005d5ce4a00/e7f4c/image.webp 2x","width":380,"height":290},"hero":{"src":"/notes/static/a381cbe123484c239b97a005d5ce4a00/a8483/image.jpg","srcSet":"/notes/static/a381cbe123484c239b97a005d5ce4a00/a8483/image.jpg 1x","srcWebp":"/notes/static/a381cbe123484c239b97a005d5ce4a00/7330c/image.webp","srcSetWebp":"/notes/static/a381cbe123484c239b97a005d5ce4a00/7330c/image.webp 1x","width":1600,"height":650}}},{"__typename":"MdxArticleProxy","id":"5e8309e5-d565-5ed1-ae94-fb74516a2a82","title":"Instagram Influencing Has Long Had A Diversity Problem","slug":"/instagram-influencing-has-long-had-a-diversity-problem/","link":null,"excerpt":"Primo in altis pelle alumnae Lorem markdownum obvius in seque opus, est bicorni forte; laeva…","timeToRead":1,"featured":null,"thumbnailText":null,"date":"April 16, 2019","category":{"__typename":"CategoriesJson","id":"49f29e24-4ccd-5dd6-a10e-f5df9f47bfc8","name":"投資理財","slug":"/category/investment/","color":"#e9d8fd","icon":"/notes/static/d29b482eedef98cc9c29a2dd9b5ace42/investment.svg"},"author":{"__typename":"AuthorsJson","id":"4b1e40cf-22c6-5dec-873b-77ed81aa0f5a","name":"Paul Jiang","slug":"/author/paul-jiang/","title":"AI 工程師","description":"TensorFlow Python 愛好者、React 愛好者、積極的利他主義者，最近在忙的是：價值投資、分享經驗、成就團隊","skills":["Deep Learning","TensorFlow","Micro Services","TypeScript","React"],"social":[{"name":"Kaggle","url":"https://www.kaggle.com/psheon"},{"name":"Github","url":"https://github.com/PSheon"},{"name":"Website","url":"https://psheon.github.io"}],"thumbnail":{"__typename":"ImageSharp","regular":{"width":150,"height":150,"src":"/notes/static/011b3215b6b7e782f02d67aebfa4c319/97df7/paul-jiang.png","srcSet":"/notes/static/011b3215b6b7e782f02d67aebfa4c319/97df7/paul-jiang.png 1x,\n/notes/static/011b3215b6b7e782f02d67aebfa4c319/81b80/paul-jiang.png 1.5x,\n/notes/static/011b3215b6b7e782f02d67aebfa4c319/bb938/paul-jiang.png 2x"}}},"thumbnail":{"__typename":"ImageSharp","vertical":{"src":"/notes/static/a381cbe123484c239b97a005d5ce4a00/8f7be/image.jpg","srcSet":"/notes/static/a381cbe123484c239b97a005d5ce4a00/8f7be/image.jpg 1x,\n/notes/static/a381cbe123484c239b97a005d5ce4a00/1af80/image.jpg 1.5x,\n/notes/static/a381cbe123484c239b97a005d5ce4a00/1acf6/image.jpg 2x","srcWebp":"/notes/static/a381cbe123484c239b97a005d5ce4a00/03323/image.webp","srcSetWebp":"/notes/static/a381cbe123484c239b97a005d5ce4a00/03323/image.webp 1x,\n/notes/static/a381cbe123484c239b97a005d5ce4a00/c8e9c/image.webp 1.5x,\n/notes/static/a381cbe123484c239b97a005d5ce4a00/e7f4c/image.webp 2x","width":380,"height":290},"hero":{"src":"/notes/static/a381cbe123484c239b97a005d5ce4a00/a8483/image.jpg","srcSet":"/notes/static/a381cbe123484c239b97a005d5ce4a00/a8483/image.jpg 1x","srcWebp":"/notes/static/a381cbe123484c239b97a005d5ce4a00/7330c/image.webp","srcSetWebp":"/notes/static/a381cbe123484c239b97a005d5ce4a00/7330c/image.webp 1x","width":1600,"height":650}}},{"__typename":"MdxArticleProxy","id":"4580b7a7-fe67-54af-956d-0ee4f04d912e","title":"Iowa Voted A Racist Out Of Congress","slug":"/iowa-voted-a-racist-out-of-congress/","link":null,"excerpt":"Lorem markdownum illic venturi instructa nobis Echidnae,  cum  quid magna\nfatebor. Levat placetque…","timeToRead":1,"featured":null,"thumbnailText":null,"date":"April 16, 2019","category":{"__typename":"CategoriesJson","id":"49f29e24-4ccd-5dd6-a10e-f5df9f47bfc8","name":"投資理財","slug":"/category/investment/","color":"#e9d8fd","icon":"/notes/static/d29b482eedef98cc9c29a2dd9b5ace42/investment.svg"},"author":{"__typename":"AuthorsJson","id":"4b1e40cf-22c6-5dec-873b-77ed81aa0f5a","name":"Paul Jiang","slug":"/author/paul-jiang/","title":"AI 工程師","description":"TensorFlow Python 愛好者、React 愛好者、積極的利他主義者，最近在忙的是：價值投資、分享經驗、成就團隊","skills":["Deep Learning","TensorFlow","Micro Services","TypeScript","React"],"social":[{"name":"Kaggle","url":"https://www.kaggle.com/psheon"},{"name":"Github","url":"https://github.com/PSheon"},{"name":"Website","url":"https://psheon.github.io"}],"thumbnail":{"__typename":"ImageSharp","regular":{"width":150,"height":150,"src":"/notes/static/011b3215b6b7e782f02d67aebfa4c319/97df7/paul-jiang.png","srcSet":"/notes/static/011b3215b6b7e782f02d67aebfa4c319/97df7/paul-jiang.png 1x,\n/notes/static/011b3215b6b7e782f02d67aebfa4c319/81b80/paul-jiang.png 1.5x,\n/notes/static/011b3215b6b7e782f02d67aebfa4c319/bb938/paul-jiang.png 2x"}}},"thumbnail":{"__typename":"ImageSharp","vertical":{"src":"/notes/static/a381cbe123484c239b97a005d5ce4a00/8f7be/image.jpg","srcSet":"/notes/static/a381cbe123484c239b97a005d5ce4a00/8f7be/image.jpg 1x,\n/notes/static/a381cbe123484c239b97a005d5ce4a00/1af80/image.jpg 1.5x,\n/notes/static/a381cbe123484c239b97a005d5ce4a00/1acf6/image.jpg 2x","srcWebp":"/notes/static/a381cbe123484c239b97a005d5ce4a00/03323/image.webp","srcSetWebp":"/notes/static/a381cbe123484c239b97a005d5ce4a00/03323/image.webp 1x,\n/notes/static/a381cbe123484c239b97a005d5ce4a00/c8e9c/image.webp 1.5x,\n/notes/static/a381cbe123484c239b97a005d5ce4a00/e7f4c/image.webp 2x","width":380,"height":290},"hero":{"src":"/notes/static/a381cbe123484c239b97a005d5ce4a00/a8483/image.jpg","srcSet":"/notes/static/a381cbe123484c239b97a005d5ce4a00/a8483/image.jpg 1x","srcWebp":"/notes/static/a381cbe123484c239b97a005d5ce4a00/7330c/image.webp","srcSetWebp":"/notes/static/a381cbe123484c239b97a005d5ce4a00/7330c/image.webp 1x","width":1600,"height":650}}},{"__typename":"MdxArticleProxy","id":"11525dc5-299e-50c6-b765-80246c69085f","title":"Authorities Investigating The Huxley Stauffer Case","slug":"/authorities-investigating-the-huxley-stauffer-case/","link":null,"excerpt":"Dona curvo sub evertere quam ultimus aridus Lorem markdownum , sub tecumque, posceret revertar…","timeToRead":1,"featured":null,"thumbnailText":null,"date":"April 16, 2019","category":{"__typename":"CategoriesJson","id":"49f29e24-4ccd-5dd6-a10e-f5df9f47bfc8","name":"投資理財","slug":"/category/investment/","color":"#e9d8fd","icon":"/notes/static/d29b482eedef98cc9c29a2dd9b5ace42/investment.svg"},"author":{"__typename":"AuthorsJson","id":"4b1e40cf-22c6-5dec-873b-77ed81aa0f5a","name":"Paul Jiang","slug":"/author/paul-jiang/","title":"AI 工程師","description":"TensorFlow Python 愛好者、React 愛好者、積極的利他主義者，最近在忙的是：價值投資、分享經驗、成就團隊","skills":["Deep Learning","TensorFlow","Micro Services","TypeScript","React"],"social":[{"name":"Kaggle","url":"https://www.kaggle.com/psheon"},{"name":"Github","url":"https://github.com/PSheon"},{"name":"Website","url":"https://psheon.github.io"}],"thumbnail":{"__typename":"ImageSharp","regular":{"width":150,"height":150,"src":"/notes/static/011b3215b6b7e782f02d67aebfa4c319/97df7/paul-jiang.png","srcSet":"/notes/static/011b3215b6b7e782f02d67aebfa4c319/97df7/paul-jiang.png 1x,\n/notes/static/011b3215b6b7e782f02d67aebfa4c319/81b80/paul-jiang.png 1.5x,\n/notes/static/011b3215b6b7e782f02d67aebfa4c319/bb938/paul-jiang.png 2x"}}},"thumbnail":{"__typename":"ImageSharp","vertical":{"src":"/notes/static/a381cbe123484c239b97a005d5ce4a00/8f7be/image.jpg","srcSet":"/notes/static/a381cbe123484c239b97a005d5ce4a00/8f7be/image.jpg 1x,\n/notes/static/a381cbe123484c239b97a005d5ce4a00/1af80/image.jpg 1.5x,\n/notes/static/a381cbe123484c239b97a005d5ce4a00/1acf6/image.jpg 2x","srcWebp":"/notes/static/a381cbe123484c239b97a005d5ce4a00/03323/image.webp","srcSetWebp":"/notes/static/a381cbe123484c239b97a005d5ce4a00/03323/image.webp 1x,\n/notes/static/a381cbe123484c239b97a005d5ce4a00/c8e9c/image.webp 1.5x,\n/notes/static/a381cbe123484c239b97a005d5ce4a00/e7f4c/image.webp 2x","width":380,"height":290},"hero":{"src":"/notes/static/a381cbe123484c239b97a005d5ce4a00/a8483/image.jpg","srcSet":"/notes/static/a381cbe123484c239b97a005d5ce4a00/a8483/image.jpg 1x","srcWebp":"/notes/static/a381cbe123484c239b97a005d5ce4a00/7330c/image.webp","srcSetWebp":"/notes/static/a381cbe123484c239b97a005d5ce4a00/7330c/image.webp 1x","width":1600,"height":650}}},{"__typename":"MdxArticleProxy","id":"4ce0f832-9911-598c-abb1-ad0af25ce7e1","title":"An 18 Year Old Said She Was Raped While In Police Custody","slug":"/an-18-year-old-said-she-was-raped-while-in-police-custody/","link":null,"excerpt":"Primo in altis pelle alumnae Lorem markdownum obvius in seque opus, est bicorni forte; laeva…","timeToRead":1,"featured":null,"thumbnailText":null,"date":"April 16, 2019","category":{"__typename":"CategoriesJson","id":"49f29e24-4ccd-5dd6-a10e-f5df9f47bfc8","name":"投資理財","slug":"/category/investment/","color":"#e9d8fd","icon":"/notes/static/d29b482eedef98cc9c29a2dd9b5ace42/investment.svg"},"author":{"__typename":"AuthorsJson","id":"4b1e40cf-22c6-5dec-873b-77ed81aa0f5a","name":"Paul Jiang","slug":"/author/paul-jiang/","title":"AI 工程師","description":"TensorFlow Python 愛好者、React 愛好者、積極的利他主義者，最近在忙的是：價值投資、分享經驗、成就團隊","skills":["Deep Learning","TensorFlow","Micro Services","TypeScript","React"],"social":[{"name":"Kaggle","url":"https://www.kaggle.com/psheon"},{"name":"Github","url":"https://github.com/PSheon"},{"name":"Website","url":"https://psheon.github.io"}],"thumbnail":{"__typename":"ImageSharp","regular":{"width":150,"height":150,"src":"/notes/static/011b3215b6b7e782f02d67aebfa4c319/97df7/paul-jiang.png","srcSet":"/notes/static/011b3215b6b7e782f02d67aebfa4c319/97df7/paul-jiang.png 1x,\n/notes/static/011b3215b6b7e782f02d67aebfa4c319/81b80/paul-jiang.png 1.5x,\n/notes/static/011b3215b6b7e782f02d67aebfa4c319/bb938/paul-jiang.png 2x"}}},"thumbnail":{"__typename":"ImageSharp","vertical":{"src":"/notes/static/a381cbe123484c239b97a005d5ce4a00/8f7be/image.jpg","srcSet":"/notes/static/a381cbe123484c239b97a005d5ce4a00/8f7be/image.jpg 1x,\n/notes/static/a381cbe123484c239b97a005d5ce4a00/1af80/image.jpg 1.5x,\n/notes/static/a381cbe123484c239b97a005d5ce4a00/1acf6/image.jpg 2x","srcWebp":"/notes/static/a381cbe123484c239b97a005d5ce4a00/03323/image.webp","srcSetWebp":"/notes/static/a381cbe123484c239b97a005d5ce4a00/03323/image.webp 1x,\n/notes/static/a381cbe123484c239b97a005d5ce4a00/c8e9c/image.webp 1.5x,\n/notes/static/a381cbe123484c239b97a005d5ce4a00/e7f4c/image.webp 2x","width":380,"height":290},"hero":{"src":"/notes/static/a381cbe123484c239b97a005d5ce4a00/a8483/image.jpg","srcSet":"/notes/static/a381cbe123484c239b97a005d5ce4a00/a8483/image.jpg 1x","srcWebp":"/notes/static/a381cbe123484c239b97a005d5ce4a00/7330c/image.webp","srcSetWebp":"/notes/static/a381cbe123484c239b97a005d5ce4a00/7330c/image.webp 1x","width":1600,"height":650}}},{"__typename":"MdxArticleProxy","id":"2d5a1db9-df0c-57c8-9204-d249d813bbad","title":"A Lot Of Celebrities Are Being Useless Right Now","slug":"/a-lot-of-celebrities-are-being-useless-right-now/","link":null,"excerpt":"Lorem markdownum illic venturi instructa nobis Echidnae,  cum  quid magna\nfatebor. Levat placetque…","timeToRead":1,"featured":null,"thumbnailText":null,"date":"April 16, 2019","category":{"__typename":"CategoriesJson","id":"49f29e24-4ccd-5dd6-a10e-f5df9f47bfc8","name":"投資理財","slug":"/category/investment/","color":"#e9d8fd","icon":"/notes/static/d29b482eedef98cc9c29a2dd9b5ace42/investment.svg"},"author":{"__typename":"AuthorsJson","id":"4b1e40cf-22c6-5dec-873b-77ed81aa0f5a","name":"Paul Jiang","slug":"/author/paul-jiang/","title":"AI 工程師","description":"TensorFlow Python 愛好者、React 愛好者、積極的利他主義者，最近在忙的是：價值投資、分享經驗、成就團隊","skills":["Deep Learning","TensorFlow","Micro Services","TypeScript","React"],"social":[{"name":"Kaggle","url":"https://www.kaggle.com/psheon"},{"name":"Github","url":"https://github.com/PSheon"},{"name":"Website","url":"https://psheon.github.io"}],"thumbnail":{"__typename":"ImageSharp","regular":{"width":150,"height":150,"src":"/notes/static/011b3215b6b7e782f02d67aebfa4c319/97df7/paul-jiang.png","srcSet":"/notes/static/011b3215b6b7e782f02d67aebfa4c319/97df7/paul-jiang.png 1x,\n/notes/static/011b3215b6b7e782f02d67aebfa4c319/81b80/paul-jiang.png 1.5x,\n/notes/static/011b3215b6b7e782f02d67aebfa4c319/bb938/paul-jiang.png 2x"}}},"thumbnail":{"__typename":"ImageSharp","vertical":{"src":"/notes/static/a381cbe123484c239b97a005d5ce4a00/8f7be/image.jpg","srcSet":"/notes/static/a381cbe123484c239b97a005d5ce4a00/8f7be/image.jpg 1x,\n/notes/static/a381cbe123484c239b97a005d5ce4a00/1af80/image.jpg 1.5x,\n/notes/static/a381cbe123484c239b97a005d5ce4a00/1acf6/image.jpg 2x","srcWebp":"/notes/static/a381cbe123484c239b97a005d5ce4a00/03323/image.webp","srcSetWebp":"/notes/static/a381cbe123484c239b97a005d5ce4a00/03323/image.webp 1x,\n/notes/static/a381cbe123484c239b97a005d5ce4a00/c8e9c/image.webp 1.5x,\n/notes/static/a381cbe123484c239b97a005d5ce4a00/e7f4c/image.webp 2x","width":380,"height":290},"hero":{"src":"/notes/static/a381cbe123484c239b97a005d5ce4a00/a8483/image.jpg","srcSet":"/notes/static/a381cbe123484c239b97a005d5ce4a00/a8483/image.jpg 1x","srcWebp":"/notes/static/a381cbe123484c239b97a005d5ce4a00/7330c/image.webp","srcSetWebp":"/notes/static/a381cbe123484c239b97a005d5ce4a00/7330c/image.webp 1x","width":1600,"height":650}}}],"pageInfo":{"pageCount":8,"hasPreviousPage":true,"hasNextPage":false,"currentPage":8},"totalCount":48}},"pageContext":{"slug":"/tag/business/","limit":6,"skip":42,"collectionType":"tags","paginatePostsPage":false,"basePath":"/","services":{"algolia":true,"mailchimp":false,"disqus":true},"siteUrl":"https://psheon.github.io/notes","mobileMenu":{"title":"文章主題","items":[{"name":"機器學習","slug":"/category/machine-learning/"},{"name":"投資理財","slug":"/category/investment/"},{"name":"語言工具","slug":"/category/programing/"},{"name":"自我提升","slug":"/category/self-improvement/"},{"name":"科技新聞","slug":"/category/news/"}]},"darkMode":true}},"staticQueryHashes":["618338068","620128445","620128445"]}