{"componentChunkName":"component---packages-blog-core-src-templates-collection-author-js","path":"/author/john-doe/","result":{"data":{"collectionInfo":{"__typename":"AuthorsJson","id":"a1f55967-d7a4-5f6a-a7f9-a815f0599665","name":"John Doe","slug":"/author/john-doe/","title":"Web Developer","description":"Sed commodo, est quis maximus fermentum, massa ipsum euismod neque, in varius risus tellus quis lacus. Sed ac bibendum odio.","skills":["ASP.NET","Assembly","JavaScript"],"social":[{"name":"Instagram","url":"https://instagram.com/instagram"},{"name":"Twitter","url":"https://twitter.com/twitter"},{"name":"Website","url":"https://example.com"}],"thumbnail":{"__typename":"ImageSharp","regular":{"width":150,"height":150,"src":"/notes/static/011b3215b6b7e782f02d67aebfa4c319/97df7/john-doe.png","srcSet":"/notes/static/011b3215b6b7e782f02d67aebfa4c319/97df7/john-doe.png 1x,\n/notes/static/011b3215b6b7e782f02d67aebfa4c319/81b80/john-doe.png 1.5x,\n/notes/static/011b3215b6b7e782f02d67aebfa4c319/bb938/john-doe.png 2x"}}},"posts":{"nodes":[{"__typename":"MdxArticleProxy","id":"797faed1-adba-5b04-9caf-5bce831272be","title":"Only Someone Who's Seen The Mummy Will Pass This","slug":"/only-someone-whos-seen-the-mummy-will-pass-this/","link":null,"excerpt":"Primo in altis pelle alumnae Lorem markdownum obvius in seque opus, est bicorni forte; laeva…","timeToRead":1,"featured":true,"thumbnailText":null,"date":"June 02, 2020","category":{"__typename":"CategoriesJson","id":"a9193ada-8310-5368-9894-ed460ff68b8d","name":"語言工具","slug":"/category/programing/","color":"#e9d8fd","icon":"/notes/static/b30466bbed8424f7e36e19abcf2ed755/programing.svg"},"author":{"__typename":"AuthorsJson","id":"a1f55967-d7a4-5f6a-a7f9-a815f0599665","name":"John Doe","slug":"/author/john-doe/","title":"Web Developer","description":"Sed commodo, est quis maximus fermentum, massa ipsum euismod neque, in varius risus tellus quis lacus. Sed ac bibendum odio.","skills":["ASP.NET","Assembly","JavaScript"],"social":[{"name":"Instagram","url":"https://instagram.com/instagram"},{"name":"Twitter","url":"https://twitter.com/twitter"},{"name":"Website","url":"https://example.com"}],"thumbnail":{"__typename":"ImageSharp","regular":{"width":150,"height":150,"src":"/notes/static/011b3215b6b7e782f02d67aebfa4c319/97df7/john-doe.png","srcSet":"/notes/static/011b3215b6b7e782f02d67aebfa4c319/97df7/john-doe.png 1x,\n/notes/static/011b3215b6b7e782f02d67aebfa4c319/81b80/john-doe.png 1.5x,\n/notes/static/011b3215b6b7e782f02d67aebfa4c319/bb938/john-doe.png 2x"}}},"thumbnail":{"__typename":"ImageSharp","vertical":{"src":"/notes/static/a381cbe123484c239b97a005d5ce4a00/8f7be/image.jpg","srcSet":"/notes/static/a381cbe123484c239b97a005d5ce4a00/8f7be/image.jpg 1x,\n/notes/static/a381cbe123484c239b97a005d5ce4a00/1af80/image.jpg 1.5x,\n/notes/static/a381cbe123484c239b97a005d5ce4a00/1acf6/image.jpg 2x","srcWebp":"/notes/static/a381cbe123484c239b97a005d5ce4a00/03323/image.webp","srcSetWebp":"/notes/static/a381cbe123484c239b97a005d5ce4a00/03323/image.webp 1x,\n/notes/static/a381cbe123484c239b97a005d5ce4a00/c8e9c/image.webp 1.5x,\n/notes/static/a381cbe123484c239b97a005d5ce4a00/e7f4c/image.webp 2x","width":380,"height":290},"hero":{"src":"/notes/static/a381cbe123484c239b97a005d5ce4a00/a8483/image.jpg","srcSet":"/notes/static/a381cbe123484c239b97a005d5ce4a00/a8483/image.jpg 1x","srcWebp":"/notes/static/a381cbe123484c239b97a005d5ce4a00/7330c/image.webp","srcSetWebp":"/notes/static/a381cbe123484c239b97a005d5ce4a00/7330c/image.webp 1x","width":1600,"height":650}}},{"__typename":"MdxArticleProxy","id":"f10997c8-68db-5aa5-8a4b-40a1679ef918","title":"A Cop Who Said Let's Start A Riot In An Instagram Post Has Been Fired","slug":"/a-cop-who-said-lets-start-a-riot-in-an-instagram-post-has-been-fired/","link":null,"excerpt":"Lorem markdownum transitque nondum, Peliaeque at poterat exegit, urbis quo;\ntibi. Cursus mecum adit…","timeToRead":1,"featured":null,"thumbnailText":null,"date":"May 16, 2020","category":{"__typename":"CategoriesJson","id":"bbbe2153-8bf2-5b71-91d1-703924439977","name":"科技新聞","slug":"/category/news/","color":"#e9d8fd","icon":"/notes/static/93c9c75517e1a6e95deaecabf3d1d050/news.svg"},"author":{"__typename":"AuthorsJson","id":"a1f55967-d7a4-5f6a-a7f9-a815f0599665","name":"John Doe","slug":"/author/john-doe/","title":"Web Developer","description":"Sed commodo, est quis maximus fermentum, massa ipsum euismod neque, in varius risus tellus quis lacus. Sed ac bibendum odio.","skills":["ASP.NET","Assembly","JavaScript"],"social":[{"name":"Instagram","url":"https://instagram.com/instagram"},{"name":"Twitter","url":"https://twitter.com/twitter"},{"name":"Website","url":"https://example.com"}],"thumbnail":{"__typename":"ImageSharp","regular":{"width":150,"height":150,"src":"/notes/static/011b3215b6b7e782f02d67aebfa4c319/97df7/john-doe.png","srcSet":"/notes/static/011b3215b6b7e782f02d67aebfa4c319/97df7/john-doe.png 1x,\n/notes/static/011b3215b6b7e782f02d67aebfa4c319/81b80/john-doe.png 1.5x,\n/notes/static/011b3215b6b7e782f02d67aebfa4c319/bb938/john-doe.png 2x"}}},"thumbnail":{"__typename":"ImageSharp","vertical":{"src":"/notes/static/a381cbe123484c239b97a005d5ce4a00/8f7be/image.jpg","srcSet":"/notes/static/a381cbe123484c239b97a005d5ce4a00/8f7be/image.jpg 1x,\n/notes/static/a381cbe123484c239b97a005d5ce4a00/1af80/image.jpg 1.5x,\n/notes/static/a381cbe123484c239b97a005d5ce4a00/1acf6/image.jpg 2x","srcWebp":"/notes/static/a381cbe123484c239b97a005d5ce4a00/03323/image.webp","srcSetWebp":"/notes/static/a381cbe123484c239b97a005d5ce4a00/03323/image.webp 1x,\n/notes/static/a381cbe123484c239b97a005d5ce4a00/c8e9c/image.webp 1.5x,\n/notes/static/a381cbe123484c239b97a005d5ce4a00/e7f4c/image.webp 2x","width":380,"height":290},"hero":{"src":"/notes/static/a381cbe123484c239b97a005d5ce4a00/a8483/image.jpg","srcSet":"/notes/static/a381cbe123484c239b97a005d5ce4a00/a8483/image.jpg 1x","srcWebp":"/notes/static/a381cbe123484c239b97a005d5ce4a00/7330c/image.webp","srcSetWebp":"/notes/static/a381cbe123484c239b97a005d5ce4a00/7330c/image.webp 1x","width":1600,"height":650}}},{"__typename":"MdxArticleProxy","id":"526e2343-55cb-5a2f-bd10-b4e4f6410f2a","title":"These Actors Have Been In Multiple Movies Together⁠","slug":"/these-actors-have-been-in-multiple-movies-together/","link":null,"excerpt":"Primo in altis pelle alumnae Lorem markdownum obvius in seque opus, est bicorni forte; laeva…","timeToRead":1,"featured":null,"thumbnailText":null,"date":"April 02, 2020","category":{"__typename":"CategoriesJson","id":"a9193ada-8310-5368-9894-ed460ff68b8d","name":"語言工具","slug":"/category/programing/","color":"#e9d8fd","icon":"/notes/static/b30466bbed8424f7e36e19abcf2ed755/programing.svg"},"author":{"__typename":"AuthorsJson","id":"a1f55967-d7a4-5f6a-a7f9-a815f0599665","name":"John Doe","slug":"/author/john-doe/","title":"Web Developer","description":"Sed commodo, est quis maximus fermentum, massa ipsum euismod neque, in varius risus tellus quis lacus. Sed ac bibendum odio.","skills":["ASP.NET","Assembly","JavaScript"],"social":[{"name":"Instagram","url":"https://instagram.com/instagram"},{"name":"Twitter","url":"https://twitter.com/twitter"},{"name":"Website","url":"https://example.com"}],"thumbnail":{"__typename":"ImageSharp","regular":{"width":150,"height":150,"src":"/notes/static/011b3215b6b7e782f02d67aebfa4c319/97df7/john-doe.png","srcSet":"/notes/static/011b3215b6b7e782f02d67aebfa4c319/97df7/john-doe.png 1x,\n/notes/static/011b3215b6b7e782f02d67aebfa4c319/81b80/john-doe.png 1.5x,\n/notes/static/011b3215b6b7e782f02d67aebfa4c319/bb938/john-doe.png 2x"}}},"thumbnail":{"__typename":"ImageSharp","vertical":{"src":"/notes/static/a381cbe123484c239b97a005d5ce4a00/8f7be/image.jpg","srcSet":"/notes/static/a381cbe123484c239b97a005d5ce4a00/8f7be/image.jpg 1x,\n/notes/static/a381cbe123484c239b97a005d5ce4a00/1af80/image.jpg 1.5x,\n/notes/static/a381cbe123484c239b97a005d5ce4a00/1acf6/image.jpg 2x","srcWebp":"/notes/static/a381cbe123484c239b97a005d5ce4a00/03323/image.webp","srcSetWebp":"/notes/static/a381cbe123484c239b97a005d5ce4a00/03323/image.webp 1x,\n/notes/static/a381cbe123484c239b97a005d5ce4a00/c8e9c/image.webp 1.5x,\n/notes/static/a381cbe123484c239b97a005d5ce4a00/e7f4c/image.webp 2x","width":380,"height":290},"hero":{"src":"/notes/static/a381cbe123484c239b97a005d5ce4a00/a8483/image.jpg","srcSet":"/notes/static/a381cbe123484c239b97a005d5ce4a00/a8483/image.jpg 1x","srcWebp":"/notes/static/a381cbe123484c239b97a005d5ce4a00/7330c/image.webp","srcSetWebp":"/notes/static/a381cbe123484c239b97a005d5ce4a00/7330c/image.webp 1x","width":1600,"height":650}}},{"__typename":"MdxArticleProxy","id":"e8dc3a80-ffd8-5f27-98ee-56b33a4c9303","title":"Ramy Is the Comedy Series And Here's Why You Need To Watch","slug":"/ramy-is-the-comedy-series-and-heres-why-you-need-to-watch/","link":null,"excerpt":"Primo in altis pelle alumnae Lorem markdownum obvius in seque opus, est bicorni forte; laeva…","timeToRead":1,"featured":null,"thumbnailText":null,"date":"April 02, 2020","category":{"__typename":"CategoriesJson","id":"a9193ada-8310-5368-9894-ed460ff68b8d","name":"語言工具","slug":"/category/programing/","color":"#e9d8fd","icon":"/notes/static/b30466bbed8424f7e36e19abcf2ed755/programing.svg"},"author":{"__typename":"AuthorsJson","id":"a1f55967-d7a4-5f6a-a7f9-a815f0599665","name":"John Doe","slug":"/author/john-doe/","title":"Web Developer","description":"Sed commodo, est quis maximus fermentum, massa ipsum euismod neque, in varius risus tellus quis lacus. Sed ac bibendum odio.","skills":["ASP.NET","Assembly","JavaScript"],"social":[{"name":"Instagram","url":"https://instagram.com/instagram"},{"name":"Twitter","url":"https://twitter.com/twitter"},{"name":"Website","url":"https://example.com"}],"thumbnail":{"__typename":"ImageSharp","regular":{"width":150,"height":150,"src":"/notes/static/011b3215b6b7e782f02d67aebfa4c319/97df7/john-doe.png","srcSet":"/notes/static/011b3215b6b7e782f02d67aebfa4c319/97df7/john-doe.png 1x,\n/notes/static/011b3215b6b7e782f02d67aebfa4c319/81b80/john-doe.png 1.5x,\n/notes/static/011b3215b6b7e782f02d67aebfa4c319/bb938/john-doe.png 2x"}}},"thumbnail":{"__typename":"ImageSharp","vertical":{"src":"/notes/static/a381cbe123484c239b97a005d5ce4a00/8f7be/image.jpg","srcSet":"/notes/static/a381cbe123484c239b97a005d5ce4a00/8f7be/image.jpg 1x,\n/notes/static/a381cbe123484c239b97a005d5ce4a00/1af80/image.jpg 1.5x,\n/notes/static/a381cbe123484c239b97a005d5ce4a00/1acf6/image.jpg 2x","srcWebp":"/notes/static/a381cbe123484c239b97a005d5ce4a00/03323/image.webp","srcSetWebp":"/notes/static/a381cbe123484c239b97a005d5ce4a00/03323/image.webp 1x,\n/notes/static/a381cbe123484c239b97a005d5ce4a00/c8e9c/image.webp 1.5x,\n/notes/static/a381cbe123484c239b97a005d5ce4a00/e7f4c/image.webp 2x","width":380,"height":290},"hero":{"src":"/notes/static/a381cbe123484c239b97a005d5ce4a00/a8483/image.jpg","srcSet":"/notes/static/a381cbe123484c239b97a005d5ce4a00/a8483/image.jpg 1x","srcWebp":"/notes/static/a381cbe123484c239b97a005d5ce4a00/7330c/image.webp","srcSetWebp":"/notes/static/a381cbe123484c239b97a005d5ce4a00/7330c/image.webp 1x","width":1600,"height":650}}},{"__typename":"MdxArticleProxy","id":"a881709e-a84a-5713-829c-981f12c7030b","title":"Which Actors From Teen Movies Were Better?","slug":"/which-actors-from-teen-movies-were-better/","link":null,"excerpt":"Primo in altis pelle alumnae Lorem markdownum obvius in seque opus, est bicorni forte; laeva…","timeToRead":1,"featured":null,"thumbnailText":null,"date":"April 02, 2020","category":{"__typename":"CategoriesJson","id":"a9193ada-8310-5368-9894-ed460ff68b8d","name":"語言工具","slug":"/category/programing/","color":"#e9d8fd","icon":"/notes/static/b30466bbed8424f7e36e19abcf2ed755/programing.svg"},"author":{"__typename":"AuthorsJson","id":"a1f55967-d7a4-5f6a-a7f9-a815f0599665","name":"John Doe","slug":"/author/john-doe/","title":"Web Developer","description":"Sed commodo, est quis maximus fermentum, massa ipsum euismod neque, in varius risus tellus quis lacus. Sed ac bibendum odio.","skills":["ASP.NET","Assembly","JavaScript"],"social":[{"name":"Instagram","url":"https://instagram.com/instagram"},{"name":"Twitter","url":"https://twitter.com/twitter"},{"name":"Website","url":"https://example.com"}],"thumbnail":{"__typename":"ImageSharp","regular":{"width":150,"height":150,"src":"/notes/static/011b3215b6b7e782f02d67aebfa4c319/97df7/john-doe.png","srcSet":"/notes/static/011b3215b6b7e782f02d67aebfa4c319/97df7/john-doe.png 1x,\n/notes/static/011b3215b6b7e782f02d67aebfa4c319/81b80/john-doe.png 1.5x,\n/notes/static/011b3215b6b7e782f02d67aebfa4c319/bb938/john-doe.png 2x"}}},"thumbnail":{"__typename":"ImageSharp","vertical":{"src":"/notes/static/a381cbe123484c239b97a005d5ce4a00/8f7be/image.jpg","srcSet":"/notes/static/a381cbe123484c239b97a005d5ce4a00/8f7be/image.jpg 1x,\n/notes/static/a381cbe123484c239b97a005d5ce4a00/1af80/image.jpg 1.5x,\n/notes/static/a381cbe123484c239b97a005d5ce4a00/1acf6/image.jpg 2x","srcWebp":"/notes/static/a381cbe123484c239b97a005d5ce4a00/03323/image.webp","srcSetWebp":"/notes/static/a381cbe123484c239b97a005d5ce4a00/03323/image.webp 1x,\n/notes/static/a381cbe123484c239b97a005d5ce4a00/c8e9c/image.webp 1.5x,\n/notes/static/a381cbe123484c239b97a005d5ce4a00/e7f4c/image.webp 2x","width":380,"height":290},"hero":{"src":"/notes/static/a381cbe123484c239b97a005d5ce4a00/a8483/image.jpg","srcSet":"/notes/static/a381cbe123484c239b97a005d5ce4a00/a8483/image.jpg 1x","srcWebp":"/notes/static/a381cbe123484c239b97a005d5ce4a00/7330c/image.webp","srcSetWebp":"/notes/static/a381cbe123484c239b97a005d5ce4a00/7330c/image.webp 1x","width":1600,"height":650}}},{"__typename":"MdxArticleProxy","id":"bf383dc0-0d97-5710-ace9-c100c98411da","title":"Lea Responded After Being Accused Of Bullying Her Former","slug":"/lea-responded-after-being-accused-of-bullying-her-former/","link":null,"excerpt":"Primo in altis pelle alumnae Lorem markdownum obvius in seque opus, est bicorni forte; laeva…","timeToRead":1,"featured":null,"thumbnailText":null,"date":"April 02, 2020","category":{"__typename":"CategoriesJson","id":"a9193ada-8310-5368-9894-ed460ff68b8d","name":"語言工具","slug":"/category/programing/","color":"#e9d8fd","icon":"/notes/static/b30466bbed8424f7e36e19abcf2ed755/programing.svg"},"author":{"__typename":"AuthorsJson","id":"a1f55967-d7a4-5f6a-a7f9-a815f0599665","name":"John Doe","slug":"/author/john-doe/","title":"Web Developer","description":"Sed commodo, est quis maximus fermentum, massa ipsum euismod neque, in varius risus tellus quis lacus. Sed ac bibendum odio.","skills":["ASP.NET","Assembly","JavaScript"],"social":[{"name":"Instagram","url":"https://instagram.com/instagram"},{"name":"Twitter","url":"https://twitter.com/twitter"},{"name":"Website","url":"https://example.com"}],"thumbnail":{"__typename":"ImageSharp","regular":{"width":150,"height":150,"src":"/notes/static/011b3215b6b7e782f02d67aebfa4c319/97df7/john-doe.png","srcSet":"/notes/static/011b3215b6b7e782f02d67aebfa4c319/97df7/john-doe.png 1x,\n/notes/static/011b3215b6b7e782f02d67aebfa4c319/81b80/john-doe.png 1.5x,\n/notes/static/011b3215b6b7e782f02d67aebfa4c319/bb938/john-doe.png 2x"}}},"thumbnail":{"__typename":"ImageSharp","vertical":{"src":"/notes/static/a381cbe123484c239b97a005d5ce4a00/8f7be/image.jpg","srcSet":"/notes/static/a381cbe123484c239b97a005d5ce4a00/8f7be/image.jpg 1x,\n/notes/static/a381cbe123484c239b97a005d5ce4a00/1af80/image.jpg 1.5x,\n/notes/static/a381cbe123484c239b97a005d5ce4a00/1acf6/image.jpg 2x","srcWebp":"/notes/static/a381cbe123484c239b97a005d5ce4a00/03323/image.webp","srcSetWebp":"/notes/static/a381cbe123484c239b97a005d5ce4a00/03323/image.webp 1x,\n/notes/static/a381cbe123484c239b97a005d5ce4a00/c8e9c/image.webp 1.5x,\n/notes/static/a381cbe123484c239b97a005d5ce4a00/e7f4c/image.webp 2x","width":380,"height":290},"hero":{"src":"/notes/static/a381cbe123484c239b97a005d5ce4a00/a8483/image.jpg","srcSet":"/notes/static/a381cbe123484c239b97a005d5ce4a00/a8483/image.jpg 1x","srcWebp":"/notes/static/a381cbe123484c239b97a005d5ce4a00/7330c/image.webp","srcSetWebp":"/notes/static/a381cbe123484c239b97a005d5ce4a00/7330c/image.webp 1x","width":1600,"height":650}}}],"pageInfo":{"pageCount":4,"hasPreviousPage":false,"hasNextPage":true,"currentPage":1},"totalCount":23}},"pageContext":{"slug":"/author/john-doe/","limit":6,"skip":0,"collectionType":"author","paginatePostsPage":false,"basePath":"/","services":{"algolia":true,"mailchimp":false,"disqus":true},"siteUrl":"https://psheon.github.io/notes","mobileMenu":{"title":"文章主題","items":[{"name":"投資理財","slug":"/category/investment/"},{"name":"機器學習","slug":"/category/machine-learning/"},{"name":"科技新聞","slug":"/category/news/"},{"name":"自我提升","slug":"/category/self-improvement/"},{"name":"語言工具","slug":"/category/programing/"}]},"darkMode":true}},"staticQueryHashes":["618338068","620128445","620128445"]}