{"componentChunkName":"component---packages-blog-core-src-templates-collection-category-js","path":"/category/machine-learning/page/2/","result":{"data":{"collectionInfo":{"__typename":"CategoriesJson","id":"8d560e80-a4d7-509c-84e2-66d99336720f","name":"機器學習","slug":"/category/machine-learning/","description":"你可以想成它是通往人工智慧的一種方法。機器學習的特色是：自動從資料當中學到規則，找到一個夠好的方式來解決特定問題。"},"posts":{"nodes":[{"__typename":"MdxArticleProxy","id":"c904c571-424d-5bbd-bd60-345e1d959e3d","title":"Cafemaddy Shows You 3 Creative Ways Of Using Kimchi","slug":"/cafemaddy-shows-you-3-creative-ways-of-using-kimchi/","link":null,"excerpt":"Lorem markdownum illic venturi instructa nobis Echidnae,  cum  quid magna\nfatebor. Levat placetque…","timeToRead":1,"featured":null,"thumbnailText":null,"date":"April 16, 2019","category":{"__typename":"CategoriesJson","id":"8d560e80-a4d7-509c-84e2-66d99336720f","name":"機器學習","slug":"/category/machine-learning/","color":"#e9d8fd","icon":"/notes/static/a29eec5a44fa89b17db99d7a7800ba2c/machine-learning.svg"},"author":{"__typename":"AuthorsJson","id":"615fce5a-18a3-58b6-889d-1a7d6dd1047b","name":"Steve Grant","slug":"/author/steve-grant/","title":"Product Designer","description":"Sed commodo, est quis maximus fermentum, massa ipsum euismod neque, in varius risus tellus quis lacus. Sed ac bibendum odio.","skills":["Public Relation","Market Analyst","Designer"],"social":[{"name":"Instagram","url":"https://instagram.com/instagram"},{"name":"Twitter","url":"https://twitter.com/twitter"},{"name":"Website","url":"https://example.com"}],"thumbnail":{"__typename":"ImageSharp","regular":{"width":150,"height":150,"src":"/notes/static/05d0ac7130e48a9a86ba018fac3dbe2d/97df7/steve-grant.png","srcSet":"/notes/static/05d0ac7130e48a9a86ba018fac3dbe2d/97df7/steve-grant.png 1x,\n/notes/static/05d0ac7130e48a9a86ba018fac3dbe2d/81b80/steve-grant.png 1.5x,\n/notes/static/05d0ac7130e48a9a86ba018fac3dbe2d/bb938/steve-grant.png 2x"}}},"thumbnail":{"__typename":"ImageSharp","vertical":{"src":"/notes/static/a381cbe123484c239b97a005d5ce4a00/8f7be/image.jpg","srcSet":"/notes/static/a381cbe123484c239b97a005d5ce4a00/8f7be/image.jpg 1x,\n/notes/static/a381cbe123484c239b97a005d5ce4a00/1af80/image.jpg 1.5x,\n/notes/static/a381cbe123484c239b97a005d5ce4a00/1acf6/image.jpg 2x","srcWebp":"/notes/static/a381cbe123484c239b97a005d5ce4a00/03323/image.webp","srcSetWebp":"/notes/static/a381cbe123484c239b97a005d5ce4a00/03323/image.webp 1x,\n/notes/static/a381cbe123484c239b97a005d5ce4a00/c8e9c/image.webp 1.5x,\n/notes/static/a381cbe123484c239b97a005d5ce4a00/e7f4c/image.webp 2x","width":380,"height":290},"hero":{"src":"/notes/static/a381cbe123484c239b97a005d5ce4a00/a8483/image.jpg","srcSet":"/notes/static/a381cbe123484c239b97a005d5ce4a00/a8483/image.jpg 1x","srcWebp":"/notes/static/a381cbe123484c239b97a005d5ce4a00/7330c/image.webp","srcSetWebp":"/notes/static/a381cbe123484c239b97a005d5ce4a00/7330c/image.webp 1x","width":1600,"height":650}}},{"__typename":"MdxArticleProxy","id":"cfdcbb93-5796-570f-998c-164cade9d993","title":"6 Versatile Burger Recipes Fit For Every Type of Eater","slug":"/6-versatile-burger-recipes-fit-for-every-type-of-eater/","link":null,"excerpt":"Primo in altis pelle alumnae Lorem markdownum obvius in seque opus, est bicorni forte; laeva…","timeToRead":1,"featured":true,"thumbnailText":null,"date":"April 16, 2019","category":{"__typename":"CategoriesJson","id":"8d560e80-a4d7-509c-84e2-66d99336720f","name":"機器學習","slug":"/category/machine-learning/","color":"#e9d8fd","icon":"/notes/static/a29eec5a44fa89b17db99d7a7800ba2c/machine-learning.svg"},"author":{"__typename":"AuthorsJson","id":"a1f55967-d7a4-5f6a-a7f9-a815f0599665","name":"John Doe","slug":"/author/john-doe/","title":"Web Developer","description":"Sed commodo, est quis maximus fermentum, massa ipsum euismod neque, in varius risus tellus quis lacus. Sed ac bibendum odio.","skills":["ASP.NET","Assembly","JavaScript"],"social":[{"name":"Instagram","url":"https://instagram.com/instagram"},{"name":"Twitter","url":"https://twitter.com/twitter"},{"name":"Website","url":"https://example.com"}],"thumbnail":{"__typename":"ImageSharp","regular":{"width":150,"height":150,"src":"/notes/static/011b3215b6b7e782f02d67aebfa4c319/97df7/john-doe.png","srcSet":"/notes/static/011b3215b6b7e782f02d67aebfa4c319/97df7/john-doe.png 1x,\n/notes/static/011b3215b6b7e782f02d67aebfa4c319/81b80/john-doe.png 1.5x,\n/notes/static/011b3215b6b7e782f02d67aebfa4c319/bb938/john-doe.png 2x"}}},"thumbnail":{"__typename":"ImageSharp","vertical":{"src":"/notes/static/a381cbe123484c239b97a005d5ce4a00/8f7be/image.jpg","srcSet":"/notes/static/a381cbe123484c239b97a005d5ce4a00/8f7be/image.jpg 1x,\n/notes/static/a381cbe123484c239b97a005d5ce4a00/1af80/image.jpg 1.5x,\n/notes/static/a381cbe123484c239b97a005d5ce4a00/1acf6/image.jpg 2x","srcWebp":"/notes/static/a381cbe123484c239b97a005d5ce4a00/03323/image.webp","srcSetWebp":"/notes/static/a381cbe123484c239b97a005d5ce4a00/03323/image.webp 1x,\n/notes/static/a381cbe123484c239b97a005d5ce4a00/c8e9c/image.webp 1.5x,\n/notes/static/a381cbe123484c239b97a005d5ce4a00/e7f4c/image.webp 2x","width":380,"height":290},"hero":{"src":"/notes/static/a381cbe123484c239b97a005d5ce4a00/a8483/image.jpg","srcSet":"/notes/static/a381cbe123484c239b97a005d5ce4a00/a8483/image.jpg 1x","srcWebp":"/notes/static/a381cbe123484c239b97a005d5ce4a00/7330c/image.webp","srcSetWebp":"/notes/static/a381cbe123484c239b97a005d5ce4a00/7330c/image.webp 1x","width":1600,"height":650}}},{"__typename":"MdxArticleProxy","id":"86667ec2-461a-5549-897f-a2c89970a225","title":"5 BBQ Recipes to Get Your Summer Started","slug":"/5-bbq-recipes-to-get-your-summer-started/","link":null,"excerpt":"audio: test.mp3 Dona curvo sub evertere quam ultimus aridus Lorem markdownum , sub tecumque…","timeToRead":1,"featured":null,"thumbnailText":null,"date":"April 16, 2019","category":{"__typename":"CategoriesJson","id":"8d560e80-a4d7-509c-84e2-66d99336720f","name":"機器學習","slug":"/category/machine-learning/","color":"#e9d8fd","icon":"/notes/static/a29eec5a44fa89b17db99d7a7800ba2c/machine-learning.svg"},"author":{"__typename":"AuthorsJson","id":"a1f55967-d7a4-5f6a-a7f9-a815f0599665","name":"John Doe","slug":"/author/john-doe/","title":"Web Developer","description":"Sed commodo, est quis maximus fermentum, massa ipsum euismod neque, in varius risus tellus quis lacus. Sed ac bibendum odio.","skills":["ASP.NET","Assembly","JavaScript"],"social":[{"name":"Instagram","url":"https://instagram.com/instagram"},{"name":"Twitter","url":"https://twitter.com/twitter"},{"name":"Website","url":"https://example.com"}],"thumbnail":{"__typename":"ImageSharp","regular":{"width":150,"height":150,"src":"/notes/static/011b3215b6b7e782f02d67aebfa4c319/97df7/john-doe.png","srcSet":"/notes/static/011b3215b6b7e782f02d67aebfa4c319/97df7/john-doe.png 1x,\n/notes/static/011b3215b6b7e782f02d67aebfa4c319/81b80/john-doe.png 1.5x,\n/notes/static/011b3215b6b7e782f02d67aebfa4c319/bb938/john-doe.png 2x"}}},"thumbnail":{"__typename":"ImageSharp","vertical":{"src":"/notes/static/a381cbe123484c239b97a005d5ce4a00/8f7be/image.jpg","srcSet":"/notes/static/a381cbe123484c239b97a005d5ce4a00/8f7be/image.jpg 1x,\n/notes/static/a381cbe123484c239b97a005d5ce4a00/1af80/image.jpg 1.5x,\n/notes/static/a381cbe123484c239b97a005d5ce4a00/1acf6/image.jpg 2x","srcWebp":"/notes/static/a381cbe123484c239b97a005d5ce4a00/03323/image.webp","srcSetWebp":"/notes/static/a381cbe123484c239b97a005d5ce4a00/03323/image.webp 1x,\n/notes/static/a381cbe123484c239b97a005d5ce4a00/c8e9c/image.webp 1.5x,\n/notes/static/a381cbe123484c239b97a005d5ce4a00/e7f4c/image.webp 2x","width":380,"height":290},"hero":{"src":"/notes/static/a381cbe123484c239b97a005d5ce4a00/a8483/image.jpg","srcSet":"/notes/static/a381cbe123484c239b97a005d5ce4a00/a8483/image.jpg 1x","srcWebp":"/notes/static/a381cbe123484c239b97a005d5ce4a00/7330c/image.webp","srcSetWebp":"/notes/static/a381cbe123484c239b97a005d5ce4a00/7330c/image.webp 1x","width":1600,"height":650}}}],"pageInfo":{"pageCount":2,"hasPreviousPage":true,"hasNextPage":false,"currentPage":2},"totalCount":9}},"pageContext":{"slug":"/category/machine-learning/","limit":6,"skip":6,"collectionType":"category","paginatePostsPage":false,"basePath":"/","services":{"algolia":true,"mailchimp":false,"disqus":true},"siteUrl":"https://psheon.github.io/notes","mobileMenu":{"title":"文章主題","items":[{"name":"投資理財","slug":"/category/investment/"},{"name":"機器學習","slug":"/category/machine-learning/"},{"name":"科技新聞","slug":"/category/news/"},{"name":"自我提升","slug":"/category/self-improvement/"},{"name":"語言工具","slug":"/category/programing/"}]},"darkMode":true}},"staticQueryHashes":["618338068","620128445","620128445"]}