{"componentChunkName":"component---packages-blog-core-src-templates-collection-tag-js","path":"/tag/innovation/page/2/","result":{"data":{"collectionInfo":{"id":"b4b9cf5a-6f28-5919-adb6-ee37314cec58","name":"#innovation","slug":"/tag/innovation/"},"posts":{"nodes":[{"__typename":"MdxArticleProxy","id":"bb6a8ecc-224d-51e9-90ce-e7d29971bf71","title":"Here's How Fuller House Explained Aunt Becky's Absence","slug":"/heres-how-fuller-house-explained-aunt-beckys-absence/","link":null,"excerpt":"Primo in altis pelle alumnae Lorem markdownum obvius in seque opus, est bicorni forte; laeva…","timeToRead":1,"featured":null,"thumbnailText":null,"date":"April 02, 2020","category":{"__typename":"CategoriesJson","id":"bc345bd7-d6e6-55a6-82e8-4aec4c843ed7","name":"TV & Movies","slug":"/category/tv-and-movies/","color":"#bee3f8","icon":"/notes/static/f41361d1715191a688f7243a90b28bc7/tv-movies.svg"},"author":{"__typename":"AuthorsJson","id":"a1f55967-d7a4-5f6a-a7f9-a815f0599665","name":"John Doe","slug":"/author/john-doe/","title":"Web Developer","description":"Sed commodo, est quis maximus fermentum, massa ipsum euismod neque, in varius risus tellus quis lacus. Sed ac bibendum odio.","skills":["ASP.NET","Assembly","JavaScript"],"social":[{"name":"Instagram","url":"https://instagram.com/instagram"},{"name":"Twitter","url":"https://twitter.com/twitter"},{"name":"Website","url":"https://example.com"}],"thumbnail":{"__typename":"ImageSharp","regular":{"width":150,"height":150,"src":"/notes/static/011b3215b6b7e782f02d67aebfa4c319/97df7/john-doe.png","srcSet":"/notes/static/011b3215b6b7e782f02d67aebfa4c319/97df7/john-doe.png 1x,\n/notes/static/011b3215b6b7e782f02d67aebfa4c319/81b80/john-doe.png 1.5x,\n/notes/static/011b3215b6b7e782f02d67aebfa4c319/bb938/john-doe.png 2x"}}},"thumbnail":{"__typename":"ImageSharp","vertical":{"src":"/notes/static/a381cbe123484c239b97a005d5ce4a00/8f7be/image.jpg","srcSet":"/notes/static/a381cbe123484c239b97a005d5ce4a00/8f7be/image.jpg 1x,\n/notes/static/a381cbe123484c239b97a005d5ce4a00/1af80/image.jpg 1.5x,\n/notes/static/a381cbe123484c239b97a005d5ce4a00/1acf6/image.jpg 2x","srcWebp":"/notes/static/a381cbe123484c239b97a005d5ce4a00/03323/image.webp","srcSetWebp":"/notes/static/a381cbe123484c239b97a005d5ce4a00/03323/image.webp 1x,\n/notes/static/a381cbe123484c239b97a005d5ce4a00/c8e9c/image.webp 1.5x,\n/notes/static/a381cbe123484c239b97a005d5ce4a00/e7f4c/image.webp 2x","width":380,"height":290},"hero":{"src":"/notes/static/a381cbe123484c239b97a005d5ce4a00/a8483/image.jpg","srcSet":"/notes/static/a381cbe123484c239b97a005d5ce4a00/a8483/image.jpg 1x","srcWebp":"/notes/static/a381cbe123484c239b97a005d5ce4a00/7330c/image.webp","srcSetWebp":"/notes/static/a381cbe123484c239b97a005d5ce4a00/7330c/image.webp 1x","width":1600,"height":650}}},{"__typename":"MdxArticleProxy","id":"58a5c94b-708c-5394-b820-1d7cfe4018ab","title":"Here Are 22 Movies And Documentaries About Race","slug":"/here-are-22-movies-and-documentaries-about-race/","link":null,"excerpt":"Primo in altis pelle alumnae Lorem markdownum obvius in seque opus, est bicorni forte; laeva…","timeToRead":1,"featured":null,"thumbnailText":null,"date":"April 02, 2020","category":{"__typename":"CategoriesJson","id":"bc345bd7-d6e6-55a6-82e8-4aec4c843ed7","name":"TV & Movies","slug":"/category/tv-and-movies/","color":"#bee3f8","icon":"/notes/static/f41361d1715191a688f7243a90b28bc7/tv-movies.svg"},"author":{"__typename":"AuthorsJson","id":"a1f55967-d7a4-5f6a-a7f9-a815f0599665","name":"John Doe","slug":"/author/john-doe/","title":"Web Developer","description":"Sed commodo, est quis maximus fermentum, massa ipsum euismod neque, in varius risus tellus quis lacus. Sed ac bibendum odio.","skills":["ASP.NET","Assembly","JavaScript"],"social":[{"name":"Instagram","url":"https://instagram.com/instagram"},{"name":"Twitter","url":"https://twitter.com/twitter"},{"name":"Website","url":"https://example.com"}],"thumbnail":{"__typename":"ImageSharp","regular":{"width":150,"height":150,"src":"/notes/static/011b3215b6b7e782f02d67aebfa4c319/97df7/john-doe.png","srcSet":"/notes/static/011b3215b6b7e782f02d67aebfa4c319/97df7/john-doe.png 1x,\n/notes/static/011b3215b6b7e782f02d67aebfa4c319/81b80/john-doe.png 1.5x,\n/notes/static/011b3215b6b7e782f02d67aebfa4c319/bb938/john-doe.png 2x"}}},"thumbnail":{"__typename":"ImageSharp","vertical":{"src":"/notes/static/a381cbe123484c239b97a005d5ce4a00/8f7be/image.jpg","srcSet":"/notes/static/a381cbe123484c239b97a005d5ce4a00/8f7be/image.jpg 1x,\n/notes/static/a381cbe123484c239b97a005d5ce4a00/1af80/image.jpg 1.5x,\n/notes/static/a381cbe123484c239b97a005d5ce4a00/1acf6/image.jpg 2x","srcWebp":"/notes/static/a381cbe123484c239b97a005d5ce4a00/03323/image.webp","srcSetWebp":"/notes/static/a381cbe123484c239b97a005d5ce4a00/03323/image.webp 1x,\n/notes/static/a381cbe123484c239b97a005d5ce4a00/c8e9c/image.webp 1.5x,\n/notes/static/a381cbe123484c239b97a005d5ce4a00/e7f4c/image.webp 2x","width":380,"height":290},"hero":{"src":"/notes/static/a381cbe123484c239b97a005d5ce4a00/a8483/image.jpg","srcSet":"/notes/static/a381cbe123484c239b97a005d5ce4a00/a8483/image.jpg 1x","srcWebp":"/notes/static/a381cbe123484c239b97a005d5ce4a00/7330c/image.webp","srcSetWebp":"/notes/static/a381cbe123484c239b97a005d5ce4a00/7330c/image.webp 1x","width":1600,"height":650}}},{"__typename":"MdxArticleProxy","id":"4a0103e2-f5e9-53c8-aceb-4183c05d75de","title":"Do You Prefer Blair's Or Serena's Outfits From Gossip Girl","slug":"/do-you-prefer-blairs-or-serenas-outfits-from-gossip-girl/","link":null,"excerpt":"Primo in altis pelle alumnae Lorem markdownum obvius in seque opus, est bicorni forte; laeva…","timeToRead":1,"featured":null,"thumbnailText":null,"date":"April 02, 2020","category":{"__typename":"CategoriesJson","id":"bc345bd7-d6e6-55a6-82e8-4aec4c843ed7","name":"TV & Movies","slug":"/category/tv-and-movies/","color":"#bee3f8","icon":"/notes/static/f41361d1715191a688f7243a90b28bc7/tv-movies.svg"},"author":{"__typename":"AuthorsJson","id":"a1f55967-d7a4-5f6a-a7f9-a815f0599665","name":"John Doe","slug":"/author/john-doe/","title":"Web Developer","description":"Sed commodo, est quis maximus fermentum, massa ipsum euismod neque, in varius risus tellus quis lacus. Sed ac bibendum odio.","skills":["ASP.NET","Assembly","JavaScript"],"social":[{"name":"Instagram","url":"https://instagram.com/instagram"},{"name":"Twitter","url":"https://twitter.com/twitter"},{"name":"Website","url":"https://example.com"}],"thumbnail":{"__typename":"ImageSharp","regular":{"width":150,"height":150,"src":"/notes/static/011b3215b6b7e782f02d67aebfa4c319/97df7/john-doe.png","srcSet":"/notes/static/011b3215b6b7e782f02d67aebfa4c319/97df7/john-doe.png 1x,\n/notes/static/011b3215b6b7e782f02d67aebfa4c319/81b80/john-doe.png 1.5x,\n/notes/static/011b3215b6b7e782f02d67aebfa4c319/bb938/john-doe.png 2x"}}},"thumbnail":{"__typename":"ImageSharp","vertical":{"src":"/notes/static/a381cbe123484c239b97a005d5ce4a00/8f7be/image.jpg","srcSet":"/notes/static/a381cbe123484c239b97a005d5ce4a00/8f7be/image.jpg 1x,\n/notes/static/a381cbe123484c239b97a005d5ce4a00/1af80/image.jpg 1.5x,\n/notes/static/a381cbe123484c239b97a005d5ce4a00/1acf6/image.jpg 2x","srcWebp":"/notes/static/a381cbe123484c239b97a005d5ce4a00/03323/image.webp","srcSetWebp":"/notes/static/a381cbe123484c239b97a005d5ce4a00/03323/image.webp 1x,\n/notes/static/a381cbe123484c239b97a005d5ce4a00/c8e9c/image.webp 1.5x,\n/notes/static/a381cbe123484c239b97a005d5ce4a00/e7f4c/image.webp 2x","width":380,"height":290},"hero":{"src":"/notes/static/a381cbe123484c239b97a005d5ce4a00/a8483/image.jpg","srcSet":"/notes/static/a381cbe123484c239b97a005d5ce4a00/a8483/image.jpg 1x","srcWebp":"/notes/static/a381cbe123484c239b97a005d5ce4a00/7330c/image.webp","srcSetWebp":"/notes/static/a381cbe123484c239b97a005d5ce4a00/7330c/image.webp 1x","width":1600,"height":650}}}],"pageInfo":{"pageCount":2,"hasPreviousPage":true,"hasNextPage":false,"currentPage":2},"totalCount":9}},"pageContext":{"slug":"/tag/innovation/","limit":6,"skip":6,"collectionType":"tags","paginatePostsPage":false,"basePath":"/","services":{"algolia":true,"mailchimp":false,"disqus":true},"siteUrl":"https://psheon.github.io/notes","mobileMenu":{"title":"文章主題","items":[{"name":"投資理財","slug":"/category/investment/"},{"name":"機器學習","slug":"/category/machine-learning/"},{"name":"News","slug":"/category/news/"},{"name":"Recipes","slug":"/category/recipes/"},{"name":"語言工具","slug":"/category/programing/"},{"name":"Shopping","slug":"/category/shopping/"},{"name":"自我提升","slug":"/category/self-improvement/"},{"name":"TV & Movies","slug":"/category/tv-and-movies/"}]},"darkMode":true}},"staticQueryHashes":["618338068","620128445","620128445"]}