{"componentChunkName":"component---packages-blog-core-src-templates-collection-category-js","path":"/category/investment/","result":{"data":{"collectionInfo":{"__typename":"CategoriesJson","id":"49f29e24-4ccd-5dd6-a10e-f5df9f47bfc8","name":"投資理財","slug":"/category/investment/","description":"一位月入 5 萬元的店長認為自己有資格享受更好的生活、一位月入 7-8 萬的工程師認為自己隨便花下個月就能賺回來。這樣符合人性的想法在不知不覺中忽略了節流，未來只會賺得越多花的越多，總資產不但沒有隨著薪水增加而成長，反而讓自己一輩子被工作綁住。想要創造被動收入與財務自由，開源與節流必須同時注重，並妥善運用投資理財工具創造錢滾錢的財富正循環。"},"posts":{"nodes":[{"__typename":"MdxArticleProxy","id":"6e09a6f2-4f21-5883-bb71-dbb70ebd23ef","title":"Police Arrested More Than 11000 People At Protests Across The US","slug":"/police-arrested-more-than-11000-people-at-protests-across-the-us/","link":null,"excerpt":"Markdown is a lightweight markup language with plain-text-formatting syntax. Its design allows it to…","timeToRead":2,"featured":true,"thumbnailText":null,"date":"May 15, 2021","category":{"__typename":"CategoriesJson","id":"49f29e24-4ccd-5dd6-a10e-f5df9f47bfc8","name":"投資理財","slug":"/category/investment/","color":"#e9d8fd","icon":"/notes/static/d29b482eedef98cc9c29a2dd9b5ace42/investment.svg"},"author":{"__typename":"AuthorsJson","id":"4b1e40cf-22c6-5dec-873b-77ed81aa0f5a","name":"Paul Jiang","slug":"/author/paul-jiang/","title":"AI 工程師","description":"TensorFlow Python 愛好者、React 愛好者、積極的利他主義者，最近在忙的是：價值投資、分享經驗、成就團隊","skills":["Deep Learning","TensorFlow","Micro Services","TypeScript","React"],"social":[{"name":"Kaggle","url":"https://www.kaggle.com/psheon"},{"name":"Github","url":"https://github.com/PSheon"},{"name":"Website","url":"https://psheon.github.io"}],"thumbnail":{"__typename":"ImageSharp","regular":{"width":150,"height":150,"src":"/notes/static/011b3215b6b7e782f02d67aebfa4c319/97df7/paul-jiang.png","srcSet":"/notes/static/011b3215b6b7e782f02d67aebfa4c319/97df7/paul-jiang.png 1x,\n/notes/static/011b3215b6b7e782f02d67aebfa4c319/81b80/paul-jiang.png 1.5x,\n/notes/static/011b3215b6b7e782f02d67aebfa4c319/bb938/paul-jiang.png 2x"}}},"thumbnail":{"__typename":"ImageSharp","vertical":{"src":"/notes/static/a381cbe123484c239b97a005d5ce4a00/8f7be/image.jpg","srcSet":"/notes/static/a381cbe123484c239b97a005d5ce4a00/8f7be/image.jpg 1x,\n/notes/static/a381cbe123484c239b97a005d5ce4a00/1af80/image.jpg 1.5x,\n/notes/static/a381cbe123484c239b97a005d5ce4a00/1acf6/image.jpg 2x","srcWebp":"/notes/static/a381cbe123484c239b97a005d5ce4a00/03323/image.webp","srcSetWebp":"/notes/static/a381cbe123484c239b97a005d5ce4a00/03323/image.webp 1x,\n/notes/static/a381cbe123484c239b97a005d5ce4a00/c8e9c/image.webp 1.5x,\n/notes/static/a381cbe123484c239b97a005d5ce4a00/e7f4c/image.webp 2x","width":380,"height":290},"hero":{"src":"/notes/static/a381cbe123484c239b97a005d5ce4a00/a8483/image.jpg","srcSet":"/notes/static/a381cbe123484c239b97a005d5ce4a00/a8483/image.jpg 1x","srcWebp":"/notes/static/a381cbe123484c239b97a005d5ce4a00/7330c/image.webp","srcSetWebp":"/notes/static/a381cbe123484c239b97a005d5ce4a00/7330c/image.webp 1x","width":1600,"height":650}}},{"__typename":"MdxArticleProxy","id":"39f74bcd-6623-5039-8766-682c7031aee9","title":"A Cop Who Said Let's Start A Riot In An Instagram Post Has Been Fired","slug":"/a-cop-who-said-lets-start-a-riot-in-an-instagram-post-has-been-fired/","link":null,"excerpt":"Lorem markdownum transitque nondum, Peliaeque at poterat exegit, urbis quo;\ntibi. Cursus mecum adit…","timeToRead":1,"featured":null,"thumbnailText":null,"date":"May 16, 2020","category":{"__typename":"CategoriesJson","id":"49f29e24-4ccd-5dd6-a10e-f5df9f47bfc8","name":"投資理財","slug":"/category/investment/","color":"#e9d8fd","icon":"/notes/static/d29b482eedef98cc9c29a2dd9b5ace42/investment.svg"},"author":{"__typename":"AuthorsJson","id":"4b1e40cf-22c6-5dec-873b-77ed81aa0f5a","name":"Paul Jiang","slug":"/author/paul-jiang/","title":"AI 工程師","description":"TensorFlow Python 愛好者、React 愛好者、積極的利他主義者，最近在忙的是：價值投資、分享經驗、成就團隊","skills":["Deep Learning","TensorFlow","Micro Services","TypeScript","React"],"social":[{"name":"Kaggle","url":"https://www.kaggle.com/psheon"},{"name":"Github","url":"https://github.com/PSheon"},{"name":"Website","url":"https://psheon.github.io"}],"thumbnail":{"__typename":"ImageSharp","regular":{"width":150,"height":150,"src":"/notes/static/011b3215b6b7e782f02d67aebfa4c319/97df7/paul-jiang.png","srcSet":"/notes/static/011b3215b6b7e782f02d67aebfa4c319/97df7/paul-jiang.png 1x,\n/notes/static/011b3215b6b7e782f02d67aebfa4c319/81b80/paul-jiang.png 1.5x,\n/notes/static/011b3215b6b7e782f02d67aebfa4c319/bb938/paul-jiang.png 2x"}}},"thumbnail":{"__typename":"ImageSharp","vertical":{"src":"/notes/static/a381cbe123484c239b97a005d5ce4a00/8f7be/image.jpg","srcSet":"/notes/static/a381cbe123484c239b97a005d5ce4a00/8f7be/image.jpg 1x,\n/notes/static/a381cbe123484c239b97a005d5ce4a00/1af80/image.jpg 1.5x,\n/notes/static/a381cbe123484c239b97a005d5ce4a00/1acf6/image.jpg 2x","srcWebp":"/notes/static/a381cbe123484c239b97a005d5ce4a00/03323/image.webp","srcSetWebp":"/notes/static/a381cbe123484c239b97a005d5ce4a00/03323/image.webp 1x,\n/notes/static/a381cbe123484c239b97a005d5ce4a00/c8e9c/image.webp 1.5x,\n/notes/static/a381cbe123484c239b97a005d5ce4a00/e7f4c/image.webp 2x","width":380,"height":290},"hero":{"src":"/notes/static/a381cbe123484c239b97a005d5ce4a00/a8483/image.jpg","srcSet":"/notes/static/a381cbe123484c239b97a005d5ce4a00/a8483/image.jpg 1x","srcWebp":"/notes/static/a381cbe123484c239b97a005d5ce4a00/7330c/image.webp","srcSetWebp":"/notes/static/a381cbe123484c239b97a005d5ce4a00/7330c/image.webp 1x","width":1600,"height":650}}},{"__typename":"MdxArticleProxy","id":"d060d2b7-93ed-5726-bed6-d9f972407868","title":"We’re Keeping A Running List Of Hoaxes And Misleading...","slug":"/were-keeping-a-running-list-of-hoaxes-and-misleading/","link":null,"excerpt":"Lorem markdownum illic venturi instructa nobis Echidnae,  cum  quid magna\nfatebor. Levat placetque…","timeToRead":1,"featured":null,"thumbnailText":null,"date":"April 16, 2019","category":{"__typename":"CategoriesJson","id":"49f29e24-4ccd-5dd6-a10e-f5df9f47bfc8","name":"投資理財","slug":"/category/investment/","color":"#e9d8fd","icon":"/notes/static/d29b482eedef98cc9c29a2dd9b5ace42/investment.svg"},"author":{"__typename":"AuthorsJson","id":"4b1e40cf-22c6-5dec-873b-77ed81aa0f5a","name":"Paul Jiang","slug":"/author/paul-jiang/","title":"AI 工程師","description":"TensorFlow Python 愛好者、React 愛好者、積極的利他主義者，最近在忙的是：價值投資、分享經驗、成就團隊","skills":["Deep Learning","TensorFlow","Micro Services","TypeScript","React"],"social":[{"name":"Kaggle","url":"https://www.kaggle.com/psheon"},{"name":"Github","url":"https://github.com/PSheon"},{"name":"Website","url":"https://psheon.github.io"}],"thumbnail":{"__typename":"ImageSharp","regular":{"width":150,"height":150,"src":"/notes/static/011b3215b6b7e782f02d67aebfa4c319/97df7/paul-jiang.png","srcSet":"/notes/static/011b3215b6b7e782f02d67aebfa4c319/97df7/paul-jiang.png 1x,\n/notes/static/011b3215b6b7e782f02d67aebfa4c319/81b80/paul-jiang.png 1.5x,\n/notes/static/011b3215b6b7e782f02d67aebfa4c319/bb938/paul-jiang.png 2x"}}},"thumbnail":{"__typename":"ImageSharp","vertical":{"src":"/notes/static/a381cbe123484c239b97a005d5ce4a00/8f7be/image.jpg","srcSet":"/notes/static/a381cbe123484c239b97a005d5ce4a00/8f7be/image.jpg 1x,\n/notes/static/a381cbe123484c239b97a005d5ce4a00/1af80/image.jpg 1.5x,\n/notes/static/a381cbe123484c239b97a005d5ce4a00/1acf6/image.jpg 2x","srcWebp":"/notes/static/a381cbe123484c239b97a005d5ce4a00/03323/image.webp","srcSetWebp":"/notes/static/a381cbe123484c239b97a005d5ce4a00/03323/image.webp 1x,\n/notes/static/a381cbe123484c239b97a005d5ce4a00/c8e9c/image.webp 1.5x,\n/notes/static/a381cbe123484c239b97a005d5ce4a00/e7f4c/image.webp 2x","width":380,"height":290},"hero":{"src":"/notes/static/a381cbe123484c239b97a005d5ce4a00/a8483/image.jpg","srcSet":"/notes/static/a381cbe123484c239b97a005d5ce4a00/a8483/image.jpg 1x","srcWebp":"/notes/static/a381cbe123484c239b97a005d5ce4a00/7330c/image.webp","srcSetWebp":"/notes/static/a381cbe123484c239b97a005d5ce4a00/7330c/image.webp 1x","width":1600,"height":650}}},{"__typename":"MdxArticleProxy","id":"7e3d8eca-d70b-50f7-bc55-a59fee9a4a7c","title":"We Still Don't Know Exactly How The Stauffers Placed","slug":"/we-still-dont-know-exactly-how-the-stauffers-placed/","link":null,"excerpt":"Lorem markdownum suarum successibus Auram illud. Aqua exegit silvae exiguam\ntempli, cui linquit…","timeToRead":1,"featured":null,"thumbnailText":null,"date":"April 16, 2019","category":{"__typename":"CategoriesJson","id":"49f29e24-4ccd-5dd6-a10e-f5df9f47bfc8","name":"投資理財","slug":"/category/investment/","color":"#e9d8fd","icon":"/notes/static/d29b482eedef98cc9c29a2dd9b5ace42/investment.svg"},"author":{"__typename":"AuthorsJson","id":"4b1e40cf-22c6-5dec-873b-77ed81aa0f5a","name":"Paul Jiang","slug":"/author/paul-jiang/","title":"AI 工程師","description":"TensorFlow Python 愛好者、React 愛好者、積極的利他主義者，最近在忙的是：價值投資、分享經驗、成就團隊","skills":["Deep Learning","TensorFlow","Micro Services","TypeScript","React"],"social":[{"name":"Kaggle","url":"https://www.kaggle.com/psheon"},{"name":"Github","url":"https://github.com/PSheon"},{"name":"Website","url":"https://psheon.github.io"}],"thumbnail":{"__typename":"ImageSharp","regular":{"width":150,"height":150,"src":"/notes/static/011b3215b6b7e782f02d67aebfa4c319/97df7/paul-jiang.png","srcSet":"/notes/static/011b3215b6b7e782f02d67aebfa4c319/97df7/paul-jiang.png 1x,\n/notes/static/011b3215b6b7e782f02d67aebfa4c319/81b80/paul-jiang.png 1.5x,\n/notes/static/011b3215b6b7e782f02d67aebfa4c319/bb938/paul-jiang.png 2x"}}},"thumbnail":{"__typename":"ImageSharp","vertical":{"src":"/notes/static/a381cbe123484c239b97a005d5ce4a00/8f7be/image.jpg","srcSet":"/notes/static/a381cbe123484c239b97a005d5ce4a00/8f7be/image.jpg 1x,\n/notes/static/a381cbe123484c239b97a005d5ce4a00/1af80/image.jpg 1.5x,\n/notes/static/a381cbe123484c239b97a005d5ce4a00/1acf6/image.jpg 2x","srcWebp":"/notes/static/a381cbe123484c239b97a005d5ce4a00/03323/image.webp","srcSetWebp":"/notes/static/a381cbe123484c239b97a005d5ce4a00/03323/image.webp 1x,\n/notes/static/a381cbe123484c239b97a005d5ce4a00/c8e9c/image.webp 1.5x,\n/notes/static/a381cbe123484c239b97a005d5ce4a00/e7f4c/image.webp 2x","width":380,"height":290},"hero":{"src":"/notes/static/a381cbe123484c239b97a005d5ce4a00/a8483/image.jpg","srcSet":"/notes/static/a381cbe123484c239b97a005d5ce4a00/a8483/image.jpg 1x","srcWebp":"/notes/static/a381cbe123484c239b97a005d5ce4a00/7330c/image.webp","srcSetWebp":"/notes/static/a381cbe123484c239b97a005d5ce4a00/7330c/image.webp 1x","width":1600,"height":650}}},{"__typename":"MdxArticleProxy","id":"37bd2564-8a39-51cb-82db-f1bc831ce781","title":"There’s One Big Reason Why Police Brutality Is so...","slug":"/theres-one-big-reason-why-police-brutality-is-so/","link":null,"excerpt":"Lorem markdownum transitque nondum, Peliaeque at poterat exegit, urbis quo;\ntibi. Cursus mecum adit…","timeToRead":1,"featured":null,"thumbnailText":null,"date":"April 16, 2019","category":{"__typename":"CategoriesJson","id":"49f29e24-4ccd-5dd6-a10e-f5df9f47bfc8","name":"投資理財","slug":"/category/investment/","color":"#e9d8fd","icon":"/notes/static/d29b482eedef98cc9c29a2dd9b5ace42/investment.svg"},"author":{"__typename":"AuthorsJson","id":"4b1e40cf-22c6-5dec-873b-77ed81aa0f5a","name":"Paul Jiang","slug":"/author/paul-jiang/","title":"AI 工程師","description":"TensorFlow Python 愛好者、React 愛好者、積極的利他主義者，最近在忙的是：價值投資、分享經驗、成就團隊","skills":["Deep Learning","TensorFlow","Micro Services","TypeScript","React"],"social":[{"name":"Kaggle","url":"https://www.kaggle.com/psheon"},{"name":"Github","url":"https://github.com/PSheon"},{"name":"Website","url":"https://psheon.github.io"}],"thumbnail":{"__typename":"ImageSharp","regular":{"width":150,"height":150,"src":"/notes/static/011b3215b6b7e782f02d67aebfa4c319/97df7/paul-jiang.png","srcSet":"/notes/static/011b3215b6b7e782f02d67aebfa4c319/97df7/paul-jiang.png 1x,\n/notes/static/011b3215b6b7e782f02d67aebfa4c319/81b80/paul-jiang.png 1.5x,\n/notes/static/011b3215b6b7e782f02d67aebfa4c319/bb938/paul-jiang.png 2x"}}},"thumbnail":{"__typename":"ImageSharp","vertical":{"src":"/notes/static/a381cbe123484c239b97a005d5ce4a00/8f7be/image.jpg","srcSet":"/notes/static/a381cbe123484c239b97a005d5ce4a00/8f7be/image.jpg 1x,\n/notes/static/a381cbe123484c239b97a005d5ce4a00/1af80/image.jpg 1.5x,\n/notes/static/a381cbe123484c239b97a005d5ce4a00/1acf6/image.jpg 2x","srcWebp":"/notes/static/a381cbe123484c239b97a005d5ce4a00/03323/image.webp","srcSetWebp":"/notes/static/a381cbe123484c239b97a005d5ce4a00/03323/image.webp 1x,\n/notes/static/a381cbe123484c239b97a005d5ce4a00/c8e9c/image.webp 1.5x,\n/notes/static/a381cbe123484c239b97a005d5ce4a00/e7f4c/image.webp 2x","width":380,"height":290},"hero":{"src":"/notes/static/a381cbe123484c239b97a005d5ce4a00/a8483/image.jpg","srcSet":"/notes/static/a381cbe123484c239b97a005d5ce4a00/a8483/image.jpg 1x","srcWebp":"/notes/static/a381cbe123484c239b97a005d5ce4a00/7330c/image.webp","srcSetWebp":"/notes/static/a381cbe123484c239b97a005d5ce4a00/7330c/image.webp 1x","width":1600,"height":650}}},{"__typename":"MdxArticleProxy","id":"3f7e6b82-954a-540e-aa04-01b4cdbc6e9e","title":"Peaceful Protesters Were Gassed Outside The White House","slug":"/peaceful-protesters-were-gassed-outside-the-white-house/","link":null,"excerpt":"Dona curvo sub evertere quam ultimus aridus Lorem markdownum , sub tecumque, posceret revertar…","timeToRead":1,"featured":null,"thumbnailText":null,"date":"April 16, 2019","category":{"__typename":"CategoriesJson","id":"49f29e24-4ccd-5dd6-a10e-f5df9f47bfc8","name":"投資理財","slug":"/category/investment/","color":"#e9d8fd","icon":"/notes/static/d29b482eedef98cc9c29a2dd9b5ace42/investment.svg"},"author":{"__typename":"AuthorsJson","id":"4b1e40cf-22c6-5dec-873b-77ed81aa0f5a","name":"Paul Jiang","slug":"/author/paul-jiang/","title":"AI 工程師","description":"TensorFlow Python 愛好者、React 愛好者、積極的利他主義者，最近在忙的是：價值投資、分享經驗、成就團隊","skills":["Deep Learning","TensorFlow","Micro Services","TypeScript","React"],"social":[{"name":"Kaggle","url":"https://www.kaggle.com/psheon"},{"name":"Github","url":"https://github.com/PSheon"},{"name":"Website","url":"https://psheon.github.io"}],"thumbnail":{"__typename":"ImageSharp","regular":{"width":150,"height":150,"src":"/notes/static/011b3215b6b7e782f02d67aebfa4c319/97df7/paul-jiang.png","srcSet":"/notes/static/011b3215b6b7e782f02d67aebfa4c319/97df7/paul-jiang.png 1x,\n/notes/static/011b3215b6b7e782f02d67aebfa4c319/81b80/paul-jiang.png 1.5x,\n/notes/static/011b3215b6b7e782f02d67aebfa4c319/bb938/paul-jiang.png 2x"}}},"thumbnail":{"__typename":"ImageSharp","vertical":{"src":"/notes/static/a381cbe123484c239b97a005d5ce4a00/8f7be/image.jpg","srcSet":"/notes/static/a381cbe123484c239b97a005d5ce4a00/8f7be/image.jpg 1x,\n/notes/static/a381cbe123484c239b97a005d5ce4a00/1af80/image.jpg 1.5x,\n/notes/static/a381cbe123484c239b97a005d5ce4a00/1acf6/image.jpg 2x","srcWebp":"/notes/static/a381cbe123484c239b97a005d5ce4a00/03323/image.webp","srcSetWebp":"/notes/static/a381cbe123484c239b97a005d5ce4a00/03323/image.webp 1x,\n/notes/static/a381cbe123484c239b97a005d5ce4a00/c8e9c/image.webp 1.5x,\n/notes/static/a381cbe123484c239b97a005d5ce4a00/e7f4c/image.webp 2x","width":380,"height":290},"hero":{"src":"/notes/static/a381cbe123484c239b97a005d5ce4a00/a8483/image.jpg","srcSet":"/notes/static/a381cbe123484c239b97a005d5ce4a00/a8483/image.jpg 1x","srcWebp":"/notes/static/a381cbe123484c239b97a005d5ce4a00/7330c/image.webp","srcSetWebp":"/notes/static/a381cbe123484c239b97a005d5ce4a00/7330c/image.webp 1x","width":1600,"height":650}}}],"pageInfo":{"pageCount":2,"hasPreviousPage":false,"hasNextPage":true,"currentPage":1},"totalCount":11}},"pageContext":{"slug":"/category/investment/","limit":6,"skip":0,"collectionType":"category","paginatePostsPage":false,"basePath":"/","services":{"algolia":true,"mailchimp":false,"disqus":true},"siteUrl":"https://psheon.github.io/notes","mobileMenu":{"title":"文章主題","items":[{"name":"投資理財","slug":"/category/investment/"},{"name":"機器學習","slug":"/category/machine-learning/"},{"name":"科技新聞","slug":"/category/news/"},{"name":"自我提升","slug":"/category/self-improvement/"},{"name":"語言工具","slug":"/category/programing/"}]},"darkMode":true}},"staticQueryHashes":["618338068","620128445","620128445"]}